20181009/Trafo gas 1.csv

Record Length,2500,Points,-20.80000006E-3,-600.000000000,,Record Length,2500,Points,-20.80000006E-3,0.0,,Record Length,2500,Points,-20.80000006E-3,0.0,
Sample Interval,19.9999995E-6,s,-20.78000084E-3,-600.000000000,,Sample Interval,19.9999995E-6,s,-20.78000084E-3,4.00000019E-3,,Sample Interval,19.9999995E-6,s,-20.78000084E-3,0.0,
Trigger Point,1.0400001E3,Samples,-20.75999975E-3,-400.00000000,,Trigger Point,1.0400001E3,Samples,-20.75999975E-3,0.0,,Trigger Point,1.0400001E3,Samples,-20.75999975E-3,0.0,
,,,-20.74000053E-3,-400.00000000,,,,,-20.74000053E-3,0.0,,,,,-20.74000053E-3,0.0,
,,,-20.71999945E-3,-400.00000000,,,,,-20.71999945E-3,0.0,,,,,-20.71999945E-3,0.0,
,,,-20.70000023E-3,-400.00000000,,,,,-20.70000023E-3,4.00000019E-3,,,,,-20.70000023E-3,0.0,
Source,CH1,,-20.67999914E-3,-400.00000000,,Source,CH2,,-20.67999914E-3,0.0,,Source,CH3,,-20.67999914E-3,0.0,
Vertical Units,Volts,,-20.65999992E-3,-400.00000000,,Vertical Units,Volts,,-20.65999992E-3,4.00000019E-3,,Vertical Units,Volts,,-20.65999992E-3,0.0,
Vertical Scale,5.00000024E3,,-20.64000070E-3,-400.00000000,,Vertical Scale,100.0000047E-3,,-20.64000070E-3,4.00000019E-3,,Vertical Scale,2.0000000,,-20.64000070E-3,0.0,
Vertical Offset,0,,-20.61999962E-3,-400.00000000,,Vertical Offset,0,,-20.61999962E-3,0.0,,Vertical Offset,0,,-20.61999962E-3,0.0,
Horizontal Units,s,,-20.60000040E-3,-200.00000000,,Horizontal Units,s,,-20.60000040E-3,0.0,,Horizontal Units,s,,-20.60000040E-3,0.0,
Horizontal Scale,4.99999987E-3,,-20.57999931E-3,-400.00000000,,Horizontal Scale,4.99999987E-3,,-20.57999931E-3,4.00000019E-3,,Horizontal Scale,4.99999987E-3,,-20.57999931E-3,0.0,
Pt Fmt,Y,,-20.56000009E-3,-200.00000000,,Pt Fmt,Y,,-20.56000009E-3,0.0,,Pt Fmt,Y,,-20.56000009E-3,0.0,
Yzero,1.2800000,,-20.54000087E-3,-200.00000000,,Yzero,-1.9600000,,-20.54000087E-3,4.00000019E-3,,Yzero,-2.4800000,,-20.54000087E-3,0.0,
Probe Atten,1.0000000E3,,-20.51999979E-3,-200.00000000,,Probe Atten,1.000000,,-20.51999979E-3,4.00000019E-3,,Probe Atten,10.0000000,,-20.51999979E-3,0.0,
,,,-20.50000057E-3,-200.00000000,,,,,-20.50000057E-3,4.00000019E-3,,,,,-20.50000057E-3,0.0,
Note,TDS 2004B - 12:45:55 PM   10/9/2018,,-20.47999948E-3,-200.00000000,,Note,TDS 2004B - 12:45:55 PM   10/9/2018,,-20.47999948E-3,4.00000019E-3,,Note,TDS 2004B - 12:45:55 PM   10/9/2018,,-20.47999948E-3,0.0,
,,,-20.46000026E-3,-200.00000000,,,,,-20.46000026E-3,0.0,,,,,-20.46000026E-3,0.0,
,,,-20.43999918E-3,-200.00000000,,,,,-20.43999918E-3,0.0,,,,,-20.43999918E-3,0.0,
,,,-20.41999996E-3,0.0,,,,,-20.41999996E-3,0.0,,,,,-20.41999996E-3,0.0,
,,,-20.40000074E-3,200.00000000,,,,,-20.40000074E-3,4.00000019E-3,,,,,-20.40000074E-3,0.0,
,,,-20.37999965E-3,0.0,,,,,-20.37999965E-3,0.0,,,,,-20.37999965E-3,0.0,
,,,-20.36000043E-3,200.00000000,,,,,-20.36000043E-3,0.0,,,,,-20.36000043E-3,0.0,
,,,-20.33999935E-3,200.00000000,,,,,-20.33999935E-3,0.0,,,,,-20.33999935E-3,0.0,
,,,-20.32000013E-3,200.00000000,,,,,-20.32000013E-3,4.00000019E-3,,,,,-20.32000013E-3,0.0,
,,,-20.30000091E-3,200.00000000,,,,,-20.30000091E-3,0.0,,,,,-20.30000091E-3,0.0,
,,,-20.27999982E-3,400.00000000,,,,,-20.27999982E-3,4.00000019E-3,,,,,-20.27999982E-3,0.0,
,,,-20.26000060E-3,200.00000000,,,,,-20.26000060E-3,0.0,,,,,-20.26000060E-3,0.0,
,,,-20.23999952E-3,400.00000000,,,,,-20.23999952E-3,4.00000019E-3,,,,,-20.23999952E-3,0.0,
,,,-20.22000030E-3,400.00000000,,,,,-20.22000030E-3,4.00000019E-3,,,,,-20.22000030E-3,0.0,
,,,-20.19999921E-3,400.00000000,,,,,-20.19999921E-3,4.00000019E-3,,,,,-20.19999921E-3,0.0,
,,,-20.17999999E-3,400.00000000,,,,,-20.17999999E-3,4.00000019E-3,,,,,-20.17999999E-3,0.0,
,,,-20.16000077E-3,400.00000000,,,,,-20.16000077E-3,0.0,,,,,-20.16000077E-3,0.0,
,,,-20.13999969E-3,600.000000000,,,,,-20.13999969E-3,4.00000019E-3,,,,,-20.13999969E-3,0.0,
,,,-20.12000047E-3,600.000000000,,,,,-20.12000047E-3,0.0,,,,,-20.12000047E-3,0.0,
,,,-20.09999938E-3,600.000000000,,,,,-20.09999938E-3,0.0,,,,,-20.09999938E-3,0.0,
,,,-20.0800002E-3,600.000000000,,,,,-20.0800002E-3,4.00000019E-3,,,,,-20.0800002E-3,0.0,
,,,-20.0600009E-3,600.000000000,,,,,-20.0600009E-3,4.00000019E-3,,,,,-20.0600009E-3,0.0,
,,,-20.0399999E-3,600.000000000,,,,,-20.0399999E-3,0.0,,,,,-20.0399999E-3,0.0,
,,,-20.0200006E-3,800.000000000,,,,,-20.0200006E-3,4.00000019E-3,,,,,-20.0200006E-3,79.999998212E-3,
,,,-19.9999996E-3,800.000000000,,,,,-19.9999996E-3,4.00000019E-3,,,,,-19.9999996E-3,0.0,
,,,-19.9800003E-3,800.000000000,,,,,-19.9800003E-3,4.00000019E-3,,,,,-19.9800003E-3,0.0,
,,,-19.9599992E-3,800.000000000,,,,,-19.9599992E-3,0.0,,,,,-19.9599992E-3,0.0,
,,,-19.9400000E-3,800.000000000,,,,,-19.9400000E-3,0.0,,,,,-19.9400000E-3,0.0,
,,,-19.9200008E-3,800.000000000,,,,,-19.9200008E-3,4.00000019E-3,,,,,-19.9200008E-3,0.0,
,,,-19.8999997E-3,1.0000000E3,,,,,-19.8999997E-3,0.0,,,,,-19.8999997E-3,0.0,
,,,-19.8800005E-3,800.000000000,,,,,-19.8800005E-3,0.0,,,,,-19.8800005E-3,0.0,
,,,-19.8599994E-3,800.000000000,,,,,-19.8599994E-3,4.00000019E-3,,,,,-19.8599994E-3,0.0,
,,,-19.8400002E-3,800.000000000,,,,,-19.8400002E-3,0.0,,,,,-19.8400002E-3,0.0,
,,,-19.8200010E-3,800.000000000,,,,,-19.8200010E-3,0.0,,,,,-19.8200010E-3,0.0,
,,,-19.7999999E-3,800.000000000,,,,,-19.7999999E-3,0.0,,,,,-19.7999999E-3,0.0,
,,,-19.7800007E-3,800.000000000,,,,,-19.7800007E-3,0.0,,,,,-19.7800007E-3,0.0,
,,,-19.7599996E-3,800.000000000,,,,,-19.7599996E-3,0.0,,,,,-19.7599996E-3,0.0,
,,,-19.7400004E-3,1.0000000E3,,,,,-19.7400004E-3,4.00000019E-3,,,,,-19.7400004E-3,79.999998212E-3,
,,,-19.7199993E-3,800.000000000,,,,,-19.7199993E-3,0.0,,,,,-19.7199993E-3,79.999998212E-3,
,,,-19.7000001E-3,800.000000000,,,,,-19.7000001E-3,4.00000019E-3,,,,,-19.7000001E-3,0.0,
,,,-19.6800008E-3,800.000000000,,,,,-19.6800008E-3,4.00000019E-3,,,,,-19.6800008E-3,0.0,
,,,-19.6599998E-3,1.0000000E3,,,,,-19.6599998E-3,0.0,,,,,-19.6599998E-3,0.0,
,,,-19.6400005E-3,1.0000000E3,,,,,-19.6400005E-3,4.00000019E-3,,,,,-19.6400005E-3,0.0,
,,,-19.6199995E-3,800.000000000,,,,,-19.6199995E-3,4.00000019E-3,,,,,-19.6199995E-3,0.0,
,,,-19.6000002E-3,1.0000000E3,,,,,-19.6000002E-3,4.00000019E-3,,,,,-19.6000002E-3,0.0,
,,,-19.5800010E-3,1.0000000E3,,,,,-19.5800010E-3,0.0,,,,,-19.5800010E-3,0.0,
,,,-19.5599999E-3,1.0000000E3,,,,,-19.5599999E-3,0.0,,,,,-19.5599999E-3,0.0,
,,,-19.5400007E-3,1.0000000E3,,,,,-19.5400007E-3,0.0,,,,,-19.5400007E-3,0.0,
,,,-19.5199996E-3,1.0000000E3,,,,,-19.5199996E-3,0.0,,,,,-19.5199996E-3,0.0,
,,,-19.5000004E-3,1.0000000E3,,,,,-19.5000004E-3,4.00000019E-3,,,,,-19.5000004E-3,0.0,
,,,-19.4799993E-3,1.0000000E3,,,,,-19.4799993E-3,0.0,,,,,-19.4799993E-3,0.0,
,,,-19.4600001E-3,1.2000001E3,,,,,-19.4600001E-3,0.0,,,,,-19.4600001E-3,0.0,
,,,-19.4400009E-3,1.2000001E3,,,,,-19.4400009E-3,4.00000019E-3,,,,,-19.4400009E-3,0.0,
,,,-19.4199998E-3,1.2000001E3,,,,,-19.4199998E-3,0.0,,,,,-19.4199998E-3,0.0,
,,,-19.4000006E-3,1.2000001E3,,,,,-19.4000006E-3,4.00000019E-3,,,,,-19.4000006E-3,79.999998212E-3,
,,,-19.3799995E-3,1.2000001E3,,,,,-19.3799995E-3,0.0,,,,,-19.3799995E-3,0.0,
,,,-19.3600003E-3,1.2000001E3,,,,,-19.3600003E-3,4.00000019E-3,,,,,-19.3600003E-3,0.0,
,,,-19.3399992E-3,1.4000001E3,,,,,-19.3399992E-3,0.0,,,,,-19.3399992E-3,0.0,
,,,-19.3200000E-3,1.4000001E3,,,,,-19.3200000E-3,4.00000019E-3,,,,,-19.3200000E-3,0.0,
,,,-19.3000007E-3,1.4000001E3,,,,,-19.3000007E-3,4.00000019E-3,,,,,-19.3000007E-3,0.0,
,,,-19.2799997E-3,1.4000001E3,,,,,-19.2799997E-3,4.00000019E-3,,,,,-19.2799997E-3,0.0,
,,,-19.2600004E-3,1.4000001E3,,,,,-19.2600004E-3,4.00000019E-3,,,,,-19.2600004E-3,0.0,
,,,-19.2399994E-3,1.4000001E3,,,,,-19.2399994E-3,4.00000019E-3,,,,,-19.2399994E-3,0.0,
,,,-19.2200001E-3,1.4000001E3,,,,,-19.2200001E-3,4.00000019E-3,,,,,-19.2200001E-3,0.0,
,,,-19.2000009E-3,1.4000001E3,,,,,-19.2000009E-3,4.00000019E-3,,,,,-19.2000009E-3,0.0,
,,,-19.1799998E-3,1.4000001E3,,,,,-19.1799998E-3,4.00000019E-3,,,,,-19.1799998E-3,0.0,
,,,-19.1600006E-3,1.6000001E3,,,,,-19.1600006E-3,0.0,,,,,-19.1600006E-3,0.0,
,,,-19.1399995E-3,1.6000001E3,,,,,-19.1399995E-3,0.0,,,,,-19.1399995E-3,0.0,
,,,-19.1200003E-3,1.8000001E3,,,,,-19.1200003E-3,4.00000019E-3,,,,,-19.1200003E-3,0.0,
,,,-19.0999992E-3,1.8000001E3,,,,,-19.0999992E-3,4.00000019E-3,,,,,-19.0999992E-3,0.0,
,,,-19.0800000E-3,1.8000001E3,,,,,-19.0800000E-3,4.00000019E-3,,,,,-19.0800000E-3,79.999998212E-3,
,,,-19.0600008E-3,1.8000001E3,,,,,-19.0600008E-3,4.00000019E-3,,,,,-19.0600008E-3,0.0,
,,,-19.0399997E-3,2.0000001E3,,,,,-19.0399997E-3,4.00000019E-3,,,,,-19.0399997E-3,0.0,
,,,-19.0200005E-3,2.0000001E3,,,,,-19.0200005E-3,4.00000019E-3,,,,,-19.0200005E-3,0.0,
,,,-18.9999994E-3,2.0000001E3,,,,,-18.9999994E-3,4.00000019E-3,,,,,-18.9999994E-3,0.0,
,,,-18.9800002E-3,2.0000001E3,,,,,-18.9800002E-3,0.0,,,,,-18.9800002E-3,0.0,
,,,-18.9600009E-3,2.0000001E3,,,,,-18.9600009E-3,0.0,,,,,-18.9600009E-3,0.0,
,,,-18.9399999E-3,2.0000001E3,,,,,-18.9399999E-3,0.0,,,,,-18.9399999E-3,0.0,
,,,-18.9200006E-3,2.0000001E3,,,,,-18.9200006E-3,4.00000019E-3,,,,,-18.9200006E-3,0.0,
,,,-18.8999996E-3,2.2000001E3,,,,,-18.8999996E-3,0.0,,,,,-18.8999996E-3,0.0,
,,,-18.8800003E-3,2.2000001E3,,,,,-18.8800003E-3,0.0,,,,,-18.8800003E-3,0.0,
,,,-18.8599993E-3,2.2000001E3,,,,,-18.8599993E-3,4.00000019E-3,,,,,-18.8599993E-3,0.0,
,,,-18.8400000E-3,2.2000001E3,,,,,-18.8400000E-3,4.00000019E-3,,,,,-18.8400000E-3,0.0,
,,,-18.8200008E-3,2.2000001E3,,,,,-18.8200008E-3,4.00000019E-3,,,,,-18.8200008E-3,0.0,
,,,-18.7999997E-3,2.4000001E3,,,,,-18.7999997E-3,0.0,,,,,-18.7999997E-3,0.0,
,,,-18.7800005E-3,2.2000001E3,,,,,-18.7800005E-3,0.0,,,,,-18.7800005E-3,79.999998212E-3,
,,,-18.7599994E-3,2.2000001E3,,,,,-18.7599994E-3,4.00000019E-3,,,,,-18.7599994E-3,0.0,
,,,-18.7400002E-3,2.2000001E3,,,,,-18.7400002E-3,4.00000019E-3,,,,,-18.7400002E-3,0.0,
,,,-18.7200010E-3,2.4000001E3,,,,,-18.7200010E-3,4.00000019E-3,,,,,-18.7200010E-3,0.0,
,,,-18.6999999E-3,2.4000001E3,,,,,-18.6999999E-3,4.00000019E-3,,,,,-18.6999999E-3,0.0,
,,,-18.6800007E-3,2.4000001E3,,,,,-18.6800007E-3,4.00000019E-3,,,,,-18.6800007E-3,0.0,
,,,-18.6599996E-3,2.4000001E3,,,,,-18.6599996E-3,0.0,,,,,-18.6599996E-3,0.0,
,,,-18.6400004E-3,2.6000001E3,,,,,-18.6400004E-3,4.00000019E-3,,,,,-18.6400004E-3,0.0,
,,,-18.6199993E-3,2.4000001E3,,,,,-18.6199993E-3,0.0,,,,,-18.6199993E-3,0.0,
,,,-18.6000001E-3,2.6000001E3,,,,,-18.6000001E-3,4.00000019E-3,,,,,-18.6000001E-3,0.0,
,,,-18.5800008E-3,2.6000001E3,,,,,-18.5800008E-3,4.00000019E-3,,,,,-18.5800008E-3,0.0,
,,,-18.5599998E-3,2.6000001E3,,,,,-18.5599998E-3,8.000000380E-3,,,,,-18.5599998E-3,79.999998212E-3,
,,,-18.5400005E-3,2.6000001E3,,,,,-18.5400005E-3,0.0,,,,,-18.5400005E-3,0.0,
,,,-18.5199995E-3,2.6000001E3,,,,,-18.5199995E-3,0.0,,,,,-18.5199995E-3,479.999989271E-3,
,,,-18.5000002E-3,2.6000001E3,,,,,-18.5000002E-3,0.0,,,,,-18.5000002E-3,0.0,
,,,-18.4800010E-3,2.6000001E3,,,,,-18.4800010E-3,4.00000019E-3,,,,,-18.4800010E-3,0.0,
,,,-18.4599999E-3,2.6000001E3,,,,,-18.4599999E-3,0.0,,,,,-18.4599999E-3,0.0,
,,,-18.4400007E-3,2.6000001E3,,,,,-18.4400007E-3,0.0,,,,,-18.4400007E-3,0.0,
,,,-18.4199996E-3,2.6000001E3,,,,,-18.4199996E-3,4.00000019E-3,,,,,-18.4199996E-3,79.999998212E-3,
,,,-18.4000004E-3,2.6000001E3,,,,,-18.4000004E-3,4.00000019E-3,,,,,-18.4000004E-3,79.999998212E-3,
,,,-18.3799993E-3,2.80000013E3,,,,,-18.3799993E-3,4.00000019E-3,,,,,-18.3799993E-3,0.0,
,,,-18.3600001E-3,2.80000013E3,,,,,-18.3600001E-3,4.00000019E-3,,,,,-18.3600001E-3,0.0,
,,,-18.3400009E-3,2.80000013E3,,,,,-18.3400009E-3,0.0,,,,,-18.3400009E-3,0.0,
,,,-18.3199998E-3,2.80000013E3,,,,,-18.3199998E-3,4.00000019E-3,,,,,-18.3199998E-3,79.999998212E-3,
,,,-18.3000006E-3,2.80000013E3,,,,,-18.3000006E-3,4.00000019E-3,,,,,-18.3000006E-3,0.0,
,,,-18.2799995E-3,2.80000013E3,,,,,-18.2799995E-3,4.00000019E-3,,,,,-18.2799995E-3,0.0,
,,,-18.2600003E-3,3.00000014E3,,,,,-18.2600003E-3,0.0,,,,,-18.2600003E-3,0.0,
,,,-18.2400011E-3,3.00000014E3,,,,,-18.2400011E-3,0.0,,,,,-18.2400011E-3,159.99999642E-3,
,,,-18.2200000E-3,3.20000015E3,,,,,-18.2200000E-3,0.0,,,,,-18.2200000E-3,0.0,
,,,-18.2000007E-3,3.20000015E3,,,,,-18.2000007E-3,4.00000019E-3,,,,,-18.2000007E-3,0.0,
,,,-18.1799997E-3,3.20000015E3,,,,,-18.1799997E-3,4.00000019E-3,,,,,-18.1799997E-3,79.999998212E-3,
,,,-18.1600004E-3,3.20000015E3,,,,,-18.1600004E-3,4.00000019E-3,,,,,-18.1600004E-3,0.0,
,,,-18.1399994E-3,3.20000015E3,,,,,-18.1399994E-3,4.00000019E-3,,,,,-18.1399994E-3,0.0,
,,,-18.1200001E-3,3.20000015E3,,,,,-18.1200001E-3,4.00000019E-3,,,,,-18.1200001E-3,0.0,
,,,-18.1000009E-3,3.20000015E3,,,,,-18.1000009E-3,4.00000019E-3,,,,,-18.1000009E-3,0.0,
,,,-18.0799998E-3,3.20000015E3,,,,,-18.0799998E-3,228.00001502E-3,,,,,-18.0799998E-3,79.999998212E-3,
,,,-18.0600006E-3,3.20000015E3,,,,,-18.0600006E-3,4.00000019E-3,,,,,-18.0600006E-3,0.0,
,,,-18.0399995E-3,3.40000016E3,,,,,-18.0399995E-3,0.0,,,,,-18.0399995E-3,0.0,
,,,-18.0200003E-3,3.40000016E3,,,,,-18.0200003E-3,4.00000019E-3,,,,,-18.0200003E-3,0.0,
,,,-17.9999992E-3,3.60000017E3,,,,,-17.9999992E-3,4.00000019E-3,,,,,-17.9999992E-3,0.0,
,,,-17.9800000E-3,3.60000017E3,,,,,-17.9800000E-3,4.00000019E-3,,,,,-17.9800000E-3,79.999998212E-3,
,,,-17.9600008E-3,3.40000016E3,,,,,-17.9600008E-3,4.00000019E-3,,,,,-17.9600008E-3,0.0,
,,,-17.9399997E-3,3.60000017E3,,,,,-17.9399997E-3,4.00000019E-3,,,,,-17.9399997E-3,79.999998212E-3,
,,,-17.9200005E-3,3.60000017E3,,,,,-17.9200005E-3,4.00000019E-3,,,,,-17.9200005E-3,0.0,
,,,-17.8999994E-3,3.60000017E3,,,,,-17.8999994E-3,4.00000019E-3,,,,,-17.8999994E-3,-79.999998212E-3,
,,,-17.8800002E-3,3.60000017E3,,,,,-17.8800002E-3,0.0,,,,,-17.8800002E-3,79.999998212E-3,
,,,-17.8600010E-3,3.80000018E3,,,,,-17.8600010E-3,0.0,,,,,-17.8600010E-3,79.999998212E-3,
,,,-17.8399999E-3,3.60000017E3,,,,,-17.8399999E-3,0.0,,,,,-17.8399999E-3,159.99999642E-3,
,,,-17.8200006E-3,3.80000018E3,,,,,-17.8200006E-3,4.00000019E-3,,,,,-17.8200006E-3,79.999998212E-3,
,,,-17.7999996E-3,3.80000018E3,,,,,-17.7999996E-3,4.00000019E-3,,,,,-17.7999996E-3,79.999998212E-3,
,,,-17.7800003E-3,4.00000019E3,,,,,-17.7800003E-3,0.0,,,,,-17.7800003E-3,79.999998212E-3,
,,,-17.7599993E-3,3.80000018E3,,,,,-17.7599993E-3,4.00000019E-3,,,,,-17.7599993E-3,79.999998212E-3,
,,,-17.7400000E-3,4.00000019E3,,,,,-17.7400000E-3,0.0,,,,,-17.7400000E-3,79.999998212E-3,
,,,-17.7200008E-3,4.00000019E3,,,,,-17.7200008E-3,0.0,,,,,-17.7200008E-3,79.999998212E-3,
,,,-17.6999997E-3,4.00000019E3,,,,,-17.6999997E-3,0.0,,,,,-17.6999997E-3,79.999998212E-3,
,,,-17.6800005E-3,4.00000019E3,,,,,-17.6800005E-3,0.0,,,,,-17.6800005E-3,0.0,
,,,-17.6599994E-3,4.20000020E3,,,,,-17.6599994E-3,4.00000019E-3,,,,,-17.6599994E-3,79.999998212E-3,
,,,-17.6400002E-3,4.20000020E3,,,,,-17.6400002E-3,4.00000019E-3,,,,,-17.6400002E-3,79.999998212E-3,
,,,-17.6200010E-3,4.20000020E3,,,,,-17.6200010E-3,4.00000019E-3,,,,,-17.6200010E-3,79.999998212E-3,
,,,-17.5999999E-3,4.20000020E3,,,,,-17.5999999E-3,4.00000019E-3,,,,,-17.5999999E-3,79.999998212E-3,
,,,-17.5800007E-3,4.20000020E3,,,,,-17.5800007E-3,4.00000019E-3,,,,,-17.5800007E-3,79.999998212E-3,
,,,-17.5599996E-3,4.40000021E3,,,,,-17.5599996E-3,0.0,,,,,-17.5599996E-3,79.999998212E-3,
,,,-17.5400004E-3,4.40000021E3,,,,,-17.5400004E-3,-24.00000021E-3,,,,,-17.5400004E-3,79.999998212E-3,
,,,-17.5199993E-3,4.40000021E3,,,,,-17.5199993E-3,4.00000019E-3,,,,,-17.5199993E-3,79.999998212E-3,
,,,-17.5000001E-3,4.40000021E3,,,,,-17.5000001E-3,4.00000019E-3,,,,,-17.5000001E-3,79.999998212E-3,
,,,-17.4800009E-3,4.40000021E3,,,,,-17.4800009E-3,0.0,,,,,-17.4800009E-3,159.99999642E-3,
,,,-17.4599998E-3,4.40000021E3,,,,,-17.4599998E-3,0.0,,,,,-17.4599998E-3,79.999998212E-3,
,,,-17.4400005E-3,4.60000022E3,,,,,-17.4400005E-3,4.00000019E-3,,,,,-17.4400005E-3,79.999998212E-3,
,,,-17.4199995E-3,4.80000023E3,,,,,-17.4199995E-3,4.00000019E-3,,,,,-17.4199995E-3,79.999998212E-3,
,,,-17.4000002E-3,4.80000023E3,,,,,-17.4000002E-3,0.0,,,,,-17.4000002E-3,79.999998212E-3,
,,,-17.3800010E-3,4.80000023E3,,,,,-17.3800010E-3,4.00000019E-3,,,,,-17.3800010E-3,159.99999642E-3,
,,,-17.3599999E-3,4.80000023E3,,,,,-17.3599999E-3,-24.00000021E-3,,,,,-17.3599999E-3,79.999998212E-3,
,,,-17.3400007E-3,4.80000023E3,,,,,-17.3400007E-3,0.0,,,,,-17.3400007E-3,5.44000006,
,,,-17.3199996E-3,4.80000023E3,,,,,-17.3199996E-3,4.00000019E-3,,,,,-17.3199996E-3,79.999998212E-3,
,,,-17.3000004E-3,5.00000024E3,,,,,-17.3000004E-3,4.00000019E-3,,,,,-17.3000004E-3,79.999998212E-3,
,,,-17.2799993E-3,4.80000023E3,,,,,-17.2799993E-3,4.00000019E-3,,,,,-17.2799993E-3,2.6399999,
,,,-17.2600001E-3,5.00000024E3,,,,,-17.2600001E-3,4.00000019E-3,,,,,-17.2600001E-3,79.999998212E-3,
,,,-17.2400009E-3,5.00000024E3,,,,,-17.2400009E-3,4.00000019E-3,,,,,-17.2400009E-3,79.999998212E-3,
,,,-17.2199998E-3,5.20000025E3,,,,,-17.2199998E-3,4.00000019E-3,,,,,-17.2199998E-3,79.999998212E-3,
,,,-17.2000006E-3,5.20000025E3,,,,,-17.2000006E-3,4.00000019E-3,,,,,-17.2000006E-3,159.99999642E-3,
,,,-17.1799995E-3,5.20000025E3,,,,,-17.1799995E-3,4.00000019E-3,,,,,-17.1799995E-3,79.999998212E-3,
,,,-17.1600003E-3,5.20000025E3,,,,,-17.1600003E-3,4.00000019E-3,,,,,-17.1600003E-3,159.99999642E-3,
,,,-17.1400011E-3,5.40000026E3,,,,,-17.1400011E-3,0.0,,,,,-17.1400011E-3,79.999998212E-3,
,,,-17.1200000E-3,5.40000026E3,,,,,-17.1200000E-3,4.00000019E-3,,,,,-17.1200000E-3,79.999998212E-3,
,,,-17.1000008E-3,5.60000027E3,,,,,-17.1000008E-3,4.00000019E-3,,,,,-17.1000008E-3,79.999998212E-3,
,,,-17.0799997E-3,5.60000027E3,,,,,-17.0799997E-3,4.00000019E-3,,,,,-17.0799997E-3,79.999998212E-3,
,,,-17.0600004E-3,5.60000027E3,,,,,-17.0600004E-3,0.0,,,,,-17.0600004E-3,79.999998212E-3,
,,,-17.0399994E-3,5.60000027E3,,,,,-17.0399994E-3,4.00000019E-3,,,,,-17.0399994E-3,79.999998212E-3,
,,,-17.0200001E-3,5.60000027E3,,,,,-17.0200001E-3,4.00000019E-3,,,,,-17.0200001E-3,79.999998212E-3,
,,,-17.0000009E-3,5.60000027E3,,,,,-17.0000009E-3,4.00000019E-3,,,,,-17.0000009E-3,159.99999642E-3,
,,,-16.9799998E-3,5.80000028E3,,,,,-16.9799998E-3,4.00000019E-3,,,,,-16.9799998E-3,159.99999642E-3,
,,,-16.9600006E-3,6.00000028E3,,,,,-16.9600006E-3,0.0,,,,,-16.9600006E-3,159.99999642E-3,
,,,-16.9399995E-3,5.80000028E3,,,,,-16.9399995E-3,4.00000019E-3,,,,,-16.9399995E-3,79.999998212E-3,
,,,-16.9200003E-3,6.00000028E3,,,,,-16.9200003E-3,4.00000019E-3,,,,,-16.9200003E-3,79.999998212E-3,
,,,-16.8999992E-3,6.00000028E3,,,,,-16.8999992E-3,4.00000019E-3,,,,,-16.8999992E-3,79.999998212E-3,
,,,-16.8800000E-3,6.00000028E3,,,,,-16.8800000E-3,0.0,,,,,-16.8800000E-3,239.99999464E-3,
,,,-16.8600008E-3,6.20000029E3,,,,,-16.8600008E-3,4.00000019E-3,,,,,-16.8600008E-3,159.99999642E-3,
,,,-16.8399997E-3,6.20000029E3,,,,,-16.8399997E-3,4.00000019E-3,,,,,-16.8399997E-3,159.99999642E-3,
,,,-16.8200005E-3,6.20000029E3,,,,,-16.8200005E-3,4.00000019E-3,,,,,-16.8200005E-3,159.99999642E-3,
,,,-16.7999994E-3,6.20000029E3,,,,,-16.7999994E-3,4.00000019E-3,,,,,-16.7999994E-3,4.00000000,
,,,-16.7800002E-3,6.40000030E3,,,,,-16.7800002E-3,0.0,,,,,-16.7800002E-3,159.99999642E-3,
,,,-16.7600010E-3,6.40000030E3,,,,,-16.7600010E-3,8.000000380E-3,,,,,-16.7600010E-3,159.99999642E-3,
,,,-16.7399999E-3,6.40000030E3,,,,,-16.7399999E-3,4.00000019E-3,,,,,-16.7399999E-3,159.99999642E-3,
,,,-16.7200007E-3,6.40000030E3,,,,,-16.7200007E-3,4.00000019E-3,,,,,-16.7200007E-3,159.99999642E-3,
,,,-16.6999996E-3,6.20000029E3,,,,,-16.6999996E-3,0.0,,,,,-16.6999996E-3,159.99999642E-3,
,,,-16.6800003E-3,6.40000030E3,,,,,-16.6800003E-3,0.0,,,,,-16.6800003E-3,79.999998212E-3,
,,,-16.6599993E-3,6.20000029E3,,,,,-16.6599993E-3,4.00000019E-3,,,,,-16.6599993E-3,79.999998212E-3,
,,,-16.6400000E-3,6.40000030E3,,,,,-16.6400000E-3,-8.000000380E-3,,,,,-16.6400000E-3,239.99999464E-3,
,,,-16.6200008E-3,6.60000031E3,,,,,-16.6200008E-3,0.0,,,,,-16.6200008E-3,159.99999642E-3,
,,,-16.5999997E-3,6.40000030E3,,,,,-16.5999997E-3,4.00000019E-3,,,,,-16.5999997E-3,159.99999642E-3,
,,,-16.5800005E-3,6.60000031E3,,,,,-16.5800005E-3,4.00000019E-3,,,,,-16.5800005E-3,159.99999642E-3,
,,,-16.5599994E-3,6.60000031E3,,,,,-16.5599994E-3,4.00000019E-3,,,,,-16.5599994E-3,159.99999642E-3,
,,,-16.5400002E-3,6.80000032E3,,,,,-16.5400002E-3,4.00000019E-3,,,,,-16.5400002E-3,2.2400000,
