20181026/Trafo pk detect 6.csv

Record Length,2500,Points,-24.99999851E-3,-6.80000032E3,,Record Length,2500,Points,-24.99999851E-3,0.0,,Record Length,2500,Points,-24.99999851E-3,0.0,
Sample Interval,19.9999995E-6,s,-24.97999929E-3,-6.80000032E3,,Sample Interval,19.9999995E-6,s,-24.97999929E-3,0.0,,Sample Interval,19.9999995E-6,s,-24.97999929E-3,39.99999911E-3,
Trigger Point,1.2500000E3,Samples,-24.95999821E-3,-6.80000032E3,,Trigger Point,1.2500000E3,Samples,-24.95999821E-3,0.0,,Trigger Point,1.2500000E3,Samples,-24.95999821E-3,0.0,
,,,-24.93999898E-3,-6.80000032E3,,,,,-24.93999898E-3,0.0,,,,,-24.93999898E-3,19.9999996E-3,
,,,-24.91999790E-3,-7.00000033E3,,,,,-24.91999790E-3,0.0,,,,,-24.91999790E-3,0.0,
,,,-24.89999868E-3,-6.80000032E3,,,,,-24.89999868E-3,0.0,,,,,-24.89999868E-3,19.9999996E-3,
Source,CH1,,-24.87999760E-3,-7.00000033E3,,Source,CH2,,-24.87999760E-3,0.0,,Source,CH3,,-24.87999760E-3,0.0,
Vertical Units,Volts,,-24.85999838E-3,-6.80000032E3,,Vertical Units,Volts,,-24.85999838E-3,0.0,,Vertical Units,Volts,,-24.85999838E-3,19.9999996E-3,
Vertical Scale,5.00000024E3,,-24.83999915E-3,-7.00000033E3,,Vertical Scale,499.999988824E-3,,-24.83999915E-3,0.0,,Vertical Scale,499.999988824E-3,,-24.83999915E-3,0.0,
Vertical Offset,0,,-24.81999807E-3,-6.80000032E3,,Vertical Offset,0,,-24.81999807E-3,0.0,,Vertical Offset,0,,-24.81999807E-3,19.9999996E-3,
Horizontal Units,s,,-24.79999885E-3,-7.00000033E3,,Horizontal Units,s,,-24.79999885E-3,0.0,,Horizontal Units,s,,-24.79999885E-3,0.0,
Horizontal Scale,4.99999987E-3,,-24.77999777E-3,-6.80000032E3,,Horizontal Scale,4.99999987E-3,,-24.77999777E-3,0.0,,Horizontal Scale,4.99999987E-3,,-24.77999777E-3,19.9999996E-3,
Pt Fmt,Y,,-24.75999855E-3,-7.00000033E3,,Pt Fmt,Y,,-24.75999855E-3,0.0,,Pt Fmt,Y,,-24.75999855E-3,0.0,
Yzero,2.0000000,,-24.73999932E-3,-7.00000033E3,,Yzero,0.0,,-24.73999932E-3,0.0,,Yzero,-2.0000000,,-24.73999932E-3,19.9999996E-3,
Probe Atten,1.0000000E3,,-24.71999824E-3,-7.00000033E3,,Probe Atten,1.000000,,-24.71999824E-3,0.0,,Probe Atten,1.000000,,-24.71999824E-3,0.0,
,,,-24.69999902E-3,-7.00000033E3,,,,,-24.69999902E-3,0.0,,,,,-24.69999902E-3,19.9999996E-3,
Note,TDS 2004B - 5:04:44 PM   10/26/2018,,-24.67999794E-3,-7.20000034E3,,Note,TDS 2004B - 5:04:44 PM   10/26/2018,,-24.67999794E-3,0.0,,Note,TDS 2004B - 5:04:44 PM   10/26/2018,,-24.67999794E-3,19.9999996E-3,
,,,-24.65999871E-3,-7.00000033E3,,,,,-24.65999871E-3,0.0,,,,,-24.65999871E-3,19.9999996E-3,
,,,-24.63999763E-3,-7.20000034E3,,,,,-24.63999763E-3,0.0,,,,,-24.63999763E-3,0.0,
,,,-24.61999841E-3,-7.00000033E3,,,,,-24.61999841E-3,19.9999996E-3,,,,,-24.61999841E-3,19.9999996E-3,
,,,-24.59999919E-3,-7.20000034E3,,,,,-24.59999919E-3,0.0,,,,,-24.59999919E-3,0.0,
,,,-24.57999811E-3,-7.00000033E3,,,,,-24.57999811E-3,0.0,,,,,-24.57999811E-3,39.99999911E-3,
,,,-24.55999888E-3,-7.20000034E3,,,,,-24.55999888E-3,0.0,,,,,-24.55999888E-3,0.0,
,,,-24.53999780E-3,-7.00000033E3,,,,,-24.53999780E-3,0.0,,,,,-24.53999780E-3,19.9999996E-3,
,,,-24.51999858E-3,-7.20000034E3,,,,,-24.51999858E-3,0.0,,,,,-24.51999858E-3,0.0,
,,,-24.49999936E-3,-7.00000033E3,,,,,-24.49999936E-3,0.0,,,,,-24.49999936E-3,19.9999996E-3,
,,,-24.47999828E-3,-7.20000034E3,,,,,-24.47999828E-3,0.0,,,,,-24.47999828E-3,19.9999996E-3,
,,,-24.45999905E-3,-7.00000033E3,,,,,-24.45999905E-3,19.9999996E-3,,,,,-24.45999905E-3,39.99999911E-3,
,,,-24.43999797E-3,-7.20000034E3,,,,,-24.43999797E-3,0.0,,,,,-24.43999797E-3,0.0,
,,,-24.41999875E-3,-7.00000033E3,,,,,-24.41999875E-3,0.0,,,,,-24.41999875E-3,19.9999996E-3,
,,,-24.39999767E-3,-7.20000034E3,,,,,-24.39999767E-3,0.0,,,,,-24.39999767E-3,0.0,
,,,-24.37999845E-3,-7.00000033E3,,,,,-24.37999845E-3,19.9999996E-3,,,,,-24.37999845E-3,39.99999911E-3,
,,,-24.35999922E-3,-7.20000034E3,,,,,-24.35999922E-3,0.0,,,,,-24.35999922E-3,0.0,
,,,-24.33999814E-3,-7.00000033E3,,,,,-24.33999814E-3,0.0,,,,,-24.33999814E-3,19.9999996E-3,
,,,-24.31999892E-3,-7.20000034E3,,,,,-24.31999892E-3,0.0,,,,,-24.31999892E-3,0.0,
,,,-24.29999784E-3,-7.00000033E3,,,,,-24.29999784E-3,0.0,,,,,-24.29999784E-3,19.9999996E-3,
,,,-24.27999862E-3,-7.20000034E3,,,,,-24.27999862E-3,0.0,,,,,-24.27999862E-3,0.0,
,,,-24.25999939E-3,-7.00000033E3,,,,,-24.25999939E-3,0.0,,,,,-24.25999939E-3,19.9999996E-3,
,,,-24.23999831E-3,-7.00000033E3,,,,,-24.23999831E-3,0.0,,,,,-24.23999831E-3,0.0,
,,,-24.21999909E-3,-6.80000032E3,,,,,-24.21999909E-3,0.0,,,,,-24.21999909E-3,19.9999996E-3,
,,,-24.19999801E-3,-7.00000033E3,,,,,-24.19999801E-3,0.0,,,,,-24.19999801E-3,0.0,
,,,-24.17999879E-3,-7.00000033E3,,,,,-24.17999879E-3,0.0,,,,,-24.17999879E-3,39.99999911E-3,
,,,-24.15999770E-3,-7.00000033E3,,,,,-24.15999770E-3,0.0,,,,,-24.15999770E-3,0.0,
,,,-24.13999848E-3,-6.80000032E3,,,,,-24.13999848E-3,19.9999996E-3,,,,,-24.13999848E-3,19.9999996E-3,
,,,-24.11999926E-3,-7.00000033E3,,,,,-24.11999926E-3,0.0,,,,,-24.11999926E-3,0.0,
,,,-24.09999818E-3,-6.80000032E3,,,,,-24.09999818E-3,0.0,,,,,-24.09999818E-3,39.99999911E-3,
,,,-24.07999896E-3,-7.00000033E3,,,,,-24.07999896E-3,0.0,,,,,-24.07999896E-3,19.9999996E-3,
,,,-24.05999787E-3,-6.80000032E3,,,,,-24.05999787E-3,0.0,,,,,-24.05999787E-3,19.9999996E-3,
,,,-24.03999865E-3,-7.00000033E3,,,,,-24.03999865E-3,0.0,,,,,-24.03999865E-3,0.0,
,,,-24.01999943E-3,-6.80000032E3,,,,,-24.01999943E-3,19.9999996E-3,,,,,-24.01999943E-3,19.9999996E-3,
,,,-23.99999835E-3,-7.00000033E3,,,,,-23.99999835E-3,0.0,,,,,-23.99999835E-3,0.0,
,,,-23.97999913E-3,-6.80000032E3,,,,,-23.97999913E-3,19.9999996E-3,,,,,-23.97999913E-3,39.99999911E-3,
,,,-23.95999804E-3,-7.00000033E3,,,,,-23.95999804E-3,0.0,,,,,-23.95999804E-3,0.0,
,,,-23.93999882E-3,-6.80000032E3,,,,,-23.93999882E-3,0.0,,,,,-23.93999882E-3,39.99999911E-3,
,,,-23.91999774E-3,-6.80000032E3,,,,,-23.91999774E-3,0.0,,,,,-23.91999774E-3,0.0,
,,,-23.89999852E-3,-6.60000031E3,,,,,-23.89999852E-3,19.9999996E-3,,,,,-23.89999852E-3,19.9999996E-3,
,,,-23.87999929E-3,-6.80000032E3,,,,,-23.87999929E-3,0.0,,,,,-23.87999929E-3,0.0,
,,,-23.85999821E-3,-6.60000031E3,,,,,-23.85999821E-3,19.9999996E-3,,,,,-23.85999821E-3,19.9999996E-3,
,,,-23.83999899E-3,-6.80000032E3,,,,,-23.83999899E-3,0.0,,,,,-23.83999899E-3,0.0,
,,,-23.81999791E-3,-6.60000031E3,,,,,-23.81999791E-3,0.0,,,,,-23.81999791E-3,19.9999996E-3,
,,,-23.79999869E-3,-6.80000032E3,,,,,-23.79999869E-3,-19.9999996E-3,,,,,-23.79999869E-3,19.9999996E-3,
,,,-23.77999946E-3,-6.60000031E3,,,,,-23.77999946E-3,0.0,,,,,-23.77999946E-3,19.9999996E-3,
,,,-23.75999838E-3,-6.80000032E3,,,,,-23.75999838E-3,-19.9999996E-3,,,,,-23.75999838E-3,0.0,
,,,-23.73999916E-3,-6.60000031E3,,,,,-23.73999916E-3,0.0,,,,,-23.73999916E-3,19.9999996E-3,
,,,-23.71999808E-3,-6.60000031E3,,,,,-23.71999808E-3,0.0,,,,,-23.71999808E-3,19.9999996E-3,
,,,-23.69999886E-3,-6.60000031E3,,,,,-23.69999886E-3,19.9999996E-3,,,,,-23.69999886E-3,39.99999911E-3,
,,,-23.67999777E-3,-6.60000031E3,,,,,-23.67999777E-3,0.0,,,,,-23.67999777E-3,0.0,
,,,-23.65999855E-3,-6.60000031E3,,,,,-23.65999855E-3,0.0,,,,,-23.65999855E-3,19.9999996E-3,
,,,-23.63999933E-3,-6.60000031E3,,,,,-23.63999933E-3,0.0,,,,,-23.63999933E-3,0.0,
,,,-23.61999825E-3,-6.40000030E3,,,,,-23.61999825E-3,19.9999996E-3,,,,,-23.61999825E-3,39.99999911E-3,
,,,-23.59999903E-3,-6.60000031E3,,,,,-23.59999903E-3,0.0,,,,,-23.59999903E-3,0.0,
,,,-23.57999794E-3,-6.40000030E3,,,,,-23.57999794E-3,0.0,,,,,-23.57999794E-3,19.9999996E-3,
,,,-23.55999872E-3,-6.60000031E3,,,,,-23.55999872E-3,0.0,,,,,-23.55999872E-3,0.0,
,,,-23.53999764E-3,-6.40000030E3,,,,,-23.53999764E-3,0.0,,,,,-23.53999764E-3,19.9999996E-3,
,,,-23.51999842E-3,-6.40000030E3,,,,,-23.51999842E-3,-19.9999996E-3,,,,,-23.51999842E-3,0.0,
,,,-23.49999920E-3,-6.40000030E3,,,,,-23.49999920E-3,0.0,,,,,-23.49999920E-3,19.9999996E-3,
,,,-23.47999811E-3,-6.40000030E3,,,,,-23.47999811E-3,-19.9999996E-3,,,,,-23.47999811E-3,0.0,
,,,-23.45999889E-3,-6.20000029E3,,,,,-23.45999889E-3,39.99999911E-3,,,,,-23.45999889E-3,19.9999996E-3,
,,,-23.43999781E-3,-6.40000030E3,,,,,-23.43999781E-3,0.0,,,,,-23.43999781E-3,0.0,
,,,-23.41999859E-3,-6.20000029E3,,,,,-23.41999859E-3,0.0,,,,,-23.41999859E-3,39.99999911E-3,
,,,-23.39999937E-3,-6.20000029E3,,,,,-23.39999937E-3,0.0,,,,,-23.39999937E-3,0.0,
,,,-23.37999828E-3,-6.00000028E3,,,,,-23.37999828E-3,0.0,,,,,-23.37999828E-3,39.99999911E-3,
,,,-23.35999906E-3,-6.20000029E3,,,,,-23.35999906E-3,0.0,,,,,-23.35999906E-3,0.0,
,,,-23.33999798E-3,-6.00000028E3,,,,,-23.33999798E-3,0.0,,,,,-23.33999798E-3,19.9999996E-3,
,,,-23.31999876E-3,-6.00000028E3,,,,,-23.31999876E-3,0.0,,,,,-23.31999876E-3,19.9999996E-3,
,,,-23.29999767E-3,-5.80000028E3,,,,,-23.29999767E-3,19.9999996E-3,,,,,-23.29999767E-3,19.9999996E-3,
,,,-23.27999845E-3,-6.00000028E3,,,,,-23.27999845E-3,0.0,,,,,-23.27999845E-3,19.9999996E-3,
,,,-23.25999923E-3,-5.80000028E3,,,,,-23.25999923E-3,0.0,,,,,-23.25999923E-3,19.9999996E-3,
,,,-23.23999815E-3,-5.80000028E3,,,,,-23.23999815E-3,-19.9999996E-3,,,,,-23.23999815E-3,19.9999996E-3,
,,,-23.21999893E-3,-5.60000027E3,,,,,-23.21999893E-3,0.0,,,,,-23.21999893E-3,19.9999996E-3,
,,,-23.19999784E-3,-5.80000028E3,,,,,-23.19999784E-3,0.0,,,,,-23.19999784E-3,0.0,
,,,-23.17999862E-3,-5.40000026E3,,,,,-23.17999862E-3,0.0,,,,,-23.17999862E-3,19.9999996E-3,
,,,-23.15999940E-3,-5.60000027E3,,,,,-23.15999940E-3,0.0,,,,,-23.15999940E-3,0.0,
,,,-23.13999832E-3,-5.20000025E3,,,,,-23.13999832E-3,0.0,,,,,-23.13999832E-3,39.99999911E-3,
,,,-23.11999910E-3,-5.40000026E3,,,,,-23.11999910E-3,0.0,,,,,-23.11999910E-3,0.0,
,,,-23.09999801E-3,-5.20000025E3,,,,,-23.09999801E-3,0.0,,,,,-23.09999801E-3,39.99999911E-3,
,,,-23.07999879E-3,-5.20000025E3,,,,,-23.07999879E-3,-19.9999996E-3,,,,,-23.07999879E-3,19.9999996E-3,
,,,-23.05999771E-3,-5.00000024E3,,,,,-23.05999771E-3,19.9999996E-3,,,,,-23.05999771E-3,39.99999911E-3,
,,,-23.03999849E-3,-5.00000024E3,,,,,-23.03999849E-3,0.0,,,,,-23.03999849E-3,0.0,
,,,-23.01999927E-3,-4.80000023E3,,,,,-23.01999927E-3,0.0,,,,,-23.01999927E-3,39.99999911E-3,
,,,-22.99999818E-3,-4.80000023E3,,,,,-22.99999818E-3,-19.9999996E-3,,,,,-22.99999818E-3,19.9999996E-3,
,,,-22.97999896E-3,-4.60000022E3,,,,,-22.97999896E-3,0.0,,,,,-22.97999896E-3,19.9999996E-3,
,,,-22.95999788E-3,-4.60000022E3,,,,,-22.95999788E-3,0.0,,,,,-22.95999788E-3,19.9999996E-3,
,,,-22.93999866E-3,-4.40000021E3,,,,,-22.93999866E-3,0.0,,,,,-22.93999866E-3,19.9999996E-3,
,,,-22.91999944E-3,-4.40000021E3,,,,,-22.91999944E-3,0.0,,,,,-22.91999944E-3,19.9999996E-3,
,,,-22.89999835E-3,-4.20000020E3,,,,,-22.89999835E-3,19.9999996E-3,,,,,-22.89999835E-3,39.99999911E-3,
,,,-22.87999913E-3,-4.20000020E3,,,,,-22.87999913E-3,0.0,,,,,-22.87999913E-3,0.0,
,,,-22.85999805E-3,-4.00000019E3,,,,,-22.85999805E-3,0.0,,,,,-22.85999805E-3,19.9999996E-3,
,,,-22.83999883E-3,-4.20000020E3,,,,,-22.83999883E-3,0.0,,,,,-22.83999883E-3,0.0,
,,,-22.81999774E-3,-3.80000018E3,,,,,-22.81999774E-3,19.9999996E-3,,,,,-22.81999774E-3,19.9999996E-3,
,,,-22.79999852E-3,-3.80000018E3,,,,,-22.79999852E-3,0.0,,,,,-22.79999852E-3,19.9999996E-3,
,,,-22.77999930E-3,-3.60000017E3,,,,,-22.77999930E-3,0.0,,,,,-22.77999930E-3,19.9999996E-3,
,,,-22.75999822E-3,-3.80000018E3,,,,,-22.75999822E-3,0.0,,,,,-22.75999822E-3,0.0,
,,,-22.73999900E-3,-3.40000016E3,,,,,-22.73999900E-3,0.0,,,,,-22.73999900E-3,19.9999996E-3,
,,,-22.71999791E-3,-3.60000017E3,,,,,-22.71999791E-3,0.0,,,,,-22.71999791E-3,0.0,
,,,-22.69999869E-3,-3.20000015E3,,,,,-22.69999869E-3,0.0,,,,,-22.69999869E-3,19.9999996E-3,
,,,-22.67999947E-3,-3.40000016E3,,,,,-22.67999947E-3,0.0,,,,,-22.67999947E-3,0.0,
,,,-22.65999839E-3,-3.20000015E3,,,,,-22.65999839E-3,19.9999996E-3,,,,,-22.65999839E-3,19.9999996E-3,
,,,-22.63999917E-3,-3.20000015E3,,,,,-22.63999917E-3,0.0,,,,,-22.63999917E-3,0.0,
,,,-22.61999808E-3,-3.00000014E3,,,,,-22.61999808E-3,0.0,,,,,-22.61999808E-3,39.99999911E-3,
,,,-22.59999886E-3,-3.00000014E3,,,,,-22.59999886E-3,0.0,,,,,-22.59999886E-3,19.9999996E-3,
,,,-22.57999778E-3,-2.80000013E3,,,,,-22.57999778E-3,0.0,,,,,-22.57999778E-3,19.9999996E-3,
,,,-22.55999856E-3,-3.00000014E3,,,,,-22.55999856E-3,-19.9999996E-3,,,,,-22.55999856E-3,0.0,
,,,-22.53999934E-3,-2.80000013E3,,,,,-22.53999934E-3,0.0,,,,,-22.53999934E-3,39.99999911E-3,
,,,-22.51999825E-3,-3.00000014E3,,,,,-22.51999825E-3,0.0,,,,,-22.51999825E-3,0.0,
,,,-22.49999903E-3,-2.6000001E3,,,,,-22.49999903E-3,19.9999996E-3,,,,,-22.49999903E-3,39.99999911E-3,
,,,-22.47999795E-3,-2.80000013E3,,,,,-22.47999795E-3,0.0,,,,,-22.47999795E-3,19.9999996E-3,
,,,-22.45999873E-3,-2.6000001E3,,,,,-22.45999873E-3,0.0,,,,,-22.45999873E-3,19.9999996E-3,
,,,-22.43999764E-3,-2.80000013E3,,,,,-22.43999764E-3,0.0,,,,,-22.43999764E-3,0.0,
,,,-22.41999842E-3,-2.6000001E3,,,,,-22.41999842E-3,19.9999996E-3,,,,,-22.41999842E-3,19.9999996E-3,
,,,-22.39999920E-3,-2.6000001E3,,,,,-22.39999920E-3,0.0,,,,,-22.39999920E-3,0.0,
,,,-22.37999812E-3,-2.4000001E3,,,,,-22.37999812E-3,19.9999996E-3,,,,,-22.37999812E-3,39.99999911E-3,
,,,-22.35999890E-3,-2.6000001E3,,,,,-22.35999890E-3,0.0,,,,,-22.35999890E-3,0.0,
,,,-22.33999781E-3,-2.6000001E3,,,,,-22.33999781E-3,0.0,,,,,-22.33999781E-3,19.9999996E-3,
,,,-22.31999859E-3,-2.6000001E3,,,,,-22.31999859E-3,0.0,,,,,-22.31999859E-3,0.0,
,,,-22.29999937E-3,-2.4000001E3,,,,,-22.29999937E-3,0.0,,,,,-22.29999937E-3,19.9999996E-3,
,,,-22.27999829E-3,-2.6000001E3,,,,,-22.27999829E-3,0.0,,,,,-22.27999829E-3,0.0,
,,,-22.25999907E-3,-2.6000001E3,,,,,-22.25999907E-3,19.9999996E-3,,,,,-22.25999907E-3,39.99999911E-3,
,,,-22.23999798E-3,-2.6000001E3,,,,,-22.23999798E-3,0.0,,,,,-22.23999798E-3,0.0,
,,,-22.21999876E-3,-2.6000001E3,,,,,-22.21999876E-3,0.0,,,,,-22.21999876E-3,19.9999996E-3,
,,,-22.19999768E-3,-2.6000001E3,,,,,-22.19999768E-3,0.0,,,,,-22.19999768E-3,19.9999996E-3,
,,,-22.17999846E-3,-2.6000001E3,,,,,-22.17999846E-3,0.0,,,,,-22.17999846E-3,39.99999911E-3,
,,,-22.15999924E-3,-2.80000013E3,,,,,-22.15999924E-3,0.0,,,,,-22.15999924E-3,0.0,
,,,-22.13999815E-3,-2.6000001E3,,,,,-22.13999815E-3,0.0,,,,,-22.13999815E-3,39.99999911E-3,
,,,-22.11999893E-3,-2.80000013E3,,,,,-22.11999893E-3,0.0,,,,,-22.11999893E-3,0.0,
,,,-22.09999785E-3,-2.6000001E3,,,,,-22.09999785E-3,0.0,,,,,-22.09999785E-3,39.99999911E-3,
,,,-22.07999863E-3,-2.80000013E3,,,,,-22.07999863E-3,0.0,,,,,-22.07999863E-3,0.0,
,,,-22.05999941E-3,-2.6000001E3,,,,,-22.05999941E-3,0.0,,,,,-22.05999941E-3,39.99999911E-3,
,,,-22.03999832E-3,-2.80000013E3,,,,,-22.03999832E-3,0.0,,,,,-22.03999832E-3,0.0,
,,,-22.01999910E-3,-2.80000013E3,,,,,-22.01999910E-3,19.9999996E-3,,,,,-22.01999910E-3,19.9999996E-3,
,,,-21.99999802E-3,-3.00000014E3,,,,,-21.99999802E-3,0.0,,,,,-21.99999802E-3,0.0,
,,,-21.97999880E-3,-2.6000001E3,,,,,-21.97999880E-3,0.0,,,,,-21.97999880E-3,19.9999996E-3,
,,,-21.95999771E-3,-3.00000014E3,,,,,-21.95999771E-3,0.0,,,,,-21.95999771E-3,0.0,
,,,-21.93999849E-3,-2.6000001E3,,,,,-21.93999849E-3,19.9999996E-3,,,,,-21.93999849E-3,19.9999996E-3,
,,,-21.91999927E-3,-3.00000014E3,,,,,-21.91999927E-3,0.0,,,,,-21.91999927E-3,19.9999996E-3,
,,,-21.89999819E-3,-2.6000001E3,,,,,-21.89999819E-3,0.0,,,,,-21.89999819E-3,19.9999996E-3,
,,,-21.87999897E-3,-2.80000013E3,,,,,-21.87999897E-3,0.0,,,,,-21.87999897E-3,0.0,
,,,-21.85999788E-3,-2.6000001E3,,,,,-21.85999788E-3,19.9999996E-3,,,,,-21.85999788E-3,19.9999996E-3,
,,,-21.83999866E-3,-2.80000013E3,,,,,-21.83999866E-3,0.0,,,,,-21.83999866E-3,0.0,
,,,-21.81999944E-3,-2.6000001E3,,,,,-21.81999944E-3,19.9999996E-3,,,,,-21.81999944E-3,19.9999996E-3,
,,,-21.79999836E-3,-2.6000001E3,,,,,-21.79999836E-3,0.0,,,,,-21.79999836E-3,0.0,
,,,-21.77999914E-3,-2.6000001E3,,,,,-21.77999914E-3,0.0,,,,,-21.77999914E-3,39.99999911E-3,
,,,-21.75999805E-3,-2.6000001E3,,,,,-21.75999805E-3,0.0,,,,,-21.75999805E-3,0.0,
,,,-21.73999883E-3,-2.4000001E3,,,,,-21.73999883E-3,19.9999996E-3,,,,,-21.73999883E-3,19.9999996E-3,
,,,-21.71999775E-3,-2.6000001E3,,,,,-21.71999775E-3,0.0,,,,,-21.71999775E-3,0.0,
,,,-21.69999853E-3,-2.4000001E3,,,,,-21.69999853E-3,19.9999996E-3,,,,,-21.69999853E-3,19.9999996E-3,
,,,-21.67999931E-3,-2.4000001E3,,,,,-21.67999931E-3,0.0,,,,,-21.67999931E-3,0.0,
,,,-21.65999822E-3,-2.2000001E3,,,,,-21.65999822E-3,0.0,,,,,-21.65999822E-3,19.9999996E-3,
,,,-21.63999900E-3,-2.2000001E3,,,,,-21.63999900E-3,0.0,,,,,-21.63999900E-3,0.0,
,,,-21.61999792E-3,-2.0000001E3,,,,,-21.61999792E-3,0.0,,,,,-21.61999792E-3,19.9999996E-3,
,,,-21.59999870E-3,-2.2000001E3,,,,,-21.59999870E-3,0.0,,,,,-21.59999870E-3,19.9999996E-3,
,,,-21.57999948E-3,-2.0000001E3,,,,,-21.57999948E-3,19.9999996E-3,,,,,-21.57999948E-3,39.99999911E-3,
,,,-21.55999839E-3,-2.0000001E3,,,,,-21.55999839E-3,0.0,,,,,-21.55999839E-3,0.0,
,,,-21.53999917E-3,-1.8000001E3,,,,,-21.53999917E-3,19.9999996E-3,,,,,-21.53999917E-3,19.9999996E-3,
,,,-21.51999809E-3,-2.0000001E3,,,,,-21.51999809E-3,-19.9999996E-3,,,,,-21.51999809E-3,0.0,
,,,-21.49999887E-3,-1.6000001E3,,,,,-21.49999887E-3,19.9999996E-3,,,,,-21.49999887E-3,39.99999911E-3,
,,,-21.47999778E-3,-1.6000001E3,,,,,-21.47999778E-3,-19.9999996E-3,,,,,-21.47999778E-3,19.9999996E-3,
,,,-21.45999856E-3,-1.4000001E3,,,,,-21.45999856E-3,19.9999996E-3,,,,,-21.45999856E-3,19.9999996E-3,
,,,-21.43999934E-3,-1.6000001E3,,,,,-21.43999934E-3,0.0,,,,,-21.43999934E-3,0.0,
,,,-21.41999826E-3,-1.4000001E3,,,,,-21.41999826E-3,0.0,,,,,-21.41999826E-3,19.9999996E-3,
,,,-21.39999904E-3,-1.4000001E3,,,,,-21.39999904E-3,0.0,,,,,-21.39999904E-3,0.0,
,,,-21.37999795E-3,-1.2000001E3,,,,,-21.37999795E-3,0.0,,,,,-21.37999795E-3,19.9999996E-3,
,,,-21.35999873E-3,-1.2000001E3,,,,,-21.35999873E-3,-19.9999996E-3,,,,,-21.35999873E-3,0.0,
,,,-21.33999951E-3,-1.0000000E3,,,,,-21.33999951E-3,0.0,,,,,-21.33999951E-3,19.9999996E-3,
,,,-21.31999843E-3,-1.2000001E3,,,,,-21.31999843E-3,-19.9999996E-3,,,,,-21.31999843E-3,19.9999996E-3,
,,,-21.29999921E-3,-1.0000000E3,,,,,-21.29999921E-3,19.9999996E-3,,,,,-21.29999921E-3,39.99999911E-3,
,,,-21.27999812E-3,-1.2000001E3,,,,,-21.27999812E-3,0.0,,,,,-21.27999812E-3,0.0,
,,,-21.25999890E-3,-800.000000000,,,,,-21.25999890E-3,0.0,,,,,-21.25999890E-3,19.9999996E-3,
,,,-21.23999782E-3,-1.0000000E3,,,,,-21.23999782E-3,-19.9999996E-3,,,,,-21.23999782E-3,0.0,
,,,-21.21999860E-3,-800.000000000,,,,,-21.21999860E-3,0.0,,,,,-21.21999860E-3,19.9999996E-3,
,,,-21.19999938E-3,-800.000000000,,,,,-21.19999938E-3,0.0,,,,,-21.19999938E-3,0.0,
,,,-21.17999829E-3,-800.000000000,,,,,-21.17999829E-3,0.0,,,,,-21.17999829E-3,39.99999911E-3,
,,,-21.15999907E-3,-800.000000000,,,,,-21.15999907E-3,0.0,,,,,-21.15999907E-3,0.0,
,,,-21.13999799E-3,-600.000000000,,,,,-21.13999799E-3,0.0,,,,,-21.13999799E-3,19.9999996E-3,
,,,-21.11999877E-3,-800.000000000,,,,,-21.11999877E-3,0.0,,,,,-21.11999877E-3,0.0,
,,,-21.09999768E-3,-600.000000000,,,,,-21.09999768E-3,19.9999996E-3,,,,,-21.09999768E-3,19.9999996E-3,
,,,-21.07999846E-3,-800.000000000,,,,,-21.07999846E-3,0.0,,,,,-21.07999846E-3,0.0,
,,,-21.05999924E-3,-400.00000000,,,,,-21.05999924E-3,19.9999996E-3,,,,,-21.05999924E-3,19.9999996E-3,
,,,-21.03999816E-3,-600.000000000,,,,,-21.03999816E-3,-19.9999996E-3,,,,,-21.03999816E-3,0.0,
,,,-21.01999894E-3,-400.00000000,,,,,-21.01999894E-3,0.0,,,,,-21.01999894E-3,39.99999911E-3,
,,,-20.99999785E-3,-800.000000000,,,,,-20.99999785E-3,0.0,,,,,-20.99999785E-3,0.0,
,,,-20.97999863E-3,-400.00000000,,,,,-20.97999863E-3,0.0,,,,,-20.97999863E-3,39.99999911E-3,
,,,-20.95999941E-3,-600.000000000,,,,,-20.95999941E-3,0.0,,,,,-20.95999941E-3,0.0,
,,,-20.93999833E-3,-400.00000000,,,,,-20.93999833E-3,0.0,,,,,-20.93999833E-3,19.9999996E-3,
,,,-20.91999911E-3,-800.000000000,,,,,-20.91999911E-3,-19.9999996E-3,,,,,-20.91999911E-3,0.0,
,,,-20.89999802E-3,-600.000000000,,,,,-20.89999802E-3,0.0,,,,,-20.89999802E-3,19.9999996E-3,
,,,-20.87999880E-3,-600.000000000,,,,,-20.87999880E-3,0.0,,,,,-20.87999880E-3,0.0,
,,,-20.85999772E-3,-400.00000000,,,,,-20.85999772E-3,0.0,,,,,-20.85999772E-3,19.9999996E-3,
,,,-20.83999850E-3,-600.000000000,,,,,-20.83999850E-3,0.0,,,,,-20.83999850E-3,0.0,
,,,-20.81999928E-3,-400.00000000,,,,,-20.81999928E-3,0.0,,,,,-20.81999928E-3,39.99999911E-3,
,,,-20.79999819E-3,-600.000000000,,,,,-20.79999819E-3,0.0,,,,,-20.79999819E-3,0.0,
,,,-20.77999897E-3,-600.000000000,,,,,-20.77999897E-3,0.0,,,,,-20.77999897E-3,39.99999911E-3,
