20180924/Bobina 11.csv

Record Length,2500,Points,-6.00000021E-6,-1.6000001E3,,Record Length,2500,Points,-6.00000021E-6,108.0000028E-3,,Record Length,2500,Points,-6.00000021E-6,96.000000834E-3,
Sample Interval,100.0000012E-9,s,-5.90000036E-6,-1.4000001E3,,Sample Interval,100.0000012E-9,s,-5.90000036E-6,108.0000028E-3,,Sample Interval,100.0000012E-9,s,-5.90000036E-6,88.000006974E-3,
Trigger Point,60.000001421,Samples,-5.80000005E-6,-1.6000001E3,,Trigger Point,60.000001421,Samples,-5.80000005E-6,108.0000028E-3,,Trigger Point,60.000001421,Samples,-5.80000005E-6,88.000006974E-3,
,,,-5.70000020E-6,-1.4000001E3,,,,,-5.70000020E-6,108.0000028E-3,,,,,-5.70000020E-6,88.000006974E-3,
,,,-5.60000035E-6,-1.4000001E3,,,,,-5.60000035E-6,108.0000028E-3,,,,,-5.60000035E-6,96.000000834E-3,
,,,-5.50000004E-6,-1.4000001E3,,,,,-5.50000004E-6,112.0000035E-3,,,,,-5.50000004E-6,88.000006974E-3,
Source,CH1,,-5.40000019E-6,-1.4000001E3,,Source,CH3,,-5.40000019E-6,108.0000028E-3,,Source,CH4,,-5.40000019E-6,96.000000834E-3,
Vertical Units,Volts,,-5.30000034E-6,-1.6000001E3,,Vertical Units,Volts,,-5.30000034E-6,112.0000035E-3,,Vertical Units,Volts,,-5.30000034E-6,96.000000834E-3,
Vertical Scale,5.00000024E3,,-5.20000003E-6,-1.4000001E3,,Vertical Scale,100.0000047E-3,,-5.20000003E-6,104.0000021E-3,,Vertical Scale,200.00000950E-3,,-5.20000003E-6,88.000006974E-3,
Vertical Offset,0,,-5.10000018E-6,-1.4000001E3,,Vertical Offset,0,,-5.10000018E-6,108.0000028E-3,,Vertical Offset,0,,-5.10000018E-6,88.000006974E-3,
Horizontal Units,s,,-5.00000033E-6,-1.4000001E3,,Horizontal Units,s,,-5.00000033E-6,112.0000035E-3,,Horizontal Units,s,,-5.00000033E-6,96.000000834E-3,
Horizontal Scale,25.00000029E-6,,-4.90000002E-6,-1.4000001E3,,Horizontal Scale,25.00000029E-6,,-4.90000002E-6,108.0000028E-3,,Horizontal Scale,25.00000029E-6,,-4.90000002E-6,96.000000834E-3,
Pt Fmt,Y,,-4.80000017E-6,-1.2000001E3,,Pt Fmt,Y,,-4.80000017E-6,112.0000035E-3,,Pt Fmt,Y,,-4.80000017E-6,96.000000834E-3,
Yzero,1.2400000,,-4.70000032E-6,-1.0000000E3,,Yzero,-920.000000000E-3,,-4.70000032E-6,112.0000035E-3,,Yzero,-2.0000000,,-4.70000032E-6,96.000000834E-3,
Probe Atten,1.0000000E3,,-4.60000001E-6,-1.2000001E3,,Probe Atten,1.000000,,-4.60000001E-6,108.0000028E-3,,Probe Atten,1.000000,,-4.60000001E-6,88.000006974E-3,
,,,-4.50000016E-6,-1.2000001E3,,,,,-4.50000016E-6,108.0000028E-3,,,,,-4.50000016E-6,96.000000834E-3,
Note,TDS 2004B - 3:43:03 PM   9/24/2018,,-4.40000031E-6,-1.2000001E3,,Note,TDS 2004B - 3:43:03 PM   9/24/2018,,-4.40000031E-6,116.0000041E-3,,Note,TDS 2004B - 3:43:03 PM   9/24/2018,,-4.40000031E-6,80.000005662E-3,
,,,-4.30000000E-6,-1.2000001E3,,,,,-4.30000000E-6,112.0000035E-3,,,,,-4.30000000E-6,88.000006974E-3,
,,,-4.20000015E-6,-1.2000001E3,,,,,-4.20000015E-6,112.0000035E-3,,,,,-4.20000015E-6,96.000000834E-3,
,,,-4.10000030E-6,-1.2000001E3,,,,,-4.10000030E-6,104.0000021E-3,,,,,-4.10000030E-6,88.000006974E-3,
,,,-3.99999999E-6,-1.0000000E3,,,,,-3.99999999E-6,112.0000035E-3,,,,,-3.99999999E-6,96.000000834E-3,
,,,-3.90000014E-6,-1.4000001E3,,,,,-3.90000014E-6,108.0000028E-3,,,,,-3.90000014E-6,96.000000834E-3,
,,,-3.80000029E-6,-1.2000001E3,,,,,-3.80000029E-6,116.0000041E-3,,,,,-3.80000029E-6,104.0000021E-3,
,,,-3.70000021E-6,-1.0000000E3,,,,,-3.70000021E-6,112.0000035E-3,,,,,-3.70000021E-6,96.000000834E-3,
,,,-3.60000013E-6,-1.0000000E3,,,,,-3.60000013E-6,112.0000035E-3,,,,,-3.60000013E-6,96.000000834E-3,
,,,-3.50000028E-6,-800.000000000,,,,,-3.50000028E-6,108.0000028E-3,,,,,-3.50000028E-6,104.0000021E-3,
,,,-3.40000020E-6,-800.000000000,,,,,-3.40000020E-6,108.0000028E-3,,,,,-3.40000020E-6,80.000005662E-3,
,,,-3.30000012E-6,-1.0000000E3,,,,,-3.30000012E-6,112.0000035E-3,,,,,-3.30000012E-6,88.000006974E-3,
,,,-3.20000026E-6,-600.000000000,,,,,-3.20000026E-6,112.0000035E-3,,,,,-3.20000026E-6,104.0000021E-3,
,,,-3.10000019E-6,-400.00000000,,,,,-3.10000019E-6,112.0000035E-3,,,,,-3.10000019E-6,88.000006974E-3,
,,,-3.00000011E-6,-400.00000000,,,,,-3.00000011E-6,112.0000035E-3,,,,,-3.00000011E-6,96.000000834E-3,
,,,-2.90000025E-6,-600.000000000,,,,,-2.90000025E-6,116.0000041E-3,,,,,-2.90000025E-6,96.000000834E-3,
,,,-2.80000017E-6,-800.000000000,,,,,-2.80000017E-6,112.0000035E-3,,,,,-2.80000017E-6,88.000006974E-3,
,,,-2.7000001E-6,-800.000000000,,,,,-2.7000001E-6,112.0000035E-3,,,,,-2.7000001E-6,96.000000834E-3,
,,,-2.6000002E-6,-400.00000000,,,,,-2.6000002E-6,112.0000035E-3,,,,,-2.6000002E-6,96.000000834E-3,
,,,-2.5000002E-6,-600.000000000,,,,,-2.5000002E-6,108.0000028E-3,,,,,-2.5000002E-6,80.000005662E-3,
,,,-2.4000001E-6,-400.00000000,,,,,-2.4000001E-6,104.0000021E-3,,,,,-2.4000001E-6,96.000000834E-3,
,,,-2.3000002E-6,-600.000000000,,,,,-2.3000002E-6,108.0000028E-3,,,,,-2.3000002E-6,96.000000834E-3,
,,,-2.2000002E-6,-600.000000000,,,,,-2.2000002E-6,116.0000041E-3,,,,,-2.2000002E-6,88.000006974E-3,
,,,-2.1000001E-6,-600.000000000,,,,,-2.1000001E-6,116.0000041E-3,,,,,-2.1000001E-6,88.000006974E-3,
,,,-2.0000002E-6,-600.000000000,,,,,-2.0000002E-6,116.0000041E-3,,,,,-2.0000002E-6,88.000006974E-3,
,,,-1.9000001E-6,-400.00000000,,,,,-1.9000001E-6,112.0000035E-3,,,,,-1.9000001E-6,88.000006974E-3,
,,,-1.8000002E-6,-400.00000000,,,,,-1.8000002E-6,116.0000041E-3,,,,,-1.8000002E-6,88.000006974E-3,
,,,-1.7000002E-6,-400.00000000,,,,,-1.7000002E-6,112.0000035E-3,,,,,-1.7000002E-6,104.0000021E-3,
,,,-1.6000001E-6,-200.00000000,,,,,-1.6000001E-6,112.0000035E-3,,,,,-1.6000001E-6,88.000006974E-3,
,,,-1.5000002E-6,-200.00000000,,,,,-1.5000002E-6,108.0000028E-3,,,,,-1.5000002E-6,88.000006974E-3,
,,,-1.4000002E-6,-400.00000000,,,,,-1.4000002E-6,108.0000028E-3,,,,,-1.4000002E-6,88.000006974E-3,
,,,-1.3000001E-6,-200.00000000,,,,,-1.3000001E-6,108.0000028E-3,,,,,-1.3000001E-6,88.000006974E-3,
,,,-1.2000002E-6,-400.00000000,,,,,-1.2000002E-6,112.0000035E-3,,,,,-1.2000002E-6,104.0000021E-3,
,,,-1.1000002E-6,-200.00000000,,,,,-1.1000002E-6,112.0000035E-3,,,,,-1.1000002E-6,96.000000834E-3,
,,,-1.0000001E-6,-200.00000000,,,,,-1.0000001E-6,116.0000041E-3,,,,,-1.0000001E-6,80.000005662E-3,
,,,-900.000145521E-9,0.0,,,,,-900.000145521E-9,116.0000041E-3,,,,,-900.000145521E-9,88.000006974E-3,
,,,-800.000179879E-9,-200.00000000,,,,,-800.000179879E-9,116.0000041E-3,,,,,-800.000179879E-9,104.0000021E-3,
,,,-700.000157394E-9,0.0,,,,,-700.000157394E-9,112.0000035E-3,,,,,-700.000157394E-9,208.00000429E-3,
,,,-600.000134909E-9,200.00000000,,,,,-600.000134909E-9,112.0000035E-3,,,,,-600.000134909E-9,184.00001526E-3,
,,,-500.000169268E-9,200.00000000,,,,,-500.000169268E-9,112.0000035E-3,,,,,-500.000169268E-9,96.000000834E-3,
,,,-400.00014678E-9,0.0,,,,,-400.00014678E-9,116.0000041E-3,,,,,-400.00014678E-9,88.000006974E-3,
,,,-300.00015272E-9,200.00000000,,,,,-300.00015272E-9,116.0000041E-3,,,,,-300.00015272E-9,104.0000021E-3,
,,,-200.00014445E-9,200.00000000,,,,,-200.00014445E-9,120.0000048E-3,,,,,-200.00014445E-9,96.000000834E-3,
,,,-100.0001433E-9,200.00000000,,,,,-100.0001433E-9,116.0000041E-3,,,,,-100.0001433E-9,80.000005662E-3,
,,,-142.1085453E-15,0.0,,,,,-142.1085453E-15,112.0000035E-3,,,,,-142.1085453E-15,96.000000834E-3,
,,,99.999859060E-9,0.0,,,,,99.999859060E-9,108.0000028E-3,,,,,99.999859060E-9,104.0000021E-3,
,,,199.99986023E-9,0.0,,,,,199.99986023E-9,112.0000035E-3,,,,,199.99986023E-9,88.000006974E-3,
,,,299.99986850E-9,200.00000000,,,,,299.99986850E-9,116.0000041E-3,,,,,299.99986850E-9,80.000005662E-3,
,,,399.99986257E-9,400.00000000,,,,,399.99986257E-9,112.0000035E-3,,,,,399.99986257E-9,96.000000834E-3,
,,,499.999885051E-9,200.00000000,,,,,499.999885051E-9,112.0000035E-3,,,,,499.999885051E-9,96.000000834E-3,
,,,599.999850692E-9,200.00000000,,,,,599.999850692E-9,124.0000054E-3,,,,,599.999850692E-9,96.000000834E-3,
,,,699.999873177E-9,400.00000000,,,,,699.999873177E-9,116.0000041E-3,,,,,699.999873177E-9,96.000000834E-3,
,,,799.999838819E-9,400.00000000,,,,,799.999838819E-9,116.0000041E-3,,,,,799.999838819E-9,80.000005662E-3,
,,,899.999861304E-9,400.00000000,,,,,899.999861304E-9,112.0000035E-3,,,,,899.999861304E-9,96.000000834E-3,
,,,999.999883788E-9,400.00000000,,,,,999.999883788E-9,116.0000041E-3,,,,,999.999883788E-9,96.000000834E-3,
,,,1.0999998E-6,200.00000000,,,,,1.0999998E-6,112.0000035E-3,,,,,1.0999998E-6,216.00000560E-3,
,,,1.1999998E-6,400.00000000,,,,,1.1999998E-6,112.0000035E-3,,,,,1.1999998E-6,256.00001216E-3,
,,,1.2999999E-6,600.000000000,,,,,1.2999999E-6,112.0000035E-3,,,,,1.2999999E-6,96.000000834E-3,
,,,1.3999999E-6,400.00000000,,,,,1.3999999E-6,116.0000041E-3,,,,,1.3999999E-6,104.0000021E-3,
,,,1.4999998E-6,200.00000000,,,,,1.4999998E-6,120.0000048E-3,,,,,1.4999998E-6,88.000006974E-3,
,,,1.5999999E-6,600.000000000,,,,,1.5999999E-6,96.000000834E-3,,,,,1.5999999E-6,88.000006974E-3,
,,,1.6999999E-6,600.000000000,,,,,1.6999999E-6,104.0000021E-3,,,,,1.6999999E-6,88.000006974E-3,
,,,1.7999998E-6,600.000000000,,,,,1.7999998E-6,116.0000041E-3,,,,,1.7999998E-6,96.000000834E-3,
,,,1.8999999E-6,800.000000000,,,,,1.8999999E-6,112.0000035E-3,,,,,1.8999999E-6,88.000006974E-3,
,,,1.9999998E-6,600.000000000,,,,,1.9999998E-6,112.0000035E-3,,,,,1.9999998E-6,88.000006974E-3,
,,,2.0999998E-6,800.000000000,,,,,2.0999998E-6,112.0000035E-3,,,,,2.0999998E-6,80.000005662E-3,
,,,2.1999999E-6,600.000000000,,,,,2.1999999E-6,116.0000041E-3,,,,,2.1999999E-6,96.000000834E-3,
,,,2.2999998E-6,600.000000000,,,,,2.2999998E-6,116.0000041E-3,,,,,2.2999998E-6,80.000005662E-3,
,,,2.3999999E-6,800.000000000,,,,,2.3999999E-6,120.0000048E-3,,,,,2.3999999E-6,96.000000834E-3,
,,,2.4999999E-6,800.000000000,,,,,2.4999999E-6,116.0000041E-3,,,,,2.4999999E-6,104.0000021E-3,
,,,2.5999998E-6,1.0000000E3,,,,,2.5999998E-6,120.0000048E-3,,,,,2.5999998E-6,104.0000021E-3,
,,,2.6999999E-6,800.000000000,,,,,2.6999999E-6,116.0000041E-3,,,,,2.6999999E-6,80.000005662E-3,
,,,2.79999995E-6,800.000000000,,,,,2.79999995E-6,112.0000035E-3,,,,,2.79999995E-6,88.000006974E-3,
,,,2.89999980E-6,800.000000000,,,,,2.89999980E-6,112.0000035E-3,,,,,2.89999980E-6,96.000000834E-3,
,,,2.99999988E-6,1.0000000E3,,,,,2.99999988E-6,116.0000041E-3,,,,,2.99999988E-6,96.000000834E-3,
,,,3.09999996E-6,1.0000000E3,,,,,3.09999996E-6,116.0000041E-3,,,,,3.09999996E-6,104.0000021E-3,
,,,3.19999981E-6,1.0000000E3,,,,,3.19999981E-6,112.0000035E-3,,,,,3.19999981E-6,96.000000834E-3,
,,,3.29999989E-6,1.2000001E3,,,,,3.29999989E-6,116.0000041E-3,,,,,3.29999989E-6,88.000006974E-3,
,,,3.39999997E-6,1.2000001E3,,,,,3.39999997E-6,112.0000035E-3,,,,,3.39999997E-6,96.000000834E-3,
,,,3.49999982E-6,1.0000000E3,,,,,3.49999982E-6,108.0000028E-3,,,,,3.49999982E-6,96.000000834E-3,
,,,3.59999990E-6,1.2000001E3,,,,,3.59999990E-6,116.0000041E-3,,,,,3.59999990E-6,104.0000021E-3,
,,,3.69999998E-6,1.2000001E3,,,,,3.69999998E-6,108.0000028E-3,,,,,3.69999998E-6,80.000005662E-3,
,,,3.79999983E-6,1.6000001E3,,,,,3.79999983E-6,112.0000035E-3,,,,,3.79999983E-6,88.000006974E-3,
,,,3.89999968E-6,1.2000001E3,,,,,3.89999968E-6,116.0000041E-3,,,,,3.89999968E-6,96.000000834E-3,
,,,3.99999999E-6,1.4000001E3,,,,,3.99999999E-6,112.0000035E-3,,,,,3.99999999E-6,96.000000834E-3,
,,,4.09999984E-6,1.2000001E3,,,,,4.09999984E-6,116.0000041E-3,,,,,4.09999984E-6,80.000005662E-3,
,,,4.19999969E-6,1.4000001E3,,,,,4.19999969E-6,112.0000035E-3,,,,,4.19999969E-6,88.000006974E-3,
,,,4.30000000E-6,1.4000001E3,,,,,4.30000000E-6,112.0000035E-3,,,,,4.30000000E-6,96.000000834E-3,
,,,4.39999985E-6,1.4000001E3,,,,,4.39999985E-6,131.9999993E-3,,,,,4.39999985E-6,96.000000834E-3,
,,,4.49999970E-6,1.6000001E3,,,,,4.49999970E-6,136.0000074E-3,,,,,4.49999970E-6,80.000005662E-3,
,,,4.60000001E-6,1.4000001E3,,,,,4.60000001E-6,112.0000035E-3,,,,,4.60000001E-6,104.0000021E-3,
,,,4.69999986E-6,1.4000001E3,,,,,4.69999986E-6,112.0000035E-3,,,,,4.69999986E-6,96.000000834E-3,
,,,4.79999972E-6,1.4000001E3,,,,,4.79999972E-6,116.0000041E-3,,,,,4.79999972E-6,88.000006974E-3,
,,,4.90000002E-6,1.6000001E3,,,,,4.90000002E-6,116.0000041E-3,,,,,4.90000002E-6,104.0000021E-3,
,,,4.99999987E-6,1.8000001E3,,,,,4.99999987E-6,112.0000035E-3,,,,,4.99999987E-6,88.000006974E-3,
,,,5.09999973E-6,1.4000001E3,,,,,5.09999973E-6,120.0000048E-3,,,,,5.09999973E-6,80.000005662E-3,
,,,5.20000003E-6,1.6000001E3,,,,,5.20000003E-6,112.0000035E-3,,,,,5.20000003E-6,88.000006974E-3,
,,,5.29999988E-6,1.4000001E3,,,,,5.29999988E-6,112.0000035E-3,,,,,5.29999988E-6,88.000006974E-3,
,,,5.39999974E-6,1.8000001E3,,,,,5.39999974E-6,112.0000035E-3,,,,,5.39999974E-6,88.000006974E-3,
,,,5.50000004E-6,1.8000001E3,,,,,5.50000004E-6,116.0000041E-3,,,,,5.50000004E-6,88.000006974E-3,
,,,5.59999989E-6,1.8000001E3,,,,,5.59999989E-6,104.0000021E-3,,,,,5.59999989E-6,120.0000048E-3,
,,,5.69999975E-6,1.8000001E3,,,,,5.69999975E-6,104.0000021E-3,,,,,5.69999975E-6,120.0000048E-3,
,,,5.80000005E-6,1.8000001E3,,,,,5.80000005E-6,120.0000048E-3,,,,,5.80000005E-6,128.0000061E-3,
,,,5.89999991E-6,1.6000001E3,,,,,5.89999991E-6,116.0000041E-3,,,,,5.89999991E-6,88.000006974E-3,
,,,5.99999976E-6,1.8000001E3,,,,,5.99999976E-6,112.0000035E-3,,,,,5.99999976E-6,96.000000834E-3,
,,,6.10000006E-6,1.6000001E3,,,,,6.10000006E-6,116.0000041E-3,,,,,6.10000006E-6,88.000006974E-3,
,,,6.19999992E-6,2.0000001E3,,,,,6.19999992E-6,96.000000834E-3,,,,,6.19999992E-6,80.000005662E-3,
,,,6.29999977E-6,1.8000001E3,,,,,6.29999977E-6,96.000000834E-3,,,,,6.29999977E-6,96.000000834E-3,
,,,6.40000007E-6,2.2000001E3,,,,,6.40000007E-6,116.0000041E-3,,,,,6.40000007E-6,104.0000021E-3,
,,,6.49999993E-6,1.8000001E3,,,,,6.49999993E-6,120.0000048E-3,,,,,6.49999993E-6,96.000000834E-3,
,,,6.59999978E-6,2.2000001E3,,,,,6.59999978E-6,112.0000035E-3,,,,,6.59999978E-6,104.0000021E-3,
,,,6.70000009E-6,2.2000001E3,,,,,6.70000009E-6,108.0000028E-3,,,,,6.70000009E-6,96.000000834E-3,
,,,6.79999994E-6,2.0000001E3,,,,,6.79999994E-6,124.0000054E-3,,,,,6.79999994E-6,96.000000834E-3,
,,,6.89999979E-6,2.2000001E3,,,,,6.89999979E-6,124.0000054E-3,,,,,6.89999979E-6,80.000005662E-3,
,,,7.00000010E-6,2.2000001E3,,,,,7.00000010E-6,108.0000028E-3,,,,,7.00000010E-6,88.000006974E-3,
,,,7.09999995E-6,2.2000001E3,,,,,7.09999995E-6,108.0000028E-3,,,,,7.09999995E-6,96.000000834E-3,
,,,7.19999980E-6,2.4000001E3,,,,,7.19999980E-6,116.0000041E-3,,,,,7.19999980E-6,80.000005662E-3,
,,,7.30000011E-6,2.0000001E3,,,,,7.30000011E-6,112.0000035E-3,,,,,7.30000011E-6,88.000006974E-3,
,,,7.399999959E-6,2.2000001E3,,,,,7.399999959E-6,108.0000028E-3,,,,,7.399999959E-6,88.000006974E-3,
,,,7.499999811E-6,1.8000001E3,,,,,7.499999811E-6,104.0000021E-3,,,,,7.499999811E-6,88.000006974E-3,
,,,7.600000117E-6,2.4000001E3,,,,,7.600000117E-6,112.0000035E-3,,,,,7.600000117E-6,96.000000834E-3,
,,,7.699999514E-6,2.2000001E3,,,,,7.699999514E-6,112.0000035E-3,,,,,7.699999514E-6,88.000006974E-3,
,,,7.800000276E-6,2.2000001E3,,,,,7.800000276E-6,112.0000035E-3,,,,,7.800000276E-6,88.000006974E-3,
,,,7.900000128E-6,2.6000001E3,,,,,7.900000128E-6,112.0000035E-3,,,,,7.900000128E-6,112.0000035E-3,
,,,7.999999980E-6,2.4000001E3,,,,,7.999999980E-6,104.0000021E-3,,,,,7.999999980E-6,96.000000834E-3,
,,,8.099999832E-6,2.4000001E3,,,,,8.099999832E-6,96.000000834E-3,,,,,8.099999832E-6,88.000006974E-3,
,,,8.199999684E-6,2.4000001E3,,,,,8.199999684E-6,112.0000035E-3,,,,,8.199999684E-6,520.000040531E-3,
,,,8.299999536E-6,2.2000001E3,,,,,8.299999536E-6,112.0000035E-3,,,,,8.299999536E-6,88.000006974E-3,
,,,8.400000297E-6,2.4000001E3,,,,,8.400000297E-6,124.0000054E-3,,,,,8.400000297E-6,96.000000834E-3,
,,,8.500000149E-6,2.2000001E3,,,,,8.500000149E-6,124.0000054E-3,,,,,8.500000149E-6,208.00000429E-3,
,,,8.600000001E-6,2.4000001E3,,,,,8.600000001E-6,112.0000035E-3,,,,,8.600000001E-6,263.99999857E-3,
,,,8.699999853E-6,2.4000001E3,,,,,8.699999853E-6,112.0000035E-3,,,,,8.699999853E-6,88.000006974E-3,
,,,8.799999705E-6,2.6000001E3,,,,,8.799999705E-6,112.0000035E-3,,,,,8.799999705E-6,104.0000021E-3,
,,,8.899999557E-6,2.6000001E3,,,,,8.899999557E-6,108.0000028E-3,,,,,8.899999557E-6,96.000000834E-3,
,,,9.000000318E-6,2.4000001E3,,,,,9.000000318E-6,112.0000035E-3,,,,,9.000000318E-6,120.0000048E-3,
,,,9.100000170E-6,2.4000001E3,,,,,9.100000170E-6,112.0000035E-3,,,,,9.100000170E-6,120.0000048E-3,
,,,9.200000022E-6,2.80000013E3,,,,,9.200000022E-6,112.0000035E-3,,,,,9.200000022E-6,120.0000048E-3,
,,,9.299999874E-6,2.6000001E3,,,,,9.299999874E-6,112.0000035E-3,,,,,9.299999874E-6,88.000006974E-3,
,,,9.399999726E-6,3.00000014E3,,,,,9.399999726E-6,112.0000035E-3,,,,,9.399999726E-6,120.0000048E-3,
,,,9.499999578E-6,2.6000001E3,,,,,9.499999578E-6,112.0000035E-3,,,,,9.499999578E-6,88.000006974E-3,
,,,9.600000340E-6,3.00000014E3,,,,,9.600000340E-6,104.0000021E-3,,,,,9.600000340E-6,96.000000834E-3,
,,,9.700000192E-6,2.80000013E3,,,,,9.700000192E-6,104.0000021E-3,,,,,9.700000192E-6,104.0000021E-3,
,,,9.800000043E-6,2.80000013E3,,,,,9.800000043E-6,108.0000028E-3,,,,,9.800000043E-6,88.000006974E-3,
,,,9.899999895E-6,2.80000013E3,,,,,9.899999895E-6,104.0000021E-3,,,,,9.899999895E-6,80.000005662E-3,
,,,9.999999747E-6,2.80000013E3,,,,,9.999999747E-6,152.00001001E-3,,,,,9.999999747E-6,104.0000021E-3,
,,,10.0999996E-6,2.80000013E3,,,,,10.0999996E-6,148.0000019E-3,,,,,10.0999996E-6,88.000006974E-3,
,,,10.2000004E-6,3.00000014E3,,,,,10.2000004E-6,124.0000054E-3,,,,,10.2000004E-6,88.000006974E-3,
,,,10.3000002E-6,3.20000015E3,,,,,10.3000002E-6,120.0000048E-3,,,,,10.3000002E-6,88.000006974E-3,
,,,10.4000001E-6,2.80000013E3,,,,,10.4000001E-6,116.0000041E-3,,,,,10.4000001E-6,88.000006974E-3,
,,,10.4999999E-6,3.00000014E3,,,,,10.4999999E-6,112.0000035E-3,,,,,10.4999999E-6,88.000006974E-3,
,,,10.5999998E-6,3.20000015E3,,,,,10.5999998E-6,112.0000035E-3,,,,,10.5999998E-6,96.000000834E-3,
,,,10.6999996E-6,3.00000014E3,,,,,10.6999996E-6,112.0000035E-3,,,,,10.6999996E-6,88.000006974E-3,
,,,10.8000004E-6,3.00000014E3,,,,,10.8000004E-6,112.0000035E-3,,,,,10.8000004E-6,88.000006974E-3,
,,,10.9000002E-6,3.00000014E3,,,,,10.9000002E-6,116.0000041E-3,,,,,10.9000002E-6,104.0000021E-3,
,,,11.0000001E-6,3.00000014E3,,,,,11.0000001E-6,104.0000021E-3,,,,,11.0000001E-6,488.000035286E-3,
,,,11.0999999E-6,3.20000015E3,,,,,11.0999999E-6,108.0000028E-3,,,,,11.0999999E-6,184.00001526E-3,
,,,11.1999998E-6,3.20000015E3,,,,,11.1999998E-6,124.0000054E-3,,,,,11.1999998E-6,304.00002003E-3,
,,,11.2999996E-6,3.00000014E3,,,,,11.2999996E-6,124.0000054E-3,,,,,11.2999996E-6,104.0000021E-3,
,,,11.4000004E-6,3.40000016E3,,,,,11.4000004E-6,128.0000061E-3,,,,,11.4000004E-6,120.0000048E-3,
,,,11.5000003E-6,3.20000015E3,,,,,11.5000003E-6,131.9999993E-3,,,,,11.5000003E-6,80.000005662E-3,
,,,11.6000001E-6,3.40000016E3,,,,,11.6000001E-6,120.0000048E-3,,,,,11.6000001E-6,80.000005662E-3,
,,,11.7000000E-6,3.20000015E3,,,,,11.7000000E-6,120.0000048E-3,,,,,11.7000000E-6,96.000000834E-3,
,,,11.7999998E-6,3.20000015E3,,,,,11.7999998E-6,112.0000035E-3,,,,,11.7999998E-6,104.0000021E-3,
,,,11.8999997E-6,3.00000014E3,,,,,11.8999997E-6,112.0000035E-3,,,,,11.8999997E-6,80.000005662E-3,
,,,12.0000004E-6,3.40000016E3,,,,,12.0000004E-6,116.0000041E-3,,,,,12.0000004E-6,96.000000834E-3,
,,,12.1000003E-6,3.40000016E3,,,,,12.1000003E-6,116.0000041E-3,,,,,12.1000003E-6,96.000000834E-3,
,,,12.2000001E-6,3.20000015E3,,,,,12.2000001E-6,112.0000035E-3,,,,,12.2000001E-6,88.000006974E-3,
,,,12.3000000E-6,3.20000015E3,,,,,12.3000000E-6,112.0000035E-3,,,,,12.3000000E-6,88.000006974E-3,
,,,12.3999998E-6,3.40000016E3,,,,,12.3999998E-6,104.0000021E-3,,,,,12.3999998E-6,96.000000834E-3,
,,,12.4999997E-6,3.40000016E3,,,,,12.4999997E-6,100.0000015E-3,,,,,12.4999997E-6,80.000005662E-3,
,,,12.6000004E-6,3.60000017E3,,,,,12.6000004E-6,108.0000028E-3,,,,,12.6000004E-6,88.000006974E-3,
,,,12.7000003E-6,3.60000017E3,,,,,12.7000003E-6,108.0000028E-3,,,,,12.7000003E-6,96.000000834E-3,
,,,12.8000001E-6,3.60000017E3,,,,,12.8000001E-6,108.0000028E-3,,,,,12.8000001E-6,80.000005662E-3,
,,,12.9000000E-6,3.60000017E3,,,,,12.9000000E-6,104.0000021E-3,,,,,12.9000000E-6,88.000006974E-3,
,,,12.9999999E-6,3.60000017E3,,,,,12.9999999E-6,112.0000035E-3,,,,,12.9999999E-6,96.000000834E-3,
,,,13.0999997E-6,3.40000016E3,,,,,13.0999997E-6,104.0000021E-3,,,,,13.0999997E-6,80.000005662E-3,
,,,13.2000005E-6,4.00000019E3,,,,,13.2000005E-6,116.0000041E-3,,,,,13.2000005E-6,88.000006974E-3,
