20180924/Bobina 2.csv

Record Length,2500,Points,-180.00000273E-6,-200.00000000,,Record Length,2500,Points,-180.00000273E-6,80.000005662E-3,,Record Length,2500,Points,-180.00000273E-6,80.000005662E-3,
Sample Interval,100.0000012E-9,s,-179.90000197E-6,0.0,,Sample Interval,100.0000012E-9,s,-179.90000197E-6,88.000006974E-3,,Sample Interval,100.0000012E-9,s,-179.90000197E-6,80.000005662E-3,
Trigger Point,1.8000001E3,Samples,-179.80000121E-6,0.0,,Trigger Point,1.8000001E3,Samples,-179.80000121E-6,92.000007629E-3,,Trigger Point,1.8000001E3,Samples,-179.80000121E-6,56.000001729E-3,
,,,-179.70000044E-6,0.0,,,,,-179.70000044E-6,88.000006974E-3,,,,,-179.70000044E-6,96.000000834E-3,
,,,-179.59999968E-6,200.00000000,,,,,-179.59999968E-6,84.000006318E-3,,,,,-179.59999968E-6,72.000004351E-3,
,,,-179.49999892E-6,0.0,,,,,-179.49999892E-6,92.000007629E-3,,,,,-179.49999892E-6,80.000005662E-3,
Source,CH1,,-179.39999816E-6,200.00000000,,Source,CH3,,-179.39999816E-6,88.000006974E-3,,Source,CH4,,-179.39999816E-6,64.000003040E-3,
Vertical Units,Volts,,-179.29999740E-6,0.0,,Vertical Units,Volts,,-179.29999740E-6,84.000006318E-3,,Vertical Units,Volts,,-179.29999740E-6,72.000004351E-3,
Vertical Scale,5.00000024E3,,-179.19999664E-6,0.0,,Vertical Scale,100.0000047E-3,,-179.19999664E-6,84.000006318E-3,,Vertical Scale,200.00000950E-3,,-179.19999664E-6,64.000003040E-3,
Vertical Offset,0,,-179.09999588E-6,200.00000000,,Vertical Offset,0,,-179.09999588E-6,92.000007629E-3,,Vertical Offset,0,,-179.09999588E-6,80.000005662E-3,
Horizontal Units,s,,-179.00000967E-6,200.00000000,,Horizontal Units,s,,-179.00000967E-6,92.000007629E-3,,Horizontal Units,s,,-179.00000967E-6,64.000003040E-3,
Horizontal Scale,25.00000029E-6,,-178.90000890E-6,200.00000000,,Horizontal Scale,25.00000029E-6,,-178.90000890E-6,92.000007629E-3,,Horizontal Scale,25.00000029E-6,,-178.90000890E-6,80.000005662E-3,
Pt Fmt,Y,,-178.80000814E-6,400.00000000,,Pt Fmt,Y,,-178.80000814E-6,92.000007629E-3,,Pt Fmt,Y,,-178.80000814E-6,80.000005662E-3,
Yzero,1.2400000,,-178.70000738E-6,200.00000000,,Yzero,-920.000000000E-3,,-178.70000738E-6,84.000006318E-3,,Yzero,-2.0000000,,-178.70000738E-6,72.000004351E-3,
Probe Atten,1.0000000E3,,-178.60000662E-6,0.0,,Probe Atten,1.000000,,-178.60000662E-6,88.000006974E-3,,Probe Atten,1.000000,,-178.60000662E-6,72.000004351E-3,
,,,-178.50000586E-6,0.0,,,,,-178.50000586E-6,92.000007629E-3,,,,,-178.50000586E-6,72.000004351E-3,
Note,TDS 2004B - 3:30:55 PM   9/24/2018,,-178.40000510E-6,0.0,,Note,TDS 2004B - 3:30:55 PM   9/24/2018,,-178.40000510E-6,92.000007629E-3,,Note,TDS 2004B - 3:30:55 PM   9/24/2018,,-178.40000510E-6,72.000004351E-3,
,,,-178.30000434E-6,400.00000000,,,,,-178.30000434E-6,88.000006974E-3,,,,,-178.30000434E-6,80.000005662E-3,
,,,-178.20000357E-6,600.000000000,,,,,-178.20000357E-6,88.000006974E-3,,,,,-178.20000357E-6,88.000006974E-3,
,,,-178.10000281E-6,400.00000000,,,,,-178.10000281E-6,88.000006974E-3,,,,,-178.10000281E-6,80.000005662E-3,
,,,-178.00000205E-6,400.00000000,,,,,-178.00000205E-6,84.000006318E-3,,,,,-178.00000205E-6,64.000003040E-3,
,,,-177.90000129E-6,400.00000000,,,,,-177.90000129E-6,92.000007629E-3,,,,,-177.90000129E-6,80.000005662E-3,
,,,-177.80000053E-6,200.00000000,,,,,-177.80000053E-6,100.0000015E-3,,,,,-177.80000053E-6,80.000005662E-3,
,,,-177.69999977E-6,800.000000000,,,,,-177.69999977E-6,84.000006318E-3,,,,,-177.69999977E-6,72.000004351E-3,
,,,-177.59999901E-6,400.00000000,,,,,-177.59999901E-6,88.000006974E-3,,,,,-177.59999901E-6,72.000004351E-3,
,,,-177.49999824E-6,800.000000000,,,,,-177.49999824E-6,88.000006974E-3,,,,,-177.49999824E-6,72.000004351E-3,
,,,-177.39999748E-6,400.00000000,,,,,-177.39999748E-6,92.000007629E-3,,,,,-177.39999748E-6,72.000004351E-3,
,,,-177.29999672E-6,400.00000000,,,,,-177.29999672E-6,88.000006974E-3,,,,,-177.29999672E-6,72.000004351E-3,
,,,-177.19999596E-6,400.00000000,,,,,-177.19999596E-6,92.000007629E-3,,,,,-177.19999596E-6,72.000004351E-3,
,,,-177.10000975E-6,800.000000000,,,,,-177.10000975E-6,92.000007629E-3,,,,,-177.10000975E-6,80.000005662E-3,
,,,-177.00000899E-6,600.000000000,,,,,-177.00000899E-6,88.000006974E-3,,,,,-177.00000899E-6,64.000003040E-3,
,,,-176.90000823E-6,400.00000000,,,,,-176.90000823E-6,92.000007629E-3,,,,,-176.90000823E-6,72.000004351E-3,
,,,-176.80000747E-6,600.000000000,,,,,-176.80000747E-6,92.000007629E-3,,,,,-176.80000747E-6,72.000004351E-3,
,,,-176.70000670E-6,600.000000000,,,,,-176.70000670E-6,92.000007629E-3,,,,,-176.70000670E-6,88.000006974E-3,
,,,-176.60000594E-6,800.000000000,,,,,-176.60000594E-6,88.000006974E-3,,,,,-176.60000594E-6,72.000004351E-3,
,,,-176.50000518E-6,1.0000000E3,,,,,-176.50000518E-6,92.000007629E-3,,,,,-176.50000518E-6,80.000005662E-3,
,,,-176.40000442E-6,1.0000000E3,,,,,-176.40000442E-6,92.000007629E-3,,,,,-176.40000442E-6,80.000005662E-3,
,,,-176.30000366E-6,800.000000000,,,,,-176.30000366E-6,88.000006974E-3,,,,,-176.30000366E-6,72.000004351E-3,
,,,-176.20000290E-6,800.000000000,,,,,-176.20000290E-6,92.000007629E-3,,,,,-176.20000290E-6,64.000003040E-3,
,,,-176.10000214E-6,800.000000000,,,,,-176.10000214E-6,92.000007629E-3,,,,,-176.10000214E-6,72.000004351E-3,
,,,-176.00000137E-6,1.0000000E3,,,,,-176.00000137E-6,92.000007629E-3,,,,,-176.00000137E-6,64.000003040E-3,
,,,-175.90000061E-6,800.000000000,,,,,-175.90000061E-6,92.000007629E-3,,,,,-175.90000061E-6,80.000005662E-3,
,,,-175.79999985E-6,1.0000000E3,,,,,-175.79999985E-6,92.000007629E-3,,,,,-175.79999985E-6,64.000003040E-3,
,,,-175.69999909E-6,1.0000000E3,,,,,-175.69999909E-6,92.000007629E-3,,,,,-175.69999909E-6,80.000005662E-3,
,,,-175.59999833E-6,1.0000000E3,,,,,-175.59999833E-6,88.000006974E-3,,,,,-175.59999833E-6,80.000005662E-3,
,,,-175.49999757E-6,1.0000000E3,,,,,-175.49999757E-6,92.000007629E-3,,,,,-175.49999757E-6,80.000005662E-3,
,,,-175.39999681E-6,1.0000000E3,,,,,-175.39999681E-6,88.000006974E-3,,,,,-175.39999681E-6,64.000003040E-3,
,,,-175.29999604E-6,1.2000001E3,,,,,-175.29999604E-6,92.000007629E-3,,,,,-175.29999604E-6,72.000004351E-3,
,,,-175.20000983E-6,1.0000000E3,,,,,-175.20000983E-6,92.000007629E-3,,,,,-175.20000983E-6,72.000004351E-3,
,,,-175.10000907E-6,1.2000001E3,,,,,-175.10000907E-6,92.000007629E-3,,,,,-175.10000907E-6,72.000004351E-3,
,,,-175.00000831E-6,800.000000000,,,,,-175.00000831E-6,92.000007629E-3,,,,,-175.00000831E-6,64.000003040E-3,
,,,-174.90000755E-6,1.2000001E3,,,,,-174.90000755E-6,88.000006974E-3,,,,,-174.90000755E-6,88.000006974E-3,
,,,-174.80000679E-6,1.4000001E3,,,,,-174.80000679E-6,84.000006318E-3,,,,,-174.80000679E-6,72.000004351E-3,
,,,-174.70000603E-6,1.2000001E3,,,,,-174.70000603E-6,92.000007629E-3,,,,,-174.70000603E-6,72.000004351E-3,
,,,-174.60000527E-6,1.2000001E3,,,,,-174.60000527E-6,92.000007629E-3,,,,,-174.60000527E-6,80.000005662E-3,
,,,-174.50000450E-6,1.2000001E3,,,,,-174.50000450E-6,88.000006974E-3,,,,,-174.50000450E-6,72.000004351E-3,
,,,-174.40000374E-6,1.0000000E3,,,,,-174.40000374E-6,84.000006318E-3,,,,,-174.40000374E-6,72.000004351E-3,
,,,-174.30000298E-6,1.4000001E3,,,,,-174.30000298E-6,88.000006974E-3,,,,,-174.30000298E-6,80.000005662E-3,
,,,-174.20000222E-6,1.2000001E3,,,,,-174.20000222E-6,88.000006974E-3,,,,,-174.20000222E-6,64.000003040E-3,
,,,-174.10000146E-6,1.2000001E3,,,,,-174.10000146E-6,88.000006974E-3,,,,,-174.10000146E-6,72.000004351E-3,
,,,-174.00000070E-6,1.2000001E3,,,,,-174.00000070E-6,88.000006974E-3,,,,,-174.00000070E-6,80.000005662E-3,
,,,-173.89999994E-6,1.4000001E3,,,,,-173.89999994E-6,88.000006974E-3,,,,,-173.89999994E-6,80.000005662E-3,
,,,-173.79999917E-6,1.4000001E3,,,,,-173.79999917E-6,84.000006318E-3,,,,,-173.79999917E-6,64.000003040E-3,
,,,-173.69999841E-6,1.4000001E3,,,,,-173.69999841E-6,88.000006974E-3,,,,,-173.69999841E-6,72.000004351E-3,
,,,-173.59999765E-6,1.6000001E3,,,,,-173.59999765E-6,88.000006974E-3,,,,,-173.59999765E-6,72.000004351E-3,
,,,-173.49999689E-6,1.6000001E3,,,,,-173.49999689E-6,88.000006974E-3,,,,,-173.49999689E-6,56.000001729E-3,
,,,-173.39999613E-6,1.4000001E3,,,,,-173.39999613E-6,84.000006318E-3,,,,,-173.39999613E-6,80.000005662E-3,
,,,-173.30000992E-6,1.8000001E3,,,,,-173.30000992E-6,96.000000834E-3,,,,,-173.30000992E-6,72.000004351E-3,
,,,-173.20000916E-6,1.4000001E3,,,,,-173.20000916E-6,84.000006318E-3,,,,,-173.20000916E-6,80.000005662E-3,
,,,-173.10000840E-6,1.4000001E3,,,,,-173.10000840E-6,88.000006974E-3,,,,,-173.10000840E-6,80.000005662E-3,
,,,-173.00000763E-6,1.4000001E3,,,,,-173.00000763E-6,92.000007629E-3,,,,,-173.00000763E-6,56.000001729E-3,
,,,-172.90000687E-6,1.6000001E3,,,,,-172.90000687E-6,92.000007629E-3,,,,,-172.90000687E-6,72.000004351E-3,
,,,-172.80000611E-6,1.6000001E3,,,,,-172.80000611E-6,88.000006974E-3,,,,,-172.80000611E-6,64.000003040E-3,
,,,-172.70000535E-6,1.4000001E3,,,,,-172.70000535E-6,92.000007629E-3,,,,,-172.70000535E-6,80.000005662E-3,
,,,-172.60000459E-6,1.8000001E3,,,,,-172.60000459E-6,92.000007629E-3,,,,,-172.60000459E-6,72.000004351E-3,
,,,-172.50000383E-6,1.6000001E3,,,,,-172.50000383E-6,88.000006974E-3,,,,,-172.50000383E-6,72.000004351E-3,
,,,-172.40000307E-6,1.4000001E3,,,,,-172.40000307E-6,84.000006318E-3,,,,,-172.40000307E-6,128.0000061E-3,
,,,-172.30000230E-6,2.0000001E3,,,,,-172.30000230E-6,92.000007629E-3,,,,,-172.30000230E-6,128.0000061E-3,
,,,-172.20000154E-6,1.8000001E3,,,,,-172.20000154E-6,92.000007629E-3,,,,,-172.20000154E-6,80.000005662E-3,
,,,-172.10000078E-6,2.0000001E3,,,,,-172.10000078E-6,88.000006974E-3,,,,,-172.10000078E-6,80.000005662E-3,
,,,-172.00000002E-6,1.6000001E3,,,,,-172.00000002E-6,92.000007629E-3,,,,,-172.00000002E-6,64.000003040E-3,
,,,-171.89999926E-6,2.0000001E3,,,,,-171.89999926E-6,92.000007629E-3,,,,,-171.89999926E-6,72.000004351E-3,
,,,-171.79999850E-6,2.0000001E3,,,,,-171.79999850E-6,92.000007629E-3,,,,,-171.79999850E-6,64.000003040E-3,
,,,-171.69999774E-6,1.8000001E3,,,,,-171.69999774E-6,84.000006318E-3,,,,,-171.69999774E-6,80.000005662E-3,
,,,-171.59999697E-6,1.6000001E3,,,,,-171.59999697E-6,88.000006974E-3,,,,,-171.59999697E-6,72.000004351E-3,
,,,-171.49999621E-6,2.0000001E3,,,,,-171.49999621E-6,84.000006318E-3,,,,,-171.49999621E-6,72.000004351E-3,
,,,-171.39999545E-6,1.8000001E3,,,,,-171.39999545E-6,88.000006974E-3,,,,,-171.39999545E-6,64.000003040E-3,
,,,-171.30000924E-6,2.0000001E3,,,,,-171.30000924E-6,88.000006974E-3,,,,,-171.30000924E-6,72.000004351E-3,
,,,-171.20000848E-6,2.4000001E3,,,,,-171.20000848E-6,88.000006974E-3,,,,,-171.20000848E-6,72.000004351E-3,
,,,-171.10000772E-6,2.0000001E3,,,,,-171.10000772E-6,92.000007629E-3,,,,,-171.10000772E-6,88.000006974E-3,
,,,-171.00000696E-6,2.0000001E3,,,,,-171.00000696E-6,88.000006974E-3,,,,,-171.00000696E-6,80.000005662E-3,
,,,-170.90000620E-6,2.2000001E3,,,,,-170.90000620E-6,80.000005662E-3,,,,,-170.90000620E-6,72.000004351E-3,
,,,-170.80000544E-6,2.0000001E3,,,,,-170.80000544E-6,88.000006974E-3,,,,,-170.80000544E-6,64.000003040E-3,
,,,-170.70000467E-6,2.2000001E3,,,,,-170.70000467E-6,88.000006974E-3,,,,,-170.70000467E-6,72.000004351E-3,
,,,-170.60000391E-6,2.0000001E3,,,,,-170.60000391E-6,84.000006318E-3,,,,,-170.60000391E-6,64.000003040E-3,
,,,-170.50000315E-6,2.2000001E3,,,,,-170.50000315E-6,88.000006974E-3,,,,,-170.50000315E-6,64.000003040E-3,
,,,-170.40000239E-6,2.0000001E3,,,,,-170.40000239E-6,88.000006974E-3,,,,,-170.40000239E-6,80.000005662E-3,
,,,-170.30000163E-6,2.2000001E3,,,,,-170.30000163E-6,88.000006974E-3,,,,,-170.30000163E-6,72.000004351E-3,
,,,-170.20000087E-6,2.0000001E3,,,,,-170.20000087E-6,96.000000834E-3,,,,,-170.20000087E-6,64.000003040E-3,
,,,-170.10000010E-6,2.0000001E3,,,,,-170.10000010E-6,80.000005662E-3,,,,,-170.10000010E-6,80.000005662E-3,
,,,-169.99999934E-6,2.2000001E3,,,,,-169.99999934E-6,76.000005007E-3,,,,,-169.99999934E-6,64.000003040E-3,
,,,-169.89999858E-6,2.2000001E3,,,,,-169.89999858E-6,92.000007629E-3,,,,,-169.89999858E-6,72.000004351E-3,
,,,-169.79999782E-6,2.2000001E3,,,,,-169.79999782E-6,92.000007629E-3,,,,,-169.79999782E-6,72.000004351E-3,
,,,-169.69999706E-6,2.2000001E3,,,,,-169.69999706E-6,84.000006318E-3,,,,,-169.69999706E-6,72.000004351E-3,
,,,-169.59999630E-6,2.0000001E3,,,,,-169.59999630E-6,84.000006318E-3,,,,,-169.59999630E-6,72.000004351E-3,
,,,-169.49999554E-6,2.2000001E3,,,,,-169.49999554E-6,84.000006318E-3,,,,,-169.49999554E-6,64.000003040E-3,
,,,-169.40000933E-6,2.2000001E3,,,,,-169.40000933E-6,84.000006318E-3,,,,,-169.40000933E-6,72.000004351E-3,
,,,-169.30000857E-6,2.4000001E3,,,,,-169.30000857E-6,84.000006318E-3,,,,,-169.30000857E-6,72.000004351E-3,
,,,-169.20000780E-6,2.2000001E3,,,,,-169.20000780E-6,88.000006974E-3,,,,,-169.20000780E-6,72.000004351E-3,
,,,-169.10000704E-6,2.4000001E3,,,,,-169.10000704E-6,88.000006974E-3,,,,,-169.10000704E-6,72.000004351E-3,
,,,-169.00000628E-6,2.2000001E3,,,,,-169.00000628E-6,84.000006318E-3,,,,,-169.00000628E-6,64.000003040E-3,
,,,-168.90000552E-6,2.2000001E3,,,,,-168.90000552E-6,84.000006318E-3,,,,,-168.90000552E-6,88.000006974E-3,
,,,-168.80000476E-6,2.6000001E3,,,,,-168.80000476E-6,84.000006318E-3,,,,,-168.80000476E-6,64.000003040E-3,
,,,-168.70000400E-6,2.2000001E3,,,,,-168.70000400E-6,88.000006974E-3,,,,,-168.70000400E-6,80.000005662E-3,
,,,-168.60000324E-6,2.4000001E3,,,,,-168.60000324E-6,88.000006974E-3,,,,,-168.60000324E-6,72.000004351E-3,
,,,-168.50000247E-6,2.6000001E3,,,,,-168.50000247E-6,100.0000015E-3,,,,,-168.50000247E-6,80.000005662E-3,
,,,-168.40000171E-6,2.2000001E3,,,,,-168.40000171E-6,88.000006974E-3,,,,,-168.40000171E-6,64.000003040E-3,
,,,-168.30000095E-6,2.80000013E3,,,,,-168.30000095E-6,92.000007629E-3,,,,,-168.30000095E-6,64.000003040E-3,
,,,-168.20000019E-6,2.6000001E3,,,,,-168.20000019E-6,92.000007629E-3,,,,,-168.20000019E-6,64.000003040E-3,
,,,-168.09999943E-6,2.6000001E3,,,,,-168.09999943E-6,96.000000834E-3,,,,,-168.09999943E-6,64.000003040E-3,
,,,-167.99999867E-6,2.4000001E3,,,,,-167.99999867E-6,92.000007629E-3,,,,,-167.99999867E-6,64.000003040E-3,
,,,-167.89999790E-6,2.80000013E3,,,,,-167.89999790E-6,88.000006974E-3,,,,,-167.89999790E-6,72.000004351E-3,
,,,-167.79999714E-6,2.4000001E3,,,,,-167.79999714E-6,84.000006318E-3,,,,,-167.79999714E-6,64.000003040E-3,
,,,-167.69999638E-6,2.6000001E3,,,,,-167.69999638E-6,88.000006974E-3,,,,,-167.69999638E-6,72.000004351E-3,
,,,-167.59999562E-6,2.80000013E3,,,,,-167.59999562E-6,84.000006318E-3,,,,,-167.59999562E-6,56.000001729E-3,
,,,-167.50000941E-6,2.6000001E3,,,,,-167.50000941E-6,104.0000021E-3,,,,,-167.50000941E-6,64.000003040E-3,
,,,-167.40000865E-6,2.80000013E3,,,,,-167.40000865E-6,100.0000015E-3,,,,,-167.40000865E-6,96.000000834E-3,
,,,-167.30000789E-6,2.80000013E3,,,,,-167.30000789E-6,88.000006974E-3,,,,,-167.30000789E-6,88.000006974E-3,
,,,-167.20000713E-6,3.00000014E3,,,,,-167.20000713E-6,92.000007629E-3,,,,,-167.20000713E-6,56.000001729E-3,
,,,-167.10000637E-6,2.80000013E3,,,,,-167.10000637E-6,88.000006974E-3,,,,,-167.10000637E-6,80.000005662E-3,
,,,-167.00000560E-6,2.80000013E3,,,,,-167.00000560E-6,92.000007629E-3,,,,,-167.00000560E-6,56.000001729E-3,
,,,-166.90000484E-6,3.00000014E3,,,,,-166.90000484E-6,88.000006974E-3,,,,,-166.90000484E-6,72.000004351E-3,
,,,-166.80000408E-6,2.6000001E3,,,,,-166.80000408E-6,92.000007629E-3,,,,,-166.80000408E-6,64.000003040E-3,
,,,-166.70000332E-6,2.80000013E3,,,,,-166.70000332E-6,88.000006974E-3,,,,,-166.70000332E-6,72.000004351E-3,
,,,-166.60000256E-6,2.80000013E3,,,,,-166.60000256E-6,88.000006974E-3,,,,,-166.60000256E-6,64.000003040E-3,
,,,-166.50000180E-6,2.80000013E3,,,,,-166.50000180E-6,84.000006318E-3,,,,,-166.50000180E-6,296.00000381E-3,
,,,-166.40000104E-6,2.80000013E3,,,,,-166.40000104E-6,88.000006974E-3,,,,,-166.40000104E-6,128.0000061E-3,
,,,-166.30000027E-6,3.00000014E3,,,,,-166.30000027E-6,84.000006318E-3,,,,,-166.30000027E-6,248.00001085E-3,
,,,-166.19999951E-6,2.6000001E3,,,,,-166.19999951E-6,88.000006974E-3,,,,,-166.19999951E-6,64.000003040E-3,
,,,-166.09999875E-6,2.80000013E3,,,,,-166.09999875E-6,84.000006318E-3,,,,,-166.09999875E-6,72.000004351E-3,
,,,-165.99999799E-6,2.80000013E3,,,,,-165.99999799E-6,84.000006318E-3,,,,,-165.99999799E-6,72.000004351E-3,
,,,-165.89999723E-6,3.20000015E3,,,,,-165.89999723E-6,104.0000021E-3,,,,,-165.89999723E-6,72.000004351E-3,
,,,-165.79999647E-6,2.80000013E3,,,,,-165.79999647E-6,96.000000834E-3,,,,,-165.79999647E-6,72.000004351E-3,
,,,-165.69999570E-6,3.00000014E3,,,,,-165.69999570E-6,108.0000028E-3,,,,,-165.69999570E-6,72.000004351E-3,
,,,-165.60000950E-6,3.00000014E3,,,,,-165.60000950E-6,104.0000021E-3,,,,,-165.60000950E-6,72.000004351E-3,
,,,-165.50000873E-6,3.20000015E3,,,,,-165.50000873E-6,92.000007629E-3,,,,,-165.50000873E-6,64.000003040E-3,
,,,-165.40000797E-6,2.80000013E3,,,,,-165.40000797E-6,88.000006974E-3,,,,,-165.40000797E-6,56.000001729E-3,
,,,-165.30000721E-6,3.00000014E3,,,,,-165.30000721E-6,92.000007629E-3,,,,,-165.30000721E-6,72.000004351E-3,
,,,-165.20000645E-6,3.20000015E3,,,,,-165.20000645E-6,88.000006974E-3,,,,,-165.20000645E-6,64.000003040E-3,
,,,-165.10000569E-6,3.20000015E3,,,,,-165.10000569E-6,84.000006318E-3,,,,,-165.10000569E-6,64.000003040E-3,
,,,-165.00000493E-6,3.00000014E3,,,,,-165.00000493E-6,88.000006974E-3,,,,,-165.00000493E-6,64.000003040E-3,
,,,-164.90000417E-6,3.40000016E3,,,,,-164.90000417E-6,84.000006318E-3,,,,,-164.90000417E-6,72.000004351E-3,
,,,-164.80000340E-6,3.20000015E3,,,,,-164.80000340E-6,84.000006318E-3,,,,,-164.80000340E-6,64.000003040E-3,
,,,-164.70000264E-6,3.40000016E3,,,,,-164.70000264E-6,88.000006974E-3,,,,,-164.70000264E-6,64.000003040E-3,
,,,-164.60000188E-6,3.40000016E3,,,,,-164.60000188E-6,84.000006318E-3,,,,,-164.60000188E-6,56.000001729E-3,
,,,-164.50000112E-6,3.40000016E3,,,,,-164.50000112E-6,84.000006318E-3,,,,,-164.50000112E-6,64.000003040E-3,
,,,-164.40000036E-6,3.20000015E3,,,,,-164.40000036E-6,84.000006318E-3,,,,,-164.40000036E-6,64.000003040E-3,
,,,-164.29999960E-6,3.20000015E3,,,,,-164.29999960E-6,80.000005662E-3,,,,,-164.29999960E-6,72.000004351E-3,
,,,-164.19999884E-6,3.20000015E3,,,,,-164.19999884E-6,84.000006318E-3,,,,,-164.19999884E-6,120.0000048E-3,
,,,-164.09999807E-6,3.20000015E3,,,,,-164.09999807E-6,84.000006318E-3,,,,,-164.09999807E-6,144.0000087E-3,
,,,-163.99999731E-6,3.40000016E3,,,,,-163.99999731E-6,84.000006318E-3,,,,,-163.99999731E-6,64.000003040E-3,
,,,-163.89999655E-6,3.20000015E3,,,,,-163.89999655E-6,84.000006318E-3,,,,,-163.89999655E-6,64.000003040E-3,
,,,-163.79999579E-6,3.40000016E3,,,,,-163.79999579E-6,84.000006318E-3,,,,,-163.79999579E-6,64.000003040E-3,
,,,-163.70000958E-6,3.40000016E3,,,,,-163.70000958E-6,84.000006318E-3,,,,,-163.70000958E-6,72.000004351E-3,
,,,-163.60000882E-6,3.40000016E3,,,,,-163.60000882E-6,88.000006974E-3,,,,,-163.60000882E-6,64.000003040E-3,
,,,-163.50000806E-6,3.80000018E3,,,,,-163.50000806E-6,80.000005662E-3,,,,,-163.50000806E-6,64.000003040E-3,
,,,-163.40000730E-6,3.40000016E3,,,,,-163.40000730E-6,84.000006318E-3,,,,,-163.40000730E-6,112.0000035E-3,
,,,-163.30000653E-6,3.40000016E3,,,,,-163.30000653E-6,84.000006318E-3,,,,,-163.30000653E-6,400.00000596E-3,
,,,-163.20000577E-6,3.20000015E3,,,,,-163.20000577E-6,84.000006318E-3,,,,,-163.20000577E-6,120.0000048E-3,
,,,-163.10000501E-6,3.40000016E3,,,,,-163.10000501E-6,84.000006318E-3,,,,,-163.10000501E-6,160.00001132E-3,
,,,-163.00000425E-6,3.40000016E3,,,,,-163.00000425E-6,80.000005662E-3,,,,,-163.00000425E-6,64.000003040E-3,
,,,-162.90000349E-6,3.60000017E3,,,,,-162.90000349E-6,76.000005007E-3,,,,,-162.90000349E-6,64.000003040E-3,
,,,-162.80000273E-6,3.80000018E3,,,,,-162.80000273E-6,80.000005662E-3,,,,,-162.80000273E-6,56.000001729E-3,
,,,-162.70000197E-6,3.80000018E3,,,,,-162.70000197E-6,80.000005662E-3,,,,,-162.70000197E-6,64.000003040E-3,
,,,-162.60000120E-6,3.40000016E3,,,,,-162.60000120E-6,76.000005007E-3,,,,,-162.60000120E-6,56.000001729E-3,
,,,-162.50000044E-6,3.60000017E3,,,,,-162.50000044E-6,88.000006974E-3,,,,,-162.50000044E-6,56.000001729E-3,
,,,-162.39999968E-6,3.80000018E3,,,,,-162.39999968E-6,92.000007629E-3,,,,,-162.39999968E-6,56.000001729E-3,
,,,-162.29999892E-6,3.60000017E3,,,,,-162.29999892E-6,124.0000054E-3,,,,,-162.29999892E-6,64.000003040E-3,
