20180613/matias/medicion con trafo 50 hz 3.csv

Record Length,2500,Points,-49.99999702E-3,-1.0000000E3,,Record Length,2500,Points,-49.99999702E-3,-2.0000001E-3,,Record Length,2500,Points,-49.99999702E-3,-799.999979790E-6,
Sample Interval,39.99999899E-6,s,-49.95999858E-3,-1.0000000E3,,Sample Interval,39.99999899E-6,s,-49.95999858E-3,0.0,,Sample Interval,39.99999899E-6,s,-49.95999858E-3,799.999979790E-6,
Trigger Point,1.2500000E3,Samples,-49.91999641E-3,-1.0000000E3,,Trigger Point,1.2500000E3,Samples,-49.91999641E-3,0.0,,Trigger Point,1.2500000E3,Samples,-49.91999641E-3,-799.999979790E-6,
,,,-49.87999797E-3,-1.2000001E3,,,,,-49.87999797E-3,-2.0000001E-3,,,,,-49.87999797E-3,-799.999979790E-6,
,,,-49.83999580E-3,-1.4000001E3,,,,,-49.83999580E-3,4.00000019E-3,,,,,-49.83999580E-3,-399.99998990E-6,
,,,-49.79999736E-3,-1.4000001E3,,,,,-49.79999736E-3,2.0000001E-3,,,,,-49.79999736E-3,399.99998990E-6,
Source,CH1,,-49.75999519E-3,-1.6000001E3,,Source,CH3,,-49.75999519E-3,0.0,,Source,CH4,,-49.75999519E-3,399.99998990E-6,
Vertical Units,Volts,,-49.71999675E-3,-1.6000001E3,,Vertical Units,Volts,,-49.71999675E-3,-2.0000001E-3,,Vertical Units,Volts,,-49.71999675E-3,-799.999979790E-6,
Vertical Scale,5.00000024E3,,-49.67999831E-3,-1.6000001E3,,Vertical Scale,50.00000237E-3,,-49.67999831E-3,-2.0000001E-3,,Vertical Scale,9.999999747E-3,,-49.67999831E-3,-1.1999999E-3,
Vertical Offset,0,,-49.63999614E-3,-1.6000001E3,,Vertical Offset,0,,-49.63999614E-3,-2.0000001E-3,,Vertical Offset,0,,-49.63999614E-3,-399.99998990E-6,
Horizontal Units,s,,-49.59999770E-3,-1.8000001E3,,Horizontal Units,s,,-49.59999770E-3,0.0,,Horizontal Units,s,,-49.59999770E-3,399.99998990E-6,
Horizontal Scale,9.999999747E-3,,-49.55999553E-3,-2.0000001E3,,Horizontal Scale,9.999999747E-3,,-49.55999553E-3,-2.0000001E-3,,Horizontal Scale,9.999999747E-3,,-49.55999553E-3,-399.99998990E-6,
Pt Fmt,Y,,-49.51999709E-3,-2.0000001E3,,Pt Fmt,Y,,-49.51999709E-3,0.0,,Pt Fmt,Y,,-49.51999709E-3,-799.999979790E-6,
Yzero,-120.0000000E-3,,-49.47999865E-3,-2.0000001E3,,Yzero,-3.16000000,,-49.47999865E-3,-8.000000380E-3,,Yzero,-120.0000000E-3,,-49.47999865E-3,0.0,
Probe Atten,1.0000000E3,,-49.43999648E-3,-2.0000001E3,,Probe Atten,1.000000,,-49.43999648E-3,0.0,,Probe Atten,1.000000,,-49.43999648E-3,399.99998990E-6,
,,,-49.39999804E-3,-2.2000001E3,,,,,-49.39999804E-3,-2.0000001E-3,,,,,-49.39999804E-3,-399.99998990E-6,
Note,TDS 2004B - 3:50:35 p. m.   13/6/2018,,-49.35999587E-3,-2.2000001E3,,Note,TDS 2004B - 3:50:35 p. m.   13/6/2018,,-49.35999587E-3,-8.000000380E-3,,Note,TDS 2004B - 3:50:35 p. m.   13/6/2018,,-49.35999587E-3,799.999979790E-6,
,,,-49.31999743E-3,-2.2000001E3,,,,,-49.31999743E-3,0.0,,,,,-49.31999743E-3,-399.99998990E-6,
,,,-49.27999526E-3,-2.2000001E3,,,,,-49.27999526E-3,-2.0000001E-3,,,,,-49.27999526E-3,-799.999979790E-6,
,,,-49.23999682E-3,-2.2000001E3,,,,,-49.23999682E-3,-6.00000005E-3,,,,,-49.23999682E-3,0.0,
,,,-49.19999838E-3,-2.2000001E3,,,,,-49.19999838E-3,6.00000005E-3,,,,,-49.19999838E-3,-399.99998990E-6,
,,,-49.15999621E-3,-2.4000001E3,,,,,-49.15999621E-3,6.00000005E-3,,,,,-49.15999621E-3,-399.99998990E-6,
,,,-49.11999777E-3,-2.4000001E3,,,,,-49.11999777E-3,-2.0000001E-3,,,,,-49.11999777E-3,-799.999979790E-6,
,,,-49.07999560E-3,-2.4000001E3,,,,,-49.07999560E-3,0.0,,,,,-49.07999560E-3,-399.99998990E-6,
,,,-49.03999716E-3,-2.6000001E3,,,,,-49.03999716E-3,-4.00000019E-3,,,,,-49.03999716E-3,-399.99998990E-6,
,,,-48.99999872E-3,-2.6000001E3,,,,,-48.99999872E-3,0.0,,,,,-48.99999872E-3,0.0,
,,,-48.95999655E-3,-2.6000001E3,,,,,-48.95999655E-3,0.0,,,,,-48.95999655E-3,399.99998990E-6,
,,,-48.91999811E-3,-2.80000013E3,,,,,-48.91999811E-3,-2.0000001E-3,,,,,-48.91999811E-3,-799.999979790E-6,
,,,-48.87999594E-3,-2.80000013E3,,,,,-48.87999594E-3,-4.00000019E-3,,,,,-48.87999594E-3,799.999979790E-6,
,,,-48.83999750E-3,-2.80000013E3,,,,,-48.83999750E-3,2.0000001E-3,,,,,-48.83999750E-3,-399.99998990E-6,
,,,-48.79999533E-3,-3.00000014E3,,,,,-48.79999533E-3,-4.00000019E-3,,,,,-48.79999533E-3,-799.999979790E-6,
,,,-48.75999689E-3,-3.00000014E3,,,,,-48.75999689E-3,-2.0000001E-3,,,,,-48.75999689E-3,399.99998990E-6,
,,,-48.71999845E-3,-3.00000014E3,,,,,-48.71999845E-3,0.0,,,,,-48.71999845E-3,-399.99998990E-6,
,,,-48.67999628E-3,-3.20000015E3,,,,,-48.67999628E-3,-4.00000019E-3,,,,,-48.67999628E-3,-799.999979790E-6,
,,,-48.63999784E-3,-3.20000015E3,,,,,-48.63999784E-3,-2.0000001E-3,,,,,-48.63999784E-3,-1.1999999E-3,
,,,-48.59999567E-3,-3.20000015E3,,,,,-48.59999567E-3,2.0000001E-3,,,,,-48.59999567E-3,-799.999979790E-6,
,,,-48.55999723E-3,-3.20000015E3,,,,,-48.55999723E-3,-2.0000001E-3,,,,,-48.55999723E-3,-799.999979790E-6,
,,,-48.51999879E-3,-3.40000016E3,,,,,-48.51999879E-3,-2.0000001E-3,,,,,-48.51999879E-3,-399.99998990E-6,
,,,-48.47999662E-3,-3.60000017E3,,,,,-48.47999662E-3,0.0,,,,,-48.47999662E-3,-399.99998990E-6,
,,,-48.43999818E-3,-3.60000017E3,,,,,-48.43999818E-3,2.0000001E-3,,,,,-48.43999818E-3,0.0,
,,,-48.39999601E-3,-3.80000018E3,,,,,-48.39999601E-3,-2.0000001E-3,,,,,-48.39999601E-3,-399.99998990E-6,
,,,-48.35999757E-3,-3.80000018E3,,,,,-48.35999757E-3,-2.0000001E-3,,,,,-48.35999757E-3,0.0,
,,,-48.31999540E-3,-3.80000018E3,,,,,-48.31999540E-3,0.0,,,,,-48.31999540E-3,-399.99998990E-6,
,,,-48.27999696E-3,-4.00000019E3,,,,,-48.27999696E-3,0.0,,,,,-48.27999696E-3,-399.99998990E-6,
,,,-48.23999852E-3,-4.00000019E3,,,,,-48.23999852E-3,-2.0000001E-3,,,,,-48.23999852E-3,-399.99998990E-6,
,,,-48.19999635E-3,-4.00000019E3,,,,,-48.19999635E-3,-4.00000019E-3,,,,,-48.19999635E-3,-1.6000000E-3,
,,,-48.15999791E-3,-4.20000020E3,,,,,-48.15999791E-3,0.0,,,,,-48.15999791E-3,-1.6000000E-3,
,,,-48.11999574E-3,-4.20000020E3,,,,,-48.11999574E-3,-2.0000001E-3,,,,,-48.11999574E-3,-399.99998990E-6,
,,,-48.07999730E-3,-4.40000021E3,,,,,-48.07999730E-3,-4.00000019E-3,,,,,-48.07999730E-3,-399.99998990E-6,
,,,-48.03999886E-3,-4.40000021E3,,,,,-48.03999886E-3,-4.00000019E-3,,,,,-48.03999886E-3,-399.99998990E-6,
,,,-47.99999669E-3,-4.60000022E3,,,,,-47.99999669E-3,0.0,,,,,-47.99999669E-3,-799.999979790E-6,
,,,-47.95999825E-3,-4.60000022E3,,,,,-47.95999825E-3,-2.0000001E-3,,,,,-47.95999825E-3,-399.99998990E-6,
,,,-47.91999608E-3,-4.80000023E3,,,,,-47.91999608E-3,-2.0000001E-3,,,,,-47.91999608E-3,-1.9999999E-3,
,,,-47.87999764E-3,-4.80000023E3,,,,,-47.87999764E-3,-2.0000001E-3,,,,,-47.87999764E-3,-1.9999999E-3,
,,,-47.83999547E-3,-5.00000024E3,,,,,-47.83999547E-3,-2.0000001E-3,,,,,-47.83999547E-3,-799.999979790E-6,
,,,-47.79999703E-3,-5.00000024E3,,,,,-47.79999703E-3,-2.0000001E-3,,,,,-47.79999703E-3,-399.99998990E-6,
,,,-47.75999859E-3,-5.20000025E3,,,,,-47.75999859E-3,-2.0000001E-3,,,,,-47.75999859E-3,-799.999979790E-6,
,,,-47.71999642E-3,-5.40000026E3,,,,,-47.71999642E-3,0.0,,,,,-47.71999642E-3,-399.99998990E-6,
,,,-47.67999798E-3,-5.40000026E3,,,,,-47.67999798E-3,0.0,,,,,-47.67999798E-3,-799.999979790E-6,
,,,-47.63999581E-3,-5.60000027E3,,,,,-47.63999581E-3,-2.0000001E-3,,,,,-47.63999581E-3,0.0,
,,,-47.59999737E-3,-5.60000027E3,,,,,-47.59999737E-3,0.0,,,,,-47.59999737E-3,-1.6000000E-3,
,,,-47.55999893E-3,-5.80000028E3,,,,,-47.55999893E-3,-2.0000001E-3,,,,,-47.55999893E-3,-1.1999999E-3,
,,,-47.51999676E-3,-6.00000028E3,,,,,-47.51999676E-3,0.0,,,,,-47.51999676E-3,-799.999979790E-6,
,,,-47.47999832E-3,-6.00000028E3,,,,,-47.47999832E-3,-6.00000005E-3,,,,,-47.47999832E-3,399.99998990E-6,
,,,-47.43999615E-3,-6.20000029E3,,,,,-47.43999615E-3,2.0000001E-3,,,,,-47.43999615E-3,-799.999979790E-6,
,,,-47.39999771E-3,-6.20000029E3,,,,,-47.39999771E-3,-4.00000019E-3,,,,,-47.39999771E-3,-1.6000000E-3,
,,,-47.35999554E-3,-6.40000030E3,,,,,-47.35999554E-3,-4.00000019E-3,,,,,-47.35999554E-3,-799.999979790E-6,
,,,-47.31999710E-3,-6.40000030E3,,,,,-47.31999710E-3,2.0000001E-3,,,,,-47.31999710E-3,-799.999979790E-6,
,,,-47.27999866E-3,-6.60000031E3,,,,,-47.27999866E-3,2.0000001E-3,,,,,-47.27999866E-3,-799.999979790E-6,
,,,-47.23999649E-3,-6.60000031E3,,,,,-47.23999649E-3,-2.0000001E-3,,,,,-47.23999649E-3,-799.999979790E-6,
,,,-47.19999805E-3,-6.80000032E3,,,,,-47.19999805E-3,-2.0000001E-3,,,,,-47.19999805E-3,0.0,
,,,-47.15999588E-3,-6.80000032E3,,,,,-47.15999588E-3,0.0,,,,,-47.15999588E-3,-1.1999999E-3,
,,,-47.11999744E-3,-6.80000032E3,,,,,-47.11999744E-3,-4.00000019E-3,,,,,-47.11999744E-3,-799.999979790E-6,
,,,-47.07999527E-3,-7.00000033E3,,,,,-47.07999527E-3,-2.0000001E-3,,,,,-47.07999527E-3,-799.999979790E-6,
,,,-47.03999683E-3,-7.00000033E3,,,,,-47.03999683E-3,-2.0000001E-3,,,,,-47.03999683E-3,799.999979790E-6,
,,,-46.99999839E-3,-7.20000034E3,,,,,-46.99999839E-3,0.0,,,,,-46.99999839E-3,-1.1999999E-3,
,,,-46.95999622E-3,-7.20000034E3,,,,,-46.95999622E-3,2.0000001E-3,,,,,-46.95999622E-3,0.0,
,,,-46.91999778E-3,-7.20000034E3,,,,,-46.91999778E-3,-2.0000001E-3,,,,,-46.91999778E-3,-399.99998990E-6,
,,,-46.87999561E-3,-7.20000034E3,,,,,-46.87999561E-3,0.0,,,,,-46.87999561E-3,0.0,
,,,-46.83999717E-3,-7.20000034E3,,,,,-46.83999717E-3,4.00000019E-3,,,,,-46.83999717E-3,1.1999999E-3,
,,,-46.79999873E-3,-7.20000034E3,,,,,-46.79999873E-3,2.0000001E-3,,,,,-46.79999873E-3,799.999979790E-6,
,,,-46.75999656E-3,-7.20000034E3,,,,,-46.75999656E-3,6.00000005E-3,,,,,-46.75999656E-3,-399.99998990E-6,
,,,-46.71999812E-3,-7.20000034E3,,,,,-46.71999812E-3,0.0,,,,,-46.71999812E-3,799.999979790E-6,
,,,-46.67999595E-3,-7.20000034E3,,,,,-46.67999595E-3,0.0,,,,,-46.67999595E-3,-399.99998990E-6,
,,,-46.63999751E-3,-7.20000034E3,,,,,-46.63999751E-3,-2.0000001E-3,,,,,-46.63999751E-3,-399.99998990E-6,
,,,-46.59999534E-3,-7.20000034E3,,,,,-46.59999534E-3,2.0000001E-3,,,,,-46.59999534E-3,0.0,
,,,-46.55999690E-3,-7.20000034E3,,,,,-46.55999690E-3,2.0000001E-3,,,,,-46.55999690E-3,-399.99998990E-6,
,,,-46.51999846E-3,-7.20000034E3,,,,,-46.51999846E-3,0.0,,,,,-46.51999846E-3,-399.99998990E-6,
,,,-46.47999629E-3,-7.20000034E3,,,,,-46.47999629E-3,6.00000005E-3,,,,,-46.47999629E-3,-799.999979790E-6,
,,,-46.43999785E-3,-7.00000033E3,,,,,-46.43999785E-3,2.0000001E-3,,,,,-46.43999785E-3,-399.99998990E-6,
,,,-46.39999568E-3,-7.00000033E3,,,,,-46.39999568E-3,-2.0000001E-3,,,,,-46.39999568E-3,399.99998990E-6,
,,,-46.35999724E-3,-7.20000034E3,,,,,-46.35999724E-3,6.00000005E-3,,,,,-46.35999724E-3,-399.99998990E-6,
,,,-46.31999880E-3,-7.20000034E3,,,,,-46.31999880E-3,2.0000001E-3,,,,,-46.31999880E-3,799.999979790E-6,
,,,-46.27999663E-3,-7.20000034E3,,,,,-46.27999663E-3,2.0000001E-3,,,,,-46.27999663E-3,399.99998990E-6,
,,,-46.23999819E-3,-7.00000033E3,,,,,-46.23999819E-3,2.0000001E-3,,,,,-46.23999819E-3,-399.99998990E-6,
,,,-46.19999602E-3,-7.20000034E3,,,,,-46.19999602E-3,0.0,,,,,-46.19999602E-3,-399.99998990E-6,
,,,-46.15999758E-3,-7.20000034E3,,,,,-46.15999758E-3,-4.00000019E-3,,,,,-46.15999758E-3,-399.99998990E-6,
,,,-46.11999542E-3,-7.20000034E3,,,,,-46.11999542E-3,-2.0000001E-3,,,,,-46.11999542E-3,399.99998990E-6,
,,,-46.07999697E-3,-7.20000034E3,,,,,-46.07999697E-3,2.0000001E-3,,,,,-46.07999697E-3,799.999979790E-6,
,,,-46.03999853E-3,-7.20000034E3,,,,,-46.03999853E-3,2.0000001E-3,,,,,-46.03999853E-3,-399.99998990E-6,
,,,-45.99999636E-3,-7.20000034E3,,,,,-45.99999636E-3,2.0000001E-3,,,,,-45.99999636E-3,399.99998990E-6,
,,,-45.95999792E-3,-7.20000034E3,,,,,-45.95999792E-3,2.0000001E-3,,,,,-45.95999792E-3,399.99998990E-6,
,,,-45.91999575E-3,-7.20000034E3,,,,,-45.91999575E-3,2.0000001E-3,,,,,-45.91999575E-3,-399.99998990E-6,
,,,-45.87999731E-3,-7.20000034E3,,,,,-45.87999731E-3,2.0000001E-3,,,,,-45.87999731E-3,-399.99998990E-6,
,,,-45.83999887E-3,-7.20000034E3,,,,,-45.83999887E-3,-2.0000001E-3,,,,,-45.83999887E-3,799.999979790E-6,
,,,-45.79999670E-3,-7.20000034E3,,,,,-45.79999670E-3,-2.0000001E-3,,,,,-45.79999670E-3,0.0,
,,,-45.75999826E-3,-7.400000351E3,,,,,-45.75999826E-3,2.0000001E-3,,,,,-45.75999826E-3,0.0,
,,,-45.71999609E-3,-7.400000351E3,,,,,-45.71999609E-3,2.0000001E-3,,,,,-45.71999609E-3,-399.99998990E-6,
,,,-45.67999765E-3,-7.400000351E3,,,,,-45.67999765E-3,2.0000001E-3,,,,,-45.67999765E-3,-799.999979790E-6,
,,,-45.63999549E-3,-7.20000034E3,,,,,-45.63999549E-3,-2.0000001E-3,,,,,-45.63999549E-3,399.99998990E-6,
,,,-45.59999704E-3,-7.400000351E3,,,,,-45.59999704E-3,4.00000019E-3,,,,,-45.59999704E-3,-399.99998990E-6,
,,,-45.55999860E-3,-7.400000351E3,,,,,-45.55999860E-3,0.0,,,,,-45.55999860E-3,399.99998990E-6,
,,,-45.51999643E-3,-7.400000351E3,,,,,-45.51999643E-3,6.00000005E-3,,,,,-45.51999643E-3,399.99998990E-6,
,,,-45.47999799E-3,-7.400000351E3,,,,,-45.47999799E-3,-2.0000001E-3,,,,,-45.47999799E-3,399.99998990E-6,
,,,-45.43999583E-3,-7.400000351E3,,,,,-45.43999583E-3,-2.0000001E-3,,,,,-45.43999583E-3,399.99998990E-6,
,,,-45.39999738E-3,-7.400000351E3,,,,,-45.39999738E-3,-2.0000001E-3,,,,,-45.39999738E-3,-399.99998990E-6,
,,,-45.35999894E-3,-7.400000351E3,,,,,-45.35999894E-3,2.0000001E-3,,,,,-45.35999894E-3,399.99998990E-6,
,,,-45.31999677E-3,-7.400000351E3,,,,,-45.31999677E-3,2.0000001E-3,,,,,-45.31999677E-3,399.99998990E-6,
,,,-45.27999833E-3,-7.400000351E3,,,,,-45.27999833E-3,2.0000001E-3,,,,,-45.27999833E-3,799.999979790E-6,
,,,-45.23999617E-3,-7.400000351E3,,,,,-45.23999617E-3,2.0000001E-3,,,,,-45.23999617E-3,399.99998990E-6,
,,,-45.19999772E-3,-7.400000351E3,,,,,-45.19999772E-3,-2.0000001E-3,,,,,-45.19999772E-3,-799.999979790E-6,
,,,-45.15999556E-3,-7.400000351E3,,,,,-45.15999556E-3,2.0000001E-3,,,,,-45.15999556E-3,399.99998990E-6,
,,,-45.11999711E-3,-7.600000361E3,,,,,-45.11999711E-3,2.0000001E-3,,,,,-45.11999711E-3,1.1999999E-3,
,,,-45.07999867E-3,-7.400000351E3,,,,,-45.07999867E-3,6.00000005E-3,,,,,-45.07999867E-3,799.999979790E-6,
,,,-45.03999650E-3,-7.400000351E3,,,,,-45.03999650E-3,2.0000001E-3,,,,,-45.03999650E-3,0.0,
,,,-44.99999806E-3,-7.400000351E3,,,,,-44.99999806E-3,-2.0000001E-3,,,,,-44.99999806E-3,799.999979790E-6,
,,,-44.95999590E-3,-7.400000351E3,,,,,-44.95999590E-3,2.0000001E-3,,,,,-44.95999590E-3,0.0,
,,,-44.91999745E-3,-7.400000351E3,,,,,-44.91999745E-3,6.00000005E-3,,,,,-44.91999745E-3,399.99998990E-6,
,,,-44.87999529E-3,-7.400000351E3,,,,,-44.87999529E-3,2.0000001E-3,,,,,-44.87999529E-3,0.0,
,,,-44.83999684E-3,-7.20000034E3,,,,,-44.83999684E-3,0.0,,,,,-44.83999684E-3,399.99998990E-6,
,,,-44.79999840E-3,-7.20000034E3,,,,,-44.79999840E-3,-2.0000001E-3,,,,,-44.79999840E-3,799.999979790E-6,
,,,-44.75999624E-3,-7.20000034E3,,,,,-44.75999624E-3,0.0,,,,,-44.75999624E-3,399.99998990E-6,
,,,-44.71999779E-3,-7.20000034E3,,,,,-44.71999779E-3,0.0,,,,,-44.71999779E-3,1.1999999E-3,
,,,-44.67999563E-3,-7.20000034E3,,,,,-44.67999563E-3,-6.00000005E-3,,,,,-44.67999563E-3,-399.99998990E-6,
,,,-44.63999718E-3,-7.20000034E3,,,,,-44.63999718E-3,0.0,,,,,-44.63999718E-3,799.999979790E-6,
,,,-44.59999874E-3,-7.20000034E3,,,,,-44.59999874E-3,2.0000001E-3,,,,,-44.59999874E-3,0.0,
,,,-44.55999658E-3,-7.20000034E3,,,,,-44.55999658E-3,4.00000019E-3,,,,,-44.55999658E-3,0.0,
,,,-44.51999813E-3,-7.20000034E3,,,,,-44.51999813E-3,2.0000001E-3,,,,,-44.51999813E-3,0.0,
,,,-44.47999597E-3,-7.20000034E3,,,,,-44.47999597E-3,2.0000001E-3,,,,,-44.47999597E-3,0.0,
,,,-44.43999752E-3,-7.20000034E3,,,,,-44.43999752E-3,-2.0000001E-3,,,,,-44.43999752E-3,399.99998990E-6,
,,,-44.39999536E-3,-7.00000033E3,,,,,-44.39999536E-3,0.0,,,,,-44.39999536E-3,0.0,
,,,-44.35999691E-3,-7.00000033E3,,,,,-44.35999691E-3,8.000000380E-3,,,,,-44.35999691E-3,399.99998990E-6,
,,,-44.31999847E-3,-7.00000033E3,,,,,-44.31999847E-3,2.0000001E-3,,,,,-44.31999847E-3,0.0,
,,,-44.27999631E-3,-7.00000033E3,,,,,-44.27999631E-3,-4.00000019E-3,,,,,-44.27999631E-3,1.6000000E-3,
,,,-44.23999786E-3,-7.00000033E3,,,,,-44.23999786E-3,2.0000001E-3,,,,,-44.23999786E-3,799.999979790E-6,
,,,-44.19999570E-3,-7.00000033E3,,,,,-44.19999570E-3,6.00000005E-3,,,,,-44.19999570E-3,799.999979790E-6,
,,,-44.15999725E-3,-6.80000032E3,,,,,-44.15999725E-3,2.0000001E-3,,,,,-44.15999725E-3,799.999979790E-6,
,,,-44.11999881E-3,-6.60000031E3,,,,,-44.11999881E-3,0.0,,,,,-44.11999881E-3,799.999979790E-6,
,,,-44.07999665E-3,-6.60000031E3,,,,,-44.07999665E-3,4.00000019E-3,,,,,-44.07999665E-3,799.999979790E-6,
,,,-44.03999820E-3,-6.60000031E3,,,,,-44.03999820E-3,4.00000019E-3,,,,,-44.03999820E-3,799.999979790E-6,
,,,-43.99999604E-3,-6.60000031E3,,,,,-43.99999604E-3,2.0000001E-3,,,,,-43.99999604E-3,799.999979790E-6,
,,,-43.95999759E-3,-6.40000030E3,,,,,-43.95999759E-3,6.00000005E-3,,,,,-43.95999759E-3,1.1999999E-3,
,,,-43.91999543E-3,-6.20000029E3,,,,,-43.91999543E-3,-2.0000001E-3,,,,,-43.91999543E-3,1.6000000E-3,
,,,-43.87999699E-3,-6.00000028E3,,,,,-43.87999699E-3,6.00000005E-3,,,,,-43.87999699E-3,1.6000000E-3,
,,,-43.83999854E-3,-5.80000028E3,,,,,-43.83999854E-3,8.000000380E-3,,,,,-43.83999854E-3,1.9999999E-3,
,,,-43.79999638E-3,-5.80000028E3,,,,,-43.79999638E-3,2.0000001E-3,,,,,-43.79999638E-3,1.1999999E-3,
,,,-43.75999793E-3,-5.60000027E3,,,,,-43.75999793E-3,8.000000380E-3,,,,,-43.75999793E-3,399.99998990E-6,
,,,-43.71999577E-3,-5.40000026E3,,,,,-43.71999577E-3,4.00000019E-3,,,,,-43.71999577E-3,1.6000000E-3,
,,,-43.67999732E-3,-5.20000025E3,,,,,-43.67999732E-3,6.00000005E-3,,,,,-43.67999732E-3,1.9999999E-3,
,,,-43.63999888E-3,-5.00000024E3,,,,,-43.63999888E-3,2.0000001E-3,,,,,-43.63999888E-3,1.1999999E-3,
,,,-43.59999672E-3,-5.00000024E3,,,,,-43.59999672E-3,-2.0000001E-3,,,,,-43.59999672E-3,1.1999999E-3,
,,,-43.55999827E-3,-4.60000022E3,,,,,-43.55999827E-3,8.000000380E-3,,,,,-43.55999827E-3,799.999979790E-6,
,,,-43.51999611E-3,-4.60000022E3,,,,,-43.51999611E-3,8.000000380E-3,,,,,-43.51999611E-3,2.3999999E-3,
,,,-43.47999766E-3,-4.40000021E3,,,,,-43.47999766E-3,4.00000019E-3,,,,,-43.47999766E-3,1.6000000E-3,
,,,-43.43999550E-3,-4.20000020E3,,,,,-43.43999550E-3,4.00000019E-3,,,,,-43.43999550E-3,1.9999999E-3,
,,,-43.39999706E-3,-4.00000019E3,,,,,-43.39999706E-3,4.00000019E-3,,,,,-43.39999706E-3,799.999979790E-6,
,,,-43.35999861E-3,-3.80000018E3,,,,,-43.35999861E-3,4.00000019E-3,,,,,-43.35999861E-3,1.1999999E-3,
,,,-43.31999645E-3,-3.80000018E3,,,,,-43.31999645E-3,6.00000005E-3,,,,,-43.31999645E-3,1.9999999E-3,
,,,-43.27999800E-3,-3.80000018E3,,,,,-43.27999800E-3,6.00000005E-3,,,,,-43.27999800E-3,399.99998990E-6,
,,,-43.23999584E-3,-3.60000017E3,,,,,-43.23999584E-3,0.0,,,,,-43.23999584E-3,799.999979790E-6,
,,,-43.19999740E-3,-3.40000016E3,,,,,-43.19999740E-3,2.0000001E-3,,,,,-43.19999740E-3,799.999979790E-6,
,,,-43.15999895E-3,-3.40000016E3,,,,,-43.15999895E-3,2.0000001E-3,,,,,-43.15999895E-3,0.0,
,,,-43.11999679E-3,-3.20000015E3,,,,,-43.11999679E-3,2.0000001E-3,,,,,-43.11999679E-3,799.999979790E-6,
,,,-43.07999834E-3,-3.20000015E3,,,,,-43.07999834E-3,2.0000001E-3,,,,,-43.07999834E-3,799.999979790E-6,
,,,-43.03999618E-3,-3.20000015E3,,,,,-43.03999618E-3,2.0000001E-3,,,,,-43.03999618E-3,0.0,
,,,-42.99999774E-3,-3.20000015E3,,,,,-42.99999774E-3,4.00000019E-3,,,,,-42.99999774E-3,399.99998990E-6,
,,,-42.95999557E-3,-3.20000015E3,,,,,-42.95999557E-3,4.00000019E-3,,,,,-42.95999557E-3,799.999979790E-6,
,,,-42.91999713E-3,-3.20000015E3,,,,,-42.91999713E-3,2.0000001E-3,,,,,-42.91999713E-3,-399.99998990E-6,
,,,-42.87999868E-3,-3.20000015E3,,,,,-42.87999868E-3,-2.0000001E-3,,,,,-42.87999868E-3,399.99998990E-6,
,,,-42.83999652E-3,-3.20000015E3,,,,,-42.83999652E-3,2.0000001E-3,,,,,-42.83999652E-3,399.99998990E-6,
,,,-42.79999807E-3,-3.20000015E3,,,,,-42.79999807E-3,-2.0000001E-3,,,,,-42.79999807E-3,399.99998990E-6,
,,,-42.75999591E-3,-3.20000015E3,,,,,-42.75999591E-3,-2.0000001E-3,,,,,-42.75999591E-3,-399.99998990E-6,
,,,-42.71999747E-3,-3.20000015E3,,,,,-42.71999747E-3,2.0000001E-3,,,,,-42.71999747E-3,399.99998990E-6,
,,,-42.67999902E-3,-3.20000015E3,,,,,-42.67999902E-3,2.0000001E-3,,,,,-42.67999902E-3,0.0,
,,,-42.63999686E-3,-3.20000015E3,,,,,-42.63999686E-3,2.0000001E-3,,,,,-42.63999686E-3,0.0,
,,,-42.59999841E-3,-3.20000015E3,,,,,-42.59999841E-3,0.0,,,,,-42.59999841E-3,399.99998990E-6,
,,,-42.55999625E-3,-3.00000014E3,,,,,-42.55999625E-3,4.00000019E-3,,,,,-42.55999625E-3,2.79999990E-3,
,,,-42.51999781E-3,-3.00000014E3,,,,,-42.51999781E-3,0.0,,,,,-42.51999781E-3,799.999979790E-6,
,,,-42.47999564E-3,-3.00000014E3,,,,,-42.47999564E-3,2.0000001E-3,,,,,-42.47999564E-3,799.999979790E-6,
,,,-42.43999720E-3,-2.80000013E3,,,,,-42.43999720E-3,4.00000019E-3,,,,,-42.43999720E-3,1.1999999E-3,
