20180824/Trafo 6.csv

Record Length,2500,Points,1.4000001E-3,2.80000013E3,,Record Length,2500,Points,1.4000001E-3,0.0,,Record Length,2500,Points,1.4000001E-3,0.0,
Sample Interval,9.999999747E-6,s,1.4100000E-3,3.00000014E3,,Sample Interval,9.999999747E-6,s,1.4100000E-3,0.0,,Sample Interval,9.999999747E-6,s,1.4100000E-3,8.000000380E-3,
Trigger Point,-140.0000102,Samples,1.4200001E-3,2.80000013E3,,Trigger Point,-140.0000102,Samples,1.4200001E-3,0.0,,Trigger Point,-140.0000102,Samples,1.4200001E-3,0.0,
,,,1.4300001E-3,2.80000013E3,,,,,1.4300001E-3,4.00000019E-3,,,,,1.4300001E-3,8.000000380E-3,
,,,1.4400000E-3,2.80000013E3,,,,,1.4400000E-3,0.0,,,,,1.4400000E-3,0.0,
,,,1.4500001E-3,3.00000014E3,,,,,1.4500001E-3,0.0,,,,,1.4500001E-3,8.000000380E-3,
Source,CH1,,1.4600001E-3,3.00000014E3,,Source,CH3,,1.4600001E-3,0.0,,Source,CH4,,1.4600001E-3,0.0,
Vertical Units,Volts,,1.4700000E-3,3.00000014E3,,Vertical Units,Volts,,1.4700000E-3,0.0,,Vertical Units,Volts,,1.4700000E-3,8.000000380E-3,
Vertical Scale,5.00000024E3,,1.4800001E-3,3.00000014E3,,Vertical Scale,100.0000047E-3,,1.4800001E-3,0.0,,Vertical Scale,200.00000950E-3,,1.4800001E-3,0.0,
Vertical Offset,0,,1.4900001E-3,3.00000014E3,,Vertical Offset,0,,1.4900001E-3,0.0,,Vertical Offset,0,,1.4900001E-3,0.0,
Horizontal Units,s,,1.5000000E-3,3.00000014E3,,Horizontal Units,s,,1.5000000E-3,0.0,,Horizontal Units,s,,1.5000000E-3,0.0,
Horizontal Scale,2.4999999E-3,,1.5100001E-3,3.00000014E3,,Horizontal Scale,2.4999999E-3,,1.5100001E-3,4.00000019E-3,,Horizontal Scale,2.4999999E-3,,1.5100001E-3,0.0,
Pt Fmt,Y,,1.5200000E-3,3.00000014E3,,Pt Fmt,Y,,1.5200000E-3,0.0,,Pt Fmt,Y,,1.5200000E-3,0.0,
Yzero,40.00000000E-3,,1.5300000E-3,3.20000015E3,,Yzero,-2.0000000,,1.5300000E-3,0.0,,Yzero,0.0,,1.5300000E-3,0.0,
Probe Atten,1.0000000E3,,1.5400001E-3,3.00000014E3,,Probe Atten,1.000000,,1.5400001E-3,-4.00000019E-3,,Probe Atten,1.000000,,1.5400001E-3,0.0,
,,,1.5500000E-3,3.20000015E3,,,,,1.5500000E-3,0.0,,,,,1.5500000E-3,8.000000380E-3,
Note,TDS 2004B - 2:45:04 p. m.   24/8/2018,,1.5600000E-3,3.20000015E3,,Note,TDS 2004B - 2:45:04 p. m.   24/8/2018,,1.5600000E-3,0.0,,Note,TDS 2004B - 2:45:04 p. m.   24/8/2018,,1.5600000E-3,0.0,
,,,1.5700001E-3,3.20000015E3,,,,,1.5700001E-3,0.0,,,,,1.5700001E-3,8.000000380E-3,
,,,1.5800000E-3,3.20000015E3,,,,,1.5800000E-3,0.0,,,,,1.5800000E-3,0.0,
,,,1.5900001E-3,3.20000015E3,,,,,1.5900001E-3,0.0,,,,,1.5900001E-3,8.000000380E-3,
,,,1.6000001E-3,3.20000015E3,,,,,1.6000001E-3,0.0,,,,,1.6000001E-3,0.0,
,,,1.6100000E-3,3.20000015E3,,,,,1.6100000E-3,4.00000019E-3,,,,,1.6100000E-3,8.000000380E-3,
,,,1.6200001E-3,3.20000015E3,,,,,1.6200001E-3,0.0,,,,,1.6200001E-3,0.0,
,,,1.6300001E-3,3.40000016E3,,,,,1.6300001E-3,0.0,,,,,1.6300001E-3,0.0,
,,,1.6400000E-3,3.20000015E3,,,,,1.6400000E-3,0.0,,,,,1.6400000E-3,0.0,
,,,1.6500001E-3,3.40000016E3,,,,,1.6500001E-3,0.0,,,,,1.6500001E-3,8.000000380E-3,
,,,1.6600001E-3,3.40000016E3,,,,,1.6600001E-3,0.0,,,,,1.6600001E-3,0.0,
,,,1.6700000E-3,3.40000016E3,,,,,1.6700000E-3,0.0,,,,,1.6700000E-3,8.000000380E-3,
,,,1.6800001E-3,3.40000016E3,,,,,1.6800001E-3,-4.00000019E-3,,,,,1.6800001E-3,0.0,
,,,1.6900001E-3,3.40000016E3,,,,,1.6900001E-3,0.0,,,,,1.6900001E-3,8.000000380E-3,
,,,1.7000000E-3,3.40000016E3,,,,,1.7000000E-3,0.0,,,,,1.7000000E-3,0.0,
,,,1.7100001E-3,3.40000016E3,,,,,1.7100001E-3,0.0,,,,,1.7100001E-3,0.0,
,,,1.7200001E-3,3.40000016E3,,,,,1.7200001E-3,0.0,,,,,1.7200001E-3,0.0,
,,,1.7300000E-3,3.60000017E3,,,,,1.7300000E-3,0.0,,,,,1.7300000E-3,0.0,
,,,1.7400001E-3,3.40000016E3,,,,,1.7400001E-3,0.0,,,,,1.7400001E-3,0.0,
,,,1.7500001E-3,3.60000017E3,,,,,1.7500001E-3,0.0,,,,,1.7500001E-3,0.0,
,,,1.7600000E-3,3.60000017E3,,,,,1.7600000E-3,0.0,,,,,1.7600000E-3,0.0,
,,,1.7700001E-3,3.60000017E3,,,,,1.7700001E-3,4.00000019E-3,,,,,1.7700001E-3,8.000000380E-3,
,,,1.7800000E-3,3.60000017E3,,,,,1.7800000E-3,0.0,,,,,1.7800000E-3,0.0,
,,,1.7900000E-3,3.60000017E3,,,,,1.7900000E-3,4.00000019E-3,,,,,1.7900000E-3,8.000000380E-3,
,,,1.8000001E-3,3.60000017E3,,,,,1.8000001E-3,0.0,,,,,1.8000001E-3,0.0,
,,,1.8100000E-3,3.60000017E3,,,,,1.8100000E-3,4.00000019E-3,,,,,1.8100000E-3,0.0,
,,,1.8200000E-3,3.60000017E3,,,,,1.8200000E-3,0.0,,,,,1.8200000E-3,0.0,
,,,1.8300001E-3,3.60000017E3,,,,,1.8300001E-3,0.0,,,,,1.8300001E-3,8.000000380E-3,
,,,1.8400000E-3,3.60000017E3,,,,,1.8400000E-3,0.0,,,,,1.8400000E-3,0.0,
,,,1.8500000E-3,3.80000018E3,,,,,1.8500000E-3,0.0,,,,,1.8500000E-3,8.000000380E-3,
,,,1.8600001E-3,3.80000018E3,,,,,1.8600001E-3,0.0,,,,,1.8600001E-3,0.0,
,,,1.8700000E-3,3.80000018E3,,,,,1.8700000E-3,0.0,,,,,1.8700000E-3,48.00000042E-3,
,,,1.8800001E-3,3.80000018E3,,,,,1.8800001E-3,0.0,,,,,1.8800001E-3,0.0,
,,,1.8900001E-3,4.00000019E3,,,,,1.8900001E-3,0.0,,,,,1.8900001E-3,0.0,
,,,1.9000000E-3,3.80000018E3,,,,,1.9000000E-3,0.0,,,,,1.9000000E-3,0.0,
,,,1.9100001E-3,3.80000018E3,,,,,1.9100001E-3,4.00000019E-3,,,,,1.9100001E-3,0.0,
,,,1.9200001E-3,3.80000018E3,,,,,1.9200001E-3,0.0,,,,,1.9200001E-3,0.0,
,,,1.9300000E-3,4.00000019E3,,,,,1.9300000E-3,0.0,,,,,1.9300000E-3,0.0,
,,,1.9400001E-3,4.00000019E3,,,,,1.9400001E-3,0.0,,,,,1.9400001E-3,0.0,
,,,1.9500001E-3,4.20000020E3,,,,,1.9500001E-3,4.00000019E-3,,,,,1.9500001E-3,8.000000380E-3,
,,,1.9600000E-3,4.00000019E3,,,,,1.9600000E-3,0.0,,,,,1.9600000E-3,0.0,
,,,1.9700001E-3,4.00000019E3,,,,,1.9700001E-3,4.00000019E-3,,,,,1.9700001E-3,8.000000380E-3,
,,,1.9799999E-3,4.00000019E3,,,,,1.9799999E-3,0.0,,,,,1.9799999E-3,0.0,
,,,1.9900000E-3,4.20000020E3,,,,,1.9900000E-3,0.0,,,,,1.9900000E-3,24.00000021E-3,
,,,2.0000001E-3,4.00000019E3,,,,,2.0000001E-3,0.0,,,,,2.0000001E-3,0.0,
,,,2.0099999E-3,4.20000020E3,,,,,2.0099999E-3,0.0,,,,,2.0099999E-3,8.000000380E-3,
,,,2.0200000E-3,4.00000019E3,,,,,2.0200000E-3,0.0,,,,,2.0200000E-3,0.0,
,,,2.0300001E-3,4.20000020E3,,,,,2.0300001E-3,0.0,,,,,2.0300001E-3,0.0,
,,,2.0400002E-3,4.20000020E3,,,,,2.0400002E-3,0.0,,,,,2.0400002E-3,0.0,
,,,2.0500000E-3,4.20000020E3,,,,,2.0500000E-3,0.0,,,,,2.0500000E-3,8.000000380E-3,
,,,2.0600001E-3,4.20000020E3,,,,,2.0600001E-3,0.0,,,,,2.0600001E-3,0.0,
,,,2.0700002E-3,4.40000021E3,,,,,2.0700002E-3,0.0,,,,,2.0700002E-3,8.000000380E-3,
,,,2.0800000E-3,4.20000020E3,,,,,2.0800000E-3,0.0,,,,,2.0800000E-3,0.0,
,,,2.0900001E-3,4.40000021E3,,,,,2.0900001E-3,28.00000086E-3,,,,,2.0900001E-3,0.0,
,,,2.1000002E-3,4.20000020E3,,,,,2.1000002E-3,0.0,,,,,2.1000002E-3,0.0,
,,,2.1100000E-3,4.40000021E3,,,,,2.1100000E-3,56.000001729E-3,,,,,2.1100000E-3,0.0,
,,,2.1200001E-3,4.20000020E3,,,,,2.1200001E-3,0.0,,,,,2.1200001E-3,0.0,
,,,2.1300002E-3,4.60000022E3,,,,,2.1300002E-3,16.0000008E-3,,,,,2.1300002E-3,40.00000283E-3,
,,,2.1400000E-3,4.40000021E3,,,,,2.1400000E-3,0.0,,,,,2.1400000E-3,0.0,
,,,2.1500001E-3,4.40000021E3,,,,,2.1500001E-3,0.0,,,,,2.1500001E-3,0.0,
,,,2.1600001E-3,4.40000021E3,,,,,2.1600001E-3,0.0,,,,,2.1600001E-3,-8.000000380E-3,
,,,2.1700000E-3,4.60000022E3,,,,,2.1700000E-3,0.0,,,,,2.1700000E-3,0.0,
,,,2.1800001E-3,4.40000021E3,,,,,2.1800001E-3,0.0,,,,,2.1800001E-3,0.0,
,,,2.1900001E-3,4.60000022E3,,,,,2.1900001E-3,0.0,,,,,2.1900001E-3,8.000000380E-3,
,,,2.2000000E-3,4.60000022E3,,,,,2.2000000E-3,0.0,,,,,2.2000000E-3,0.0,
,,,2.2100001E-3,4.60000022E3,,,,,2.2100001E-3,0.0,,,,,2.2100001E-3,8.000000380E-3,
,,,2.2200001E-3,4.60000022E3,,,,,2.2200001E-3,0.0,,,,,2.2200001E-3,0.0,
,,,2.2300000E-3,4.60000022E3,,,,,2.2300000E-3,0.0,,,,,2.2300000E-3,8.000000380E-3,
,,,2.2400001E-3,4.60000022E3,,,,,2.2400001E-3,0.0,,,,,2.2400001E-3,0.0,
,,,2.2500001E-3,4.80000023E3,,,,,2.2500001E-3,0.0,,,,,2.2500001E-3,8.000000380E-3,
,,,2.2600000E-3,4.60000022E3,,,,,2.2600000E-3,0.0,,,,,2.2600000E-3,0.0,
,,,2.2700001E-3,4.80000023E3,,,,,2.2700001E-3,12.0000001E-3,,,,,2.2700001E-3,8.000000380E-3,
,,,2.2800001E-3,4.80000023E3,,,,,2.2800001E-3,0.0,,,,,2.2800001E-3,0.0,
,,,2.2900000E-3,4.80000023E3,,,,,2.2900000E-3,0.0,,,,,2.2900000E-3,0.0,
,,,2.3000001E-3,4.80000023E3,,,,,2.3000001E-3,0.0,,,,,2.3000001E-3,0.0,
,,,2.3100001E-3,4.80000023E3,,,,,2.3100001E-3,8.000000380E-3,,,,,2.3100001E-3,0.0,
,,,2.3200000E-3,4.80000023E3,,,,,2.3200000E-3,0.0,,,,,2.3200000E-3,0.0,
,,,2.3300000E-3,4.80000023E3,,,,,2.3300000E-3,0.0,,,,,2.3300000E-3,0.0,
,,,2.3400001E-3,4.80000023E3,,,,,2.3400001E-3,0.0,,,,,2.3400001E-3,0.0,
,,,2.3500000E-3,5.00000024E3,,,,,2.3500000E-3,0.0,,,,,2.3500000E-3,112.0000035E-3,
,,,2.3600000E-3,5.00000024E3,,,,,2.3600000E-3,0.0,,,,,2.3600000E-3,0.0,
,,,2.3700001E-3,5.00000024E3,,,,,2.3700001E-3,8.000000380E-3,,,,,2.3700001E-3,8.000000380E-3,
,,,2.3800000E-3,5.00000024E3,,,,,2.3800000E-3,0.0,,,,,2.3800000E-3,0.0,
,,,2.3900000E-3,5.00000024E3,,,,,2.3900000E-3,0.0,,,,,2.3900000E-3,8.000000380E-3,
,,,2.4000001E-3,5.00000024E3,,,,,2.4000001E-3,0.0,,,,,2.4000001E-3,0.0,
,,,2.4100000E-3,5.20000025E3,,,,,2.4100000E-3,0.0,,,,,2.4100000E-3,8.000000380E-3,
,,,2.4200000E-3,5.00000024E3,,,,,2.4200000E-3,0.0,,,,,2.4200000E-3,0.0,
,,,2.4300001E-3,5.20000025E3,,,,,2.4300001E-3,12.0000001E-3,,,,,2.4300001E-3,8.000000380E-3,
,,,2.4400000E-3,5.20000025E3,,,,,2.4400000E-3,0.0,,,,,2.4400000E-3,0.0,
,,,2.4500000E-3,5.20000025E3,,,,,2.4500000E-3,0.0,,,,,2.4500000E-3,8.000000380E-3,
,,,2.4600001E-3,5.20000025E3,,,,,2.4600001E-3,0.0,,,,,2.4600001E-3,0.0,
,,,2.4699999E-3,5.40000026E3,,,,,2.4699999E-3,0.0,,,,,2.4699999E-3,8.000000380E-3,
,,,2.4800000E-3,5.20000025E3,,,,,2.4800000E-3,-4.00000019E-3,,,,,2.4800000E-3,0.0,
,,,2.4900001E-3,5.40000026E3,,,,,2.4900001E-3,52.00000107E-3,,,,,2.4900001E-3,8.000000380E-3,
,,,2.4999999E-3,5.20000025E3,,,,,2.4999999E-3,0.0,,,,,2.4999999E-3,0.0,
,,,2.5100000E-3,5.40000026E3,,,,,2.5100000E-3,0.0,,,,,2.5100000E-3,96.000000834E-3,
,,,2.5200001E-3,5.40000026E3,,,,,2.5200001E-3,0.0,,,,,2.5200001E-3,0.0,
,,,2.5299999E-3,5.60000027E3,,,,,2.5299999E-3,16.0000008E-3,,,,,2.5299999E-3,88.000006974E-3,
,,,2.5400000E-3,5.40000026E3,,,,,2.5400000E-3,0.0,,,,,2.5400000E-3,0.0,
,,,2.5500001E-3,5.60000027E3,,,,,2.5500001E-3,4.00000019E-3,,,,,2.5500001E-3,80.000005662E-3,
,,,2.5599999E-3,5.40000026E3,,,,,2.5599999E-3,0.0,,,,,2.5599999E-3,0.0,
,,,2.5700000E-3,5.60000027E3,,,,,2.5700000E-3,0.0,,,,,2.5700000E-3,80.000005662E-3,
,,,2.5800001E-3,5.60000027E3,,,,,2.5800001E-3,0.0,,,,,2.5800001E-3,0.0,
,,,2.5899999E-3,5.60000027E3,,,,,2.5899999E-3,28.00000086E-3,,,,,2.5899999E-3,0.0,
,,,2.6000000E-3,5.60000027E3,,,,,2.6000000E-3,4.00000019E-3,,,,,2.6000000E-3,0.0,
,,,2.6100001E-3,5.80000028E3,,,,,2.6100001E-3,20.0000014E-3,,,,,2.6100001E-3,8.000000380E-3,
,,,2.6199999E-3,5.60000027E3,,,,,2.6199999E-3,0.0,,,,,2.6199999E-3,0.0,
,,,2.6300000E-3,5.60000027E3,,,,,2.6300000E-3,4.00000019E-3,,,,,2.6300000E-3,0.0,
,,,2.6400001E-3,5.60000027E3,,,,,2.6400001E-3,0.0,,,,,2.6400001E-3,0.0,
,,,2.6499999E-3,5.80000028E3,,,,,2.6499999E-3,4.00000019E-3,,,,,2.6499999E-3,8.000000380E-3,
,,,2.6600000E-3,5.80000028E3,,,,,2.6600000E-3,0.0,,,,,2.6600000E-3,0.0,
,,,2.6700001E-3,5.80000028E3,,,,,2.6700001E-3,104.0000021E-3,,,,,2.6700001E-3,0.0,
,,,2.6799999E-3,5.80000028E3,,,,,2.6799999E-3,4.00000019E-3,,,,,2.6799999E-3,0.0,
,,,2.6900000E-3,5.80000028E3,,,,,2.6900000E-3,100.0000015E-3,,,,,2.6900000E-3,0.0,
,,,2.7000001E-3,5.80000028E3,,,,,2.7000001E-3,0.0,,,,,2.7000001E-3,0.0,
,,,2.7100001E-3,6.00000028E3,,,,,2.7100001E-3,16.0000008E-3,,,,,2.7100001E-3,0.0,
,,,2.71999999E-3,6.00000028E3,,,,,2.71999999E-3,0.0,,,,,2.71999999E-3,0.0,
,,,2.73000007E-3,6.00000028E3,,,,,2.73000007E-3,4.00000019E-3,,,,,2.73000007E-3,8.000000380E-3,
,,,2.74000014E-3,6.00000028E3,,,,,2.74000014E-3,4.00000019E-3,,,,,2.74000014E-3,0.0,
,,,2.74999999E-3,6.00000028E3,,,,,2.74999999E-3,108.0000028E-3,,,,,2.74999999E-3,112.0000035E-3,
,,,2.76000006E-3,5.80000028E3,,,,,2.76000006E-3,0.0,,,,,2.76000006E-3,0.0,
,,,2.77000014E-3,6.00000028E3,,,,,2.77000014E-3,0.0,,,,,2.77000014E-3,8.000000380E-3,
,,,2.77999998E-3,6.00000028E3,,,,,2.77999998E-3,0.0,,,,,2.77999998E-3,8.000000380E-3,
,,,2.79000006E-3,6.20000029E3,,,,,2.79000006E-3,0.0,,,,,2.79000006E-3,8.000000380E-3,
,,,2.80000013E-3,6.00000028E3,,,,,2.80000013E-3,0.0,,,,,2.80000013E-3,0.0,
,,,2.80999998E-3,6.20000029E3,,,,,2.80999998E-3,76.000005007E-3,,,,,2.80999998E-3,8.000000380E-3,
,,,2.82000005E-3,6.20000029E3,,,,,2.82000005E-3,0.0,,,,,2.82000005E-3,0.0,
,,,2.83000013E-3,6.20000029E3,,,,,2.83000013E-3,12.0000001E-3,,,,,2.83000013E-3,0.0,
,,,2.83999997E-3,6.20000029E3,,,,,2.83999997E-3,0.0,,,,,2.83999997E-3,0.0,
,,,2.85000005E-3,6.20000029E3,,,,,2.85000005E-3,100.0000015E-3,,,,,2.85000005E-3,8.000000380E-3,
,,,2.86000012E-3,6.20000029E3,,,,,2.86000012E-3,0.0,,,,,2.86000012E-3,0.0,
,,,2.86999997E-3,6.40000030E3,,,,,2.86999997E-3,4.00000019E-3,,,,,2.86999997E-3,72.000004351E-3,
,,,2.88000004E-3,6.20000029E3,,,,,2.88000004E-3,0.0,,,,,2.88000004E-3,0.0,
,,,2.89000012E-3,6.40000030E3,,,,,2.89000012E-3,72.000004351E-3,,,,,2.89000012E-3,48.00000042E-3,
,,,2.89999996E-3,6.20000029E3,,,,,2.89999996E-3,0.0,,,,,2.89999996E-3,0.0,
,,,2.91000004E-3,6.40000030E3,,,,,2.91000004E-3,108.0000028E-3,,,,,2.91000004E-3,8.000000380E-3,
,,,2.92000012E-3,6.20000029E3,,,,,2.92000012E-3,0.0,,,,,2.92000012E-3,0.0,
,,,2.92999996E-3,6.40000030E3,,,,,2.92999996E-3,100.0000015E-3,,,,,2.92999996E-3,104.0000021E-3,
,,,2.94000003E-3,6.20000029E3,,,,,2.94000003E-3,0.0,,,,,2.94000003E-3,0.0,
,,,2.95000011E-3,6.40000030E3,,,,,2.95000011E-3,0.0,,,,,2.95000011E-3,0.0,
,,,2.95999995E-3,6.40000030E3,,,,,2.95999995E-3,0.0,,,,,2.95999995E-3,0.0,
,,,2.97000003E-3,6.40000030E3,,,,,2.97000003E-3,0.0,,,,,2.97000003E-3,112.0000035E-3,
,,,2.98000011E-3,6.40000030E3,,,,,2.98000011E-3,-4.00000019E-3,,,,,2.98000011E-3,0.0,
,,,2.98999995E-3,6.60000031E3,,,,,2.98999995E-3,160.00001132E-3,,,,,2.98999995E-3,16.0000008E-3,
,,,3.00000003E-3,6.40000030E3,,,,,3.00000003E-3,0.0,,,,,3.00000003E-3,0.0,
,,,3.01000010E-3,6.60000031E3,,,,,3.01000010E-3,0.0,,,,,3.01000010E-3,128.0000061E-3,
,,,3.01999995E-3,6.40000030E3,,,,,3.01999995E-3,0.0,,,,,3.01999995E-3,0.0,
,,,3.03000002E-3,6.60000031E3,,,,,3.03000002E-3,0.0,,,,,3.03000002E-3,8.000000380E-3,
,,,3.04000010E-3,6.40000030E3,,,,,3.04000010E-3,0.0,,,,,3.04000010E-3,0.0,
,,,3.04999994E-3,6.60000031E3,,,,,3.04999994E-3,4.00000019E-3,,,,,3.04999994E-3,56.000001729E-3,
,,,3.06000002E-3,6.40000030E3,,,,,3.06000002E-3,0.0,,,,,3.06000002E-3,0.0,
,,,3.07000009E-3,6.60000031E3,,,,,3.07000009E-3,0.0,,,,,3.07000009E-3,136.0000074E-3,
,,,3.07999994E-3,6.60000031E3,,,,,3.07999994E-3,0.0,,,,,3.07999994E-3,-8.000000380E-3,
,,,3.09000001E-3,6.60000031E3,,,,,3.09000001E-3,0.0,,,,,3.09000001E-3,72.000004351E-3,
,,,3.10000009E-3,6.60000031E3,,,,,3.10000009E-3,0.0,,,,,3.10000009E-3,0.0,
,,,3.10999993E-3,6.60000031E3,,,,,3.10999993E-3,0.0,,,,,3.10999993E-3,8.000000380E-3,
,,,3.12000001E-3,6.60000031E3,,,,,3.12000001E-3,0.0,,,,,3.12000001E-3,0.0,
,,,3.13000008E-3,6.60000031E3,,,,,3.13000008E-3,0.0,,,,,3.13000008E-3,0.0,
,,,3.13999993E-3,6.60000031E3,,,,,3.13999993E-3,0.0,,,,,3.13999993E-3,-24.00000021E-3,
,,,3.15000000E-3,6.80000032E3,,,,,3.15000000E-3,36.00000218E-3,,,,,3.15000000E-3,104.0000021E-3,
,,,3.16000008E-3,6.60000031E3,,,,,3.16000008E-3,0.0,,,,,3.16000008E-3,-8.000000380E-3,
,,,3.16999992E-3,6.80000032E3,,,,,3.16999992E-3,20.0000014E-3,,,,,3.16999992E-3,40.00000283E-3,
,,,3.18000000E-3,6.60000031E3,,,,,3.18000000E-3,0.0,,,,,3.18000000E-3,0.0,
,,,3.19000008E-3,6.80000032E3,,,,,3.19000008E-3,0.0,,,,,3.19000008E-3,8.000000380E-3,
,,,3.19999992E-3,6.60000031E3,,,,,3.19999992E-3,0.0,,,,,3.19999992E-3,0.0,
,,,3.21000000E-3,6.80000032E3,,,,,3.21000000E-3,0.0,,,,,3.21000000E-3,152.00001001E-3,
,,,3.22000007E-3,6.60000031E3,,,,,3.22000007E-3,4.00000019E-3,,,,,3.22000007E-3,0.0,
,,,3.22999991E-3,6.80000032E3,,,,,3.22999991E-3,0.0,,,,,3.22999991E-3,0.0,
,,,3.23999999E-3,6.80000032E3,,,,,3.23999999E-3,0.0,,,,,3.23999999E-3,0.0,
,,,3.25000007E-3,6.80000032E3,,,,,3.25000007E-3,128.0000061E-3,,,,,3.25000007E-3,8.000000380E-3,
,,,3.25999991E-3,6.80000032E3,,,,,3.25999991E-3,0.0,,,,,3.25999991E-3,0.0,
,,,3.26999999E-3,6.80000032E3,,,,,3.26999999E-3,0.0,,,,,3.26999999E-3,0.0,
,,,3.28000006E-3,6.60000031E3,,,,,3.28000006E-3,0.0,,,,,3.28000006E-3,0.0,
,,,3.28999991E-3,6.80000032E3,,,,,3.28999991E-3,0.0,,,,,3.28999991E-3,0.0,
,,,3.29999998E-3,6.80000032E3,,,,,3.29999998E-3,0.0,,,,,3.29999998E-3,0.0,
,,,3.31000006E-3,7.00000033E3,,,,,3.31000006E-3,0.0,,,,,3.31000006E-3,0.0,
,,,3.32000013E-3,6.80000032E3,,,,,3.32000013E-3,0.0,,,,,3.32000013E-3,0.0,
,,,3.32999998E-3,6.80000032E3,,,,,3.32999998E-3,28.00000086E-3,,,,,3.32999998E-3,8.000000380E-3,
,,,3.34000005E-3,6.80000032E3,,,,,3.34000005E-3,0.0,,,,,3.34000005E-3,0.0,
,,,3.35000013E-3,6.80000032E3,,,,,3.35000013E-3,0.0,,,,,3.35000013E-3,0.0,
,,,3.35999997E-3,6.80000032E3,,,,,3.35999997E-3,0.0,,,,,3.35999997E-3,0.0,
,,,3.37000005E-3,7.00000033E3,,,,,3.37000005E-3,104.0000021E-3,,,,,3.37000005E-3,0.0,
,,,3.38000013E-3,6.80000032E3,,,,,3.38000013E-3,0.0,,,,,3.38000013E-3,-8.000000380E-3,
,,,3.38999997E-3,7.00000033E3,,,,,3.38999997E-3,0.0,,,,,3.38999997E-3,120.0000048E-3,
,,,3.40000005E-3,6.80000032E3,,,,,3.40000005E-3,0.0,,,,,3.40000005E-3,0.0,
,,,3.41000012E-3,7.00000033E3,,,,,3.41000012E-3,0.0,,,,,3.41000012E-3,0.0,
,,,3.41999996E-3,6.80000032E3,,,,,3.41999996E-3,0.0,,,,,3.41999996E-3,0.0,
,,,3.43000004E-3,7.00000033E3,,,,,3.43000004E-3,4.00000019E-3,,,,,3.43000004E-3,0.0,
,,,3.44000012E-3,6.80000032E3,,,,,3.44000012E-3,0.0,,,,,3.44000012E-3,-8.000000380E-3,
,,,3.44999996E-3,7.00000033E3,,,,,3.44999996E-3,0.0,,,,,3.44999996E-3,24.00000021E-3,
,,,3.46000004E-3,6.80000032E3,,,,,3.46000004E-3,0.0,,,,,3.46000004E-3,0.0,
,,,3.47000011E-3,7.00000033E3,,,,,3.47000011E-3,0.0,,,,,3.47000011E-3,0.0,
,,,3.47999996E-3,6.80000032E3,,,,,3.47999996E-3,0.0,,,,,3.47999996E-3,-16.0000008E-3,
,,,3.49000003E-3,7.00000033E3,,,,,3.49000003E-3,88.000006974E-3,,,,,3.49000003E-3,184.00001526E-3,
,,,3.50000011E-3,6.80000032E3,,,,,3.50000011E-3,0.0,,,,,3.50000011E-3,0.0,
,,,3.50999995E-3,7.00000033E3,,,,,3.50999995E-3,4.00000019E-3,,,,,3.50999995E-3,0.0,
,,,3.52000003E-3,6.80000032E3,,,,,3.52000003E-3,0.0,,,,,3.52000003E-3,0.0,
,,,3.53000010E-3,7.00000033E3,,,,,3.53000010E-3,0.0,,,,,3.53000010E-3,8.000000380E-3,
,,,3.53999995E-3,6.80000032E3,,,,,3.53999995E-3,0.0,,,,,3.53999995E-3,0.0,
,,,3.55000002E-3,7.00000033E3,,,,,3.55000002E-3,0.0,,,,,3.55000002E-3,0.0,
,,,3.56000010E-3,6.80000032E3,,,,,3.56000010E-3,0.0,,,,,3.56000010E-3,0.0,
,,,3.56999994E-3,7.00000033E3,,,,,3.56999994E-3,0.0,,,,,3.56999994E-3,8.000000380E-3,
,,,3.58000002E-3,7.00000033E3,,,,,3.58000002E-3,0.0,,,,,3.58000002E-3,0.0,
,,,3.59000009E-3,7.00000033E3,,,,,3.59000009E-3,0.0,,,,,3.59000009E-3,8.000000380E-3,
,,,3.59999994E-3,6.80000032E3,,,,,3.59999994E-3,0.0,,,,,3.59999994E-3,-8.000000380E-3,
,,,3.61000001E-3,7.00000033E3,,,,,3.61000001E-3,0.0,,,,,3.61000001E-3,160.00001132E-3,
,,,3.62000009E-3,6.80000032E3,,,,,3.62000009E-3,0.0,,,,,3.62000009E-3,0.0,
,,,3.62999993E-3,7.00000033E3,,,,,3.62999993E-3,0.0,,,,,3.62999993E-3,8.000000380E-3,
,,,3.64000001E-3,6.80000032E3,,,,,3.64000001E-3,-4.00000019E-3,,,,,3.64000001E-3,0.0,
,,,3.65000009E-3,7.00000033E3,,,,,3.65000009E-3,0.0,,,,,3.65000009E-3,8.000000380E-3,
,,,3.65999993E-3,6.80000032E3,,,,,3.65999993E-3,-4.00000019E-3,,,,,3.65999993E-3,0.0,
,,,3.67000001E-3,7.00000033E3,,,,,3.67000001E-3,0.0,,,,,3.67000001E-3,0.0,
,,,3.68000008E-3,6.80000032E3,,,,,3.68000008E-3,0.0,,,,,3.68000008E-3,0.0,
,,,3.68999992E-3,6.80000032E3,,,,,3.68999992E-3,0.0,,,,,3.68999992E-3,8.000000380E-3,
,,,3.70000000E-3,6.80000032E3,,,,,3.70000000E-3,-4.00000019E-3,,,,,3.70000000E-3,0.0,
,,,3.71000008E-3,7.00000033E3,,,,,3.71000008E-3,0.0,,,,,3.71000008E-3,8.000000380E-3,
,,,3.71999992E-3,6.80000032E3,,,,,3.71999992E-3,-4.00000019E-3,,,,,3.71999992E-3,0.0,
,,,3.73000000E-3,7.00000033E3,,,,,3.73000000E-3,0.0,,,,,3.73000000E-3,8.000000380E-3,
,,,3.74000007E-3,6.80000032E3,,,,,3.74000007E-3,0.0,,,,,3.74000007E-3,0.0,
,,,3.74999992E-3,7.00000033E3,,,,,3.74999992E-3,0.0,,,,,3.74999992E-3,8.000000380E-3,
,,,3.75999999E-3,6.80000032E3,,,,,3.75999999E-3,-4.00000019E-3,,,,,3.75999999E-3,0.0,
,,,3.77000007E-3,7.00000033E3,,,,,3.77000007E-3,0.0,,,,,3.77000007E-3,8.000000380E-3,
,,,3.77999991E-3,6.80000032E3,,,,,3.77999991E-3,0.0,,,,,3.77999991E-3,0.0,
