20181022/Bobina gas 14vpp -9kv  2.csv

Record Length,2500,Points,-499.999965541E-6,6.20000029E3,,Record Length,2500,Points,-499.999965541E-6,0.0,,Record Length,2500,Points,-499.999965541E-6,239.99999464E-3,
Sample Interval,400.00000467E-9,s,-499.599962495E-6,6.20000029E3,,Sample Interval,400.00000467E-9,s,-499.599962495E-6,19.9999996E-3,,Sample Interval,400.00000467E-9,s,-499.599962495E-6,159.99999642E-3,
Trigger Point,1.2500000E3,Samples,-499.199959449E-6,6.20000029E3,,Trigger Point,1.2500000E3,Samples,-499.199959449E-6,0.0,,Trigger Point,1.2500000E3,Samples,-499.199959449E-6,79.999998212E-3,
,,,-498.799956404E-6,6.20000029E3,,,,,-498.799956404E-6,0.0,,,,,-498.799956404E-6,159.99999642E-3,
,,,-498.399953358E-6,6.20000029E3,,,,,-498.399953358E-6,0.0,,,,,-498.399953358E-6,79.999998212E-3,
,,,-497.999950312E-6,6.00000028E3,,,,,-497.999950312E-6,-19.9999996E-3,,,,,-497.999950312E-6,159.99999642E-3,
Source,CH1,,-497.599947266E-6,6.20000029E3,,Source,CH2,,-497.599947266E-6,0.0,,Source,CH3,,-497.599947266E-6,-79.999998212E-3,
Vertical Units,Volts,,-497.199944220E-6,6.20000029E3,,Vertical Units,Volts,,-497.199944220E-6,0.0,,Vertical Units,Volts,,-497.199944220E-6,79.999998212E-3,
Vertical Scale,5.00000024E3,,-496.799941175E-6,6.20000029E3,,Vertical Scale,499.999988824E-3,,-496.799941175E-6,-19.9999996E-3,,Vertical Scale,2.0000000,,-496.799941175E-6,0.0,
Vertical Offset,0,,-496.399938129E-6,6.20000029E3,,Vertical Offset,0,,-496.399938129E-6,0.0,,Vertical Offset,0,,-496.399938129E-6,0.0,
Horizontal Units,s,,-495.999993291E-6,6.20000029E3,,Horizontal Units,s,,-495.999993291E-6,0.0,,Horizontal Units,s,,-495.999993291E-6,79.999998212E-3,
Horizontal Scale,100.0000012E-6,,-495.599990245E-6,5.80000028E3,,Horizontal Scale,100.0000012E-6,,-495.599990245E-6,-19.9999996E-3,,Horizontal Scale,100.0000012E-6,,-495.599990245E-6,0.0,
Pt Fmt,Y,,-495.199987199E-6,6.20000029E3,,Pt Fmt,Y,,-495.199987199E-6,0.0,,Pt Fmt,Y,,-495.199987199E-6,0.0,
Yzero,400.00000000E-3,,-494.799984153E-6,6.00000028E3,,Yzero,-600.000000000E-3,,-494.799984153E-6,-19.9999996E-3,,Yzero,-2.0000000,,-494.799984153E-6,-79.999998212E-3,
Probe Atten,1.0000000E3,,-494.399981108E-6,6.00000028E3,,Probe Atten,1.000000,,-494.399981108E-6,0.0,,Probe Atten,10.0000000,,-494.399981108E-6,-159.99999642E-3,
,,,-493.999978062E-6,6.20000029E3,,,,,-493.999978062E-6,0.0,,,,,-493.999978062E-6,-79.999998212E-3,
Note,TDS 2004B - 4:48:44 PM   10/22/2018,,-493.599975016E-6,6.00000028E3,,Note,TDS 2004B - 4:48:44 PM   10/22/2018,,-493.599975016E-6,0.0,,Note,TDS 2004B - 4:48:44 PM   10/22/2018,,-493.599975016E-6,-79.999998212E-3,
,,,-493.199971970E-6,6.00000028E3,,,,,-493.199971970E-6,-19.9999996E-3,,,,,-493.199971970E-6,-79.999998212E-3,
,,,-492.799968924E-6,6.00000028E3,,,,,-492.799968924E-6,-39.99999911E-3,,,,,-492.799968924E-6,-79.999998212E-3,
,,,-492.399965879E-6,6.00000028E3,,,,,-492.399965879E-6,-19.9999996E-3,,,,,-492.399965879E-6,-159.99999642E-3,
,,,-491.999962833E-6,5.80000028E3,,,,,-491.999962833E-6,-19.9999996E-3,,,,,-491.999962833E-6,-159.99999642E-3,
,,,-491.599959787E-6,6.00000028E3,,,,,-491.599959787E-6,-19.9999996E-3,,,,,-491.599959787E-6,-239.99999464E-3,
,,,-491.199956741E-6,5.80000028E3,,,,,-491.199956741E-6,-19.9999996E-3,,,,,-491.199956741E-6,-239.99999464E-3,
,,,-490.799953695E-6,6.00000028E3,,,,,-490.799953695E-6,0.0,,,,,-490.799953695E-6,-319.99999285E-3,
,,,-490.399950650E-6,5.80000028E3,,,,,-490.399950650E-6,-19.9999996E-3,,,,,-490.399950650E-6,-239.99999464E-3,
,,,-489.999947604E-6,5.80000028E3,,,,,-489.999947604E-6,-19.9999996E-3,,,,,-489.999947604E-6,-319.99999285E-3,
,,,-489.599944558E-6,5.80000028E3,,,,,-489.599944558E-6,-19.9999996E-3,,,,,-489.599944558E-6,-239.99999464E-3,
,,,-489.199941512E-6,5.80000028E3,,,,,-489.199941512E-6,-39.99999911E-3,,,,,-489.199941512E-6,-239.99999464E-3,
,,,-488.799938466E-6,5.60000027E3,,,,,-488.799938466E-6,-19.9999996E-3,,,,,-488.799938466E-6,-159.99999642E-3,
,,,-488.399993628E-6,5.80000028E3,,,,,-488.399993628E-6,-39.99999911E-3,,,,,-488.399993628E-6,-239.99999464E-3,
,,,-487.999961479E-6,5.60000027E3,,,,,-487.999961479E-6,-59.999998659E-3,,,,,-487.999961479E-6,-239.99999464E-3,
,,,-487.599958433E-6,5.80000028E3,,,,,-487.599958433E-6,-19.9999996E-3,,,,,-487.599958433E-6,-319.99999285E-3,
,,,-487.199955387E-6,5.80000028E3,,,,,-487.199955387E-6,0.0,,,,,-487.199955387E-6,-319.99999285E-3,
,,,-486.799952341E-6,5.40000026E3,,,,,-486.799952341E-6,-39.99999911E-3,,,,,-486.799952341E-6,-319.99999285E-3,
,,,-486.399978399E-6,5.40000026E3,,,,,-486.399978399E-6,-19.9999996E-3,,,,,-486.399978399E-6,-319.99999285E-3,
,,,-485.999975353E-6,5.60000027E3,,,,,-485.999975353E-6,-19.9999996E-3,,,,,-485.999975353E-6,-399.99997616E-3,
,,,-485.599972308E-6,5.80000028E3,,,,,-485.599972308E-6,-79.999998212E-3,,,,,-485.599972308E-6,-239.99999464E-3,
,,,-485.199969262E-6,5.20000025E3,,,,,-485.199969262E-6,-19.9999996E-3,,,,,-485.199969262E-6,-399.99997616E-3,
,,,-484.799966216E-6,5.40000026E3,,,,,-484.799966216E-6,-19.9999996E-3,,,,,-484.799966216E-6,-319.99999285E-3,
,,,-484.399963170E-6,5.60000027E3,,,,,-484.399963170E-6,-59.999998659E-3,,,,,-484.399963170E-6,-399.99997616E-3,
,,,-483.999960124E-6,5.60000027E3,,,,,-483.999960124E-6,-39.99999911E-3,,,,,-483.999960124E-6,-239.99999464E-3,
,,,-483.599957079E-6,5.40000026E3,,,,,-483.599957079E-6,-19.9999996E-3,,,,,-483.599957079E-6,-399.99997616E-3,
,,,-483.199954033E-6,5.40000026E3,,,,,-483.199954033E-6,-59.999998659E-3,,,,,-483.199954033E-6,-479.999989271E-3,
,,,-482.799950987E-6,5.40000026E3,,,,,-482.799950987E-6,-19.9999996E-3,,,,,-482.799950987E-6,-399.99997616E-3,
,,,-482.399977045E-6,5.20000025E3,,,,,-482.399977045E-6,-59.999998659E-3,,,,,-482.399977045E-6,-399.99997616E-3,
,,,-481.999973999E-6,5.00000024E3,,,,,-481.999973999E-6,-19.9999996E-3,,,,,-481.999973999E-6,-399.99997616E-3,
,,,-481.599970954E-6,5.00000024E3,,,,,-481.599970954E-6,-39.99999911E-3,,,,,-481.599970954E-6,-560.000002384E-3,
,,,-481.199967908E-6,5.00000024E3,,,,,-481.199967908E-6,-39.99999911E-3,,,,,-481.199967908E-6,-399.99997616E-3,
,,,-480.799964862E-6,5.00000024E3,,,,,-480.799964862E-6,-39.99999911E-3,,,,,-480.799964862E-6,-399.99997616E-3,
,,,-480.399961816E-6,4.80000023E3,,,,,-480.399961816E-6,-39.99999911E-3,,,,,-480.399961816E-6,-479.999989271E-3,
,,,-479.999958770E-6,5.00000024E3,,,,,-479.999958770E-6,-59.999998659E-3,,,,,-479.999958770E-6,-479.999989271E-3,
,,,-479.599955725E-6,4.80000023E3,,,,,-479.599955725E-6,-59.999998659E-3,,,,,-479.599955725E-6,-479.999989271E-3,
,,,-479.199952679E-6,5.00000024E3,,,,,-479.199952679E-6,-59.999998659E-3,,,,,-479.199952679E-6,-560.000002384E-3,
,,,-478.799978737E-6,4.60000022E3,,,,,-478.799978737E-6,-59.999998659E-3,,,,,-478.799978737E-6,-560.000002384E-3,
,,,-478.399975691E-6,4.60000022E3,,,,,-478.399975691E-6,-79.999998212E-3,,,,,-478.399975691E-6,-479.999989271E-3,
,,,-477.999972645E-6,4.20000020E3,,,,,-477.999972645E-6,-59.999998659E-3,,,,,-477.999972645E-6,-560.000002384E-3,
,,,-477.599969599E-6,4.60000022E3,,,,,-477.599969599E-6,-39.99999911E-3,,,,,-477.599969599E-6,-560.000002384E-3,
,,,-477.199966554E-6,4.40000021E3,,,,,-477.199966554E-6,-39.99999911E-3,,,,,-477.199966554E-6,-560.000002384E-3,
,,,-476.799963508E-6,4.40000021E3,,,,,-476.799963508E-6,-59.999998659E-3,,,,,-476.799963508E-6,-479.999989271E-3,
,,,-476.399960462E-6,4.40000021E3,,,,,-476.399960462E-6,-59.999998659E-3,,,,,-476.399960462E-6,-639.999985695E-3,
,,,-475.999957416E-6,4.20000020E3,,,,,-475.999957416E-6,-39.99999911E-3,,,,,-475.999957416E-6,-560.000002384E-3,
,,,-475.599954370E-6,4.20000020E3,,,,,-475.599954370E-6,-99.999994040E-3,,,,,-475.599954370E-6,-479.999989271E-3,
,,,-475.199951325E-6,4.00000019E3,,,,,-475.199951325E-6,-59.999998659E-3,,,,,-475.199951325E-6,-560.000002384E-3,
,,,-474.799977383E-6,4.00000019E3,,,,,-474.799977383E-6,-79.999998212E-3,,,,,-474.799977383E-6,-639.999985695E-3,
,,,-474.399974337E-6,4.00000019E3,,,,,-474.399974337E-6,-39.99999911E-3,,,,,-474.399974337E-6,-639.999985695E-3,
,,,-473.999971291E-6,4.00000019E3,,,,,-473.999971291E-6,-59.999998659E-3,,,,,-473.999971291E-6,-560.000002384E-3,
,,,-473.599968245E-6,3.80000018E3,,,,,-473.599968245E-6,-59.999998659E-3,,,,,-473.599968245E-6,-719.999969006E-3,
,,,-473.199965199E-6,3.60000017E3,,,,,-473.199965199E-6,-59.999998659E-3,,,,,-473.199965199E-6,-719.999969006E-3,
,,,-472.799962154E-6,3.80000018E3,,,,,-472.799962154E-6,-59.999998659E-3,,,,,-472.799962154E-6,-719.999969006E-3,
,,,-472.399959108E-6,3.60000017E3,,,,,-472.399959108E-6,-59.999998659E-3,,,,,-472.399959108E-6,-639.999985695E-3,
,,,-471.999956062E-6,3.40000016E3,,,,,-471.999956062E-6,-79.999998212E-3,,,,,-471.999956062E-6,-719.999969006E-3,
,,,-471.599953016E-6,3.40000016E3,,,,,-471.599953016E-6,-39.99999911E-3,,,,,-471.599953016E-6,-719.999969006E-3,
,,,-471.199979074E-6,3.40000016E3,,,,,-471.199979074E-6,-79.999998212E-3,,,,,-471.199979074E-6,-719.999969006E-3,
,,,-470.799976029E-6,3.20000015E3,,,,,-470.799976029E-6,-59.999998659E-3,,,,,-470.799976029E-6,-639.999985695E-3,
,,,-470.399972983E-6,3.00000014E3,,,,,-470.399972983E-6,-39.99999911E-3,,,,,-470.399972983E-6,-719.999969006E-3,
,,,-469.999969937E-6,3.20000015E3,,,,,-469.999969937E-6,-79.999998212E-3,,,,,-469.999969937E-6,-719.999969006E-3,
,,,-469.599966891E-6,2.80000013E3,,,,,-469.599966891E-6,-79.999998212E-3,,,,,-469.599966891E-6,-799.999952316E-3,
,,,-469.199963845E-6,2.80000013E3,,,,,-469.199963845E-6,-59.999998659E-3,,,,,-469.199963845E-6,-719.999969006E-3,
,,,-468.799960800E-6,2.80000013E3,,,,,-468.799960800E-6,-79.999998212E-3,,,,,-468.799960800E-6,-719.999969006E-3,
,,,-468.399957754E-6,2.6000001E3,,,,,-468.399957754E-6,-59.999998659E-3,,,,,-468.399957754E-6,-719.999969006E-3,
,,,-467.999954708E-6,2.80000013E3,,,,,-467.999954708E-6,-79.999998212E-3,,,,,-467.999954708E-6,-799.999952316E-3,
,,,-467.599951662E-6,2.80000013E3,,,,,-467.599951662E-6,-79.999998212E-3,,,,,-467.599951662E-6,-799.999952316E-3,
,,,-467.199977720E-6,2.6000001E3,,,,,-467.199977720E-6,-79.999998212E-3,,,,,-467.199977720E-6,-799.999952316E-3,
,,,-466.799974674E-6,2.4000001E3,,,,,-466.799974674E-6,-59.999998659E-3,,,,,-466.799974674E-6,-799.999952316E-3,
,,,-466.399971629E-6,2.2000001E3,,,,,-466.399971629E-6,-79.999998212E-3,,,,,-466.399971629E-6,-799.999952316E-3,
,,,-465.999968583E-6,2.0000001E3,,,,,-465.999968583E-6,-79.999998212E-3,,,,,-465.999968583E-6,-799.999952316E-3,
,,,-465.599965537E-6,2.0000001E3,,,,,-465.599965537E-6,-79.999998212E-3,,,,,-465.599965537E-6,-799.999952316E-3,
,,,-465.199962491E-6,2.0000001E3,,,,,-465.199962491E-6,-79.999998212E-3,,,,,-465.199962491E-6,-799.999952316E-3,
,,,-464.799959445E-6,2.0000001E3,,,,,-464.799959445E-6,-99.999994040E-3,,,,,-464.799959445E-6,-879.999995232E-3,
,,,-464.399956400E-6,1.8000001E3,,,,,-464.399956400E-6,-79.999998212E-3,,,,,-464.399956400E-6,-799.999952316E-3,
,,,-463.999953354E-6,1.6000001E3,,,,,-463.999953354E-6,-79.999998212E-3,,,,,-463.999953354E-6,-799.999952316E-3,
,,,-463.599979412E-6,1.6000001E3,,,,,-463.599979412E-6,-99.999994040E-3,,,,,-463.599979412E-6,-959.999978542E-3,
,,,-463.199976366E-6,1.4000001E3,,,,,-463.199976366E-6,-79.999998212E-3,,,,,-463.199976366E-6,-799.999952316E-3,
,,,-462.799973320E-6,1.4000001E3,,,,,-462.799973320E-6,-99.999994040E-3,,,,,-462.799973320E-6,-799.999952316E-3,
,,,-462.399970274E-6,1.4000001E3,,,,,-462.399970274E-6,-99.999994040E-3,,,,,-462.399970274E-6,-879.999995232E-3,
,,,-461.999967229E-6,1.4000001E3,,,,,-461.999967229E-6,-99.999994040E-3,,,,,-461.999967229E-6,-959.999978542E-3,
,,,-461.599964183E-6,1.2000001E3,,,,,-461.599964183E-6,-79.999998212E-3,,,,,-461.599964183E-6,-879.999995232E-3,
,,,-461.199961137E-6,1.2000001E3,,,,,-461.199961137E-6,-79.999998212E-3,,,,,-461.199961137E-6,-799.999952316E-3,
,,,-460.799958091E-6,1.0000000E3,,,,,-460.799958091E-6,-79.999998212E-3,,,,,-460.799958091E-6,-799.999952316E-3,
,,,-460.399955045E-6,800.000000000,,,,,-460.399955045E-6,-99.999994040E-3,,,,,-460.399955045E-6,-799.999952316E-3,
,,,-459.999952000E-6,800.000000000,,,,,-459.999952000E-6,-99.999994040E-3,,,,,-459.999952000E-6,-799.999952316E-3,
,,,-459.599978058E-6,800.000000000,,,,,-459.599978058E-6,-99.999994040E-3,,,,,-459.599978058E-6,-959.999978542E-3,
,,,-459.199975012E-6,600.000000000,,,,,-459.199975012E-6,-99.999994040E-3,,,,,-459.199975012E-6,-799.999952316E-3,
,,,-458.799971966E-6,600.000000000,,,,,-458.799971966E-6,-59.999998659E-3,,,,,-458.799971966E-6,-879.999995232E-3,
,,,-458.399968920E-6,400.00000000,,,,,-458.399968920E-6,-99.999994040E-3,,,,,-458.399968920E-6,-879.999995232E-3,
,,,-457.999965874E-6,0.0,,,,,-457.999965874E-6,-79.999998212E-3,,,,,-457.999965874E-6,-959.999978542E-3,
,,,-457.599962829E-6,200.00000000,,,,,-457.599962829E-6,-99.999994040E-3,,,,,-457.599962829E-6,-879.999995232E-3,
,,,-457.199959783E-6,200.00000000,,,,,-457.199959783E-6,-99.999994040E-3,,,,,-457.199959783E-6,-959.999978542E-3,
,,,-456.799956737E-6,200.00000000,,,,,-456.799956737E-6,-119.9999973E-3,,,,,-456.799956737E-6,-1.0400000,
,,,-456.399953691E-6,-400.00000000,,,,,-456.399953691E-6,-99.999994040E-3,,,,,-456.399953691E-6,-879.999995232E-3,
,,,-455.999950645E-6,-200.00000000,,,,,-455.999950645E-6,-99.999994040E-3,,,,,-455.999950645E-6,-959.999978542E-3,
,,,-455.599976704E-6,-200.00000000,,,,,-455.599976704E-6,-59.999998659E-3,,,,,-455.599976704E-6,-879.999995232E-3,
,,,-455.199973658E-6,-400.00000000,,,,,-455.199973658E-6,-99.999994040E-3,,,,,-455.199973658E-6,-879.999995232E-3,
,,,-454.799970612E-6,-600.000000000,,,,,-454.799970612E-6,-79.999998212E-3,,,,,-454.799970612E-6,-959.999978542E-3,
,,,-454.399967566E-6,-400.00000000,,,,,-454.399967566E-6,-59.999998659E-3,,,,,-454.399967566E-6,-959.999978542E-3,
,,,-453.999964520E-6,-800.000000000,,,,,-453.999964520E-6,-79.999998212E-3,,,,,-453.999964520E-6,-959.999978542E-3,
,,,-453.599961475E-6,-800.000000000,,,,,-453.599961475E-6,-119.9999973E-3,,,,,-453.599961475E-6,-959.999978542E-3,
,,,-453.199958429E-6,-1.0000000E3,,,,,-453.199958429E-6,-79.999998212E-3,,,,,-453.199958429E-6,-1.0400000,
,,,-452.799955383E-6,-1.0000000E3,,,,,-452.799955383E-6,-99.999994040E-3,,,,,-452.799955383E-6,-959.999978542E-3,
,,,-452.399952337E-6,-1.2000001E3,,,,,-452.399952337E-6,-119.9999973E-3,,,,,-452.399952337E-6,-959.999978542E-3,
,,,-451.999978395E-6,-1.2000001E3,,,,,-451.999978395E-6,-99.999994040E-3,,,,,-451.999978395E-6,-959.999978542E-3,
,,,-451.599975349E-6,-1.2000001E3,,,,,-451.599975349E-6,-119.9999973E-3,,,,,-451.599975349E-6,-959.999978542E-3,
,,,-451.199972304E-6,-1.4000001E3,,,,,-451.199972304E-6,-99.999994040E-3,,,,,-451.199972304E-6,-959.999978542E-3,
,,,-450.799969258E-6,-1.4000001E3,,,,,-450.799969258E-6,-99.999994040E-3,,,,,-450.799969258E-6,-879.999995232E-3,
,,,-450.399966212E-6,-1.8000001E3,,,,,-450.399966212E-6,-119.9999973E-3,,,,,-450.399966212E-6,-959.999978542E-3,
,,,-449.999963166E-6,-1.8000001E3,,,,,-449.999963166E-6,-119.9999973E-3,,,,,-449.999963166E-6,-1.0400000,
,,,-449.599960120E-6,-1.6000001E3,,,,,-449.599960120E-6,-79.999998212E-3,,,,,-449.599960120E-6,-959.999978542E-3,
,,,-449.199957075E-6,-1.8000001E3,,,,,-449.199957075E-6,-99.999994040E-3,,,,,-449.199957075E-6,-959.999978542E-3,
,,,-448.799954029E-6,-2.0000001E3,,,,,-448.799954029E-6,-79.999998212E-3,,,,,-448.799954029E-6,-959.999978542E-3,
,,,-448.399950983E-6,-2.0000001E3,,,,,-448.399950983E-6,-99.999994040E-3,,,,,-448.399950983E-6,-959.999978542E-3,
,,,-447.999977041E-6,-2.0000001E3,,,,,-447.999977041E-6,-79.999998212E-3,,,,,-447.999977041E-6,-959.999978542E-3,
,,,-447.599973995E-6,-2.4000001E3,,,,,-447.599973995E-6,-79.999998212E-3,,,,,-447.599973995E-6,-1.0400000,
,,,-447.199970949E-6,-2.4000001E3,,,,,-447.199970949E-6,-119.9999973E-3,,,,,-447.199970949E-6,-1.0400000,
,,,-446.799967904E-6,-2.4000001E3,,,,,-446.799967904E-6,-79.999998212E-3,,,,,-446.799967904E-6,-959.999978542E-3,
,,,-446.399964858E-6,-2.6000001E3,,,,,-446.399964858E-6,-79.999998212E-3,,,,,-446.399964858E-6,-959.999978542E-3,
,,,-445.999961812E-6,-2.4000001E3,,,,,-445.999961812E-6,-79.999998212E-3,,,,,-445.999961812E-6,-879.999995232E-3,
,,,-445.599958766E-6,-3.00000014E3,,,,,-445.599958766E-6,-79.999998212E-3,,,,,-445.599958766E-6,-959.999978542E-3,
,,,-445.199955720E-6,-3.00000014E3,,,,,-445.199955720E-6,-119.9999973E-3,,,,,-445.199955720E-6,-959.999978542E-3,
,,,-444.799952675E-6,-2.80000013E3,,,,,-444.799952675E-6,-119.9999973E-3,,,,,-444.799952675E-6,-959.999978542E-3,
,,,-444.399978733E-6,-3.00000014E3,,,,,-444.399978733E-6,-79.999998212E-3,,,,,-444.399978733E-6,-959.999978542E-3,
,,,-443.999975687E-6,-3.20000015E3,,,,,-443.999975687E-6,-59.999998659E-3,,,,,-443.999975687E-6,-1.0400000,
,,,-443.599972641E-6,-3.20000015E3,,,,,-443.599972641E-6,-59.999998659E-3,,,,,-443.599972641E-6,-1.0400000,
,,,-443.199969595E-6,-3.40000016E3,,,,,-443.199969595E-6,-99.999994040E-3,,,,,-443.199969595E-6,-959.999978542E-3,
,,,-442.799966550E-6,-3.40000016E3,,,,,-442.799966550E-6,-99.999994040E-3,,,,,-442.799966550E-6,-959.999978542E-3,
,,,-442.399963504E-6,-3.60000017E3,,,,,-442.399963504E-6,-99.999994040E-3,,,,,-442.399963504E-6,-959.999978542E-3,
,,,-441.999960458E-6,-3.40000016E3,,,,,-441.999960458E-6,-79.999998212E-3,,,,,-441.999960458E-6,-959.999978542E-3,
,,,-441.599957412E-6,-3.80000018E3,,,,,-441.599957412E-6,-99.999994040E-3,,,,,-441.599957412E-6,-879.999995232E-3,
,,,-441.199954366E-6,-3.80000018E3,,,,,-441.199954366E-6,-59.999998659E-3,,,,,-441.199954366E-6,-959.999978542E-3,
,,,-440.799951321E-6,-4.00000019E3,,,,,-440.799951321E-6,-59.999998659E-3,,,,,-440.799951321E-6,-879.999995232E-3,
,,,-440.399977379E-6,-3.80000018E3,,,,,-440.399977379E-6,-79.999998212E-3,,,,,-440.399977379E-6,-959.999978542E-3,
,,,-439.999974333E-6,-4.00000019E3,,,,,-439.999974333E-6,-99.999994040E-3,,,,,-439.999974333E-6,-959.999978542E-3,
,,,-439.599971287E-6,-4.00000019E3,,,,,-439.599971287E-6,-99.999994040E-3,,,,,-439.599971287E-6,-959.999978542E-3,
,,,-439.199968241E-6,-4.20000020E3,,,,,-439.199968241E-6,-79.999998212E-3,,,,,-439.199968241E-6,-959.999978542E-3,
,,,-438.799965195E-6,-4.20000020E3,,,,,-438.799965195E-6,-99.999994040E-3,,,,,-438.799965195E-6,-879.999995232E-3,
,,,-438.399962150E-6,-4.40000021E3,,,,,-438.399962150E-6,-79.999998212E-3,,,,,-438.399962150E-6,-879.999995232E-3,
,,,-437.999959104E-6,-4.60000022E3,,,,,-437.999959104E-6,-39.99999911E-3,,,,,-437.999959104E-6,-879.999995232E-3,
,,,-437.599956058E-6,-4.60000022E3,,,,,-437.599956058E-6,-59.999998659E-3,,,,,-437.599956058E-6,-879.999995232E-3,
,,,-437.199953012E-6,-4.60000022E3,,,,,-437.199953012E-6,-59.999998659E-3,,,,,-437.199953012E-6,-879.999995232E-3,
,,,-436.799979070E-6,-4.60000022E3,,,,,-436.799979070E-6,-99.999994040E-3,,,,,-436.799979070E-6,-799.999952316E-3,
,,,-436.399976024E-6,-4.80000023E3,,,,,-436.399976024E-6,-99.999994040E-3,,,,,-436.399976024E-6,-879.999995232E-3,
,,,-435.999972979E-6,-4.80000023E3,,,,,-435.999972979E-6,-79.999998212E-3,,,,,-435.999972979E-6,-799.999952316E-3,
,,,-435.599969933E-6,-5.00000024E3,,,,,-435.599969933E-6,-99.999994040E-3,,,,,-435.599969933E-6,-879.999995232E-3,
,,,-435.199966887E-6,-4.80000023E3,,,,,-435.199966887E-6,-79.999998212E-3,,,,,-435.199966887E-6,-799.999952316E-3,
,,,-434.799963841E-6,-5.20000025E3,,,,,-434.799963841E-6,-99.999994040E-3,,,,,-434.799963841E-6,-879.999995232E-3,
,,,-434.399960795E-6,-5.00000024E3,,,,,-434.399960795E-6,-79.999998212E-3,,,,,-434.399960795E-6,-799.999952316E-3,
,,,-433.999957750E-6,-5.20000025E3,,,,,-433.999957750E-6,-79.999998212E-3,,,,,-433.999957750E-6,-799.999952316E-3,
,,,-433.599954704E-6,-5.40000026E3,,,,,-433.599954704E-6,-59.999998659E-3,,,,,-433.599954704E-6,-799.999952316E-3,
,,,-433.199951658E-6,-5.40000026E3,,,,,-433.199951658E-6,-79.999998212E-3,,,,,-433.199951658E-6,-799.999952316E-3,
,,,-432.799977716E-6,-5.40000026E3,,,,,-432.799977716E-6,-79.999998212E-3,,,,,-432.799977716E-6,-719.999969006E-3,
,,,-432.399974670E-6,-5.40000026E3,,,,,-432.399974670E-6,-79.999998212E-3,,,,,-432.399974670E-6,-719.999969006E-3,
,,,-431.999971624E-6,-5.60000027E3,,,,,-431.999971624E-6,-159.99999642E-3,,,,,-431.999971624E-6,-719.999969006E-3,
