21-8-2018/Mediciones/Bobina 5.csv

Record Length,2500,Points,-195.00000053E-6,-3.20000015E3,,Record Length,2500,Points,-195.00000053E-6,128.0000061E-3,,Record Length,2500,Points,-195.00000053E-6,1.6799999,
Sample Interval,100.0000012E-9,s,-194.89999977E-6,-3.00000014E3,,Sample Interval,100.0000012E-9,s,-194.89999977E-6,131.9999993E-3,,Sample Interval,100.0000012E-9,s,-194.89999977E-6,1.6799999,
Trigger Point,1.9500001E3,Samples,-194.79999901E-6,-3.00000014E3,,Trigger Point,1.9500001E3,Samples,-194.79999901E-6,131.9999993E-3,,Trigger Point,1.9500001E3,Samples,-194.79999901E-6,1.5999999,
,,,-194.69999825E-6,-3.20000015E3,,,,,-194.69999825E-6,136.0000074E-3,,,,,-194.69999825E-6,1.5999999,
,,,-194.59999749E-6,-3.20000015E3,,,,,-194.59999749E-6,128.0000061E-3,,,,,-194.59999749E-6,1.6799999,
,,,-194.49999672E-6,-3.00000014E3,,,,,-194.49999672E-6,136.0000074E-3,,,,,-194.49999672E-6,1.6799999,
Source,CH1,,-194.39999596E-6,-3.00000014E3,,Source,CH3,,-194.39999596E-6,131.9999993E-3,,Source,CH4,,-194.39999596E-6,1.5999999,
Vertical Units,Volts,,-194.29999520E-6,-3.20000015E3,,Vertical Units,Volts,,-194.29999520E-6,128.0000061E-3,,Vertical Units,Volts,,-194.29999520E-6,1.6799999,
Vertical Scale,5.00000024E3,,-194.19999444E-6,-2.80000013E3,,Vertical Scale,100.0000047E-3,,-194.19999444E-6,131.9999993E-3,,Vertical Scale,2.0000000,,-194.19999444E-6,1.5999999,
Vertical Offset,0,,-194.09999368E-6,-3.00000014E3,,Vertical Offset,0,,-194.09999368E-6,131.9999993E-3,,Vertical Offset,0,,-194.09999368E-6,1.6799999,
Horizontal Units,s,,-194.00000747E-6,-2.80000013E3,,Horizontal Units,s,,-194.00000747E-6,131.9999993E-3,,Horizontal Units,s,,-194.00000747E-6,1.6799999,
Horizontal Scale,25.00000029E-6,,-193.90000671E-6,-2.80000013E3,,Horizontal Scale,25.00000029E-6,,-193.90000671E-6,131.9999993E-3,,Horizontal Scale,25.00000029E-6,,-193.90000671E-6,1.7600000,
Pt Fmt,Y,,-193.80000595E-6,-2.80000013E3,,Pt Fmt,Y,,-193.80000595E-6,128.0000061E-3,,Pt Fmt,Y,,-193.80000595E-6,1.7600000,
Yzero,80.000000000E-3,,-193.70000518E-6,-2.80000013E3,,Yzero,-1.9200000,,-193.70000518E-6,131.9999993E-3,,Yzero,-760.000000000E-3,,-193.70000518E-6,1.5999999,
Probe Atten,1.0000000E3,,-193.60000442E-6,-2.6000001E3,,Probe Atten,1.000000,,-193.60000442E-6,131.9999993E-3,,Probe Atten,10.0000000,,-193.60000442E-6,1.6799999,
,,,-193.50000366E-6,-2.80000013E3,,,,,-193.50000366E-6,131.9999993E-3,,,,,-193.50000366E-6,1.6799999,
Note,TDS 2004B - 4:04:09 p. m.   21/8/2018,,-193.40000290E-6,-2.80000013E3,,Note,TDS 2004B - 4:04:09 p. m.   21/8/2018,,-193.40000290E-6,131.9999993E-3,,Note,TDS 2004B - 4:04:09 p. m.   21/8/2018,,-193.40000290E-6,1.6799999,
,,,-193.30000214E-6,-2.6000001E3,,,,,-193.30000214E-6,136.0000074E-3,,,,,-193.30000214E-6,1.6799999,
,,,-193.20000138E-6,-2.6000001E3,,,,,-193.20000138E-6,128.0000061E-3,,,,,-193.20000138E-6,1.6799999,
,,,-193.10000062E-6,-2.80000013E3,,,,,-193.10000062E-6,131.9999993E-3,,,,,-193.10000062E-6,1.5999999,
,,,-192.99999985E-6,-2.6000001E3,,,,,-192.99999985E-6,136.0000074E-3,,,,,-192.99999985E-6,1.5999999,
,,,-192.89999909E-6,-2.6000001E3,,,,,-192.89999909E-6,140.0000006E-3,,,,,-192.89999909E-6,1.6799999,
,,,-192.79999833E-6,-2.6000001E3,,,,,-192.79999833E-6,131.9999993E-3,,,,,-192.79999833E-6,1.5999999,
,,,-192.69999757E-6,-2.4000001E3,,,,,-192.69999757E-6,136.0000074E-3,,,,,-192.69999757E-6,1.6799999,
,,,-192.59999681E-6,-2.4000001E3,,,,,-192.59999681E-6,136.0000074E-3,,,,,-192.59999681E-6,1.5999999,
,,,-192.49999605E-6,-2.4000001E3,,,,,-192.49999605E-6,140.0000006E-3,,,,,-192.49999605E-6,1.6799999,
,,,-192.39999529E-6,-2.0000001E3,,,,,-192.39999529E-6,136.0000074E-3,,,,,-192.39999529E-6,1.5999999,
,,,-192.29999452E-6,-2.2000001E3,,,,,-192.29999452E-6,136.0000074E-3,,,,,-192.29999452E-6,1.6799999,
,,,-192.19999376E-6,-2.0000001E3,,,,,-192.19999376E-6,131.9999993E-3,,,,,-192.19999376E-6,1.5999999,
,,,-192.10000755E-6,-2.2000001E3,,,,,-192.10000755E-6,144.0000087E-3,,,,,-192.10000755E-6,1.7600000,
,,,-192.00000679E-6,-2.4000001E3,,,,,-192.00000679E-6,136.0000074E-3,,,,,-192.00000679E-6,1.6799999,
,,,-191.90000603E-6,-2.2000001E3,,,,,-191.90000603E-6,131.9999993E-3,,,,,-191.90000603E-6,1.7600000,
,,,-191.80000527E-6,-2.0000001E3,,,,,-191.80000527E-6,136.0000074E-3,,,,,-191.80000527E-6,1.7600000,
,,,-191.70000451E-6,-2.4000001E3,,,,,-191.70000451E-6,140.0000006E-3,,,,,-191.70000451E-6,1.6799999,
,,,-191.60000375E-6,-2.0000001E3,,,,,-191.60000375E-6,136.0000074E-3,,,,,-191.60000375E-6,1.6799999,
,,,-191.50000298E-6,-2.2000001E3,,,,,-191.50000298E-6,136.0000074E-3,,,,,-191.50000298E-6,1.7600000,
,,,-191.40000222E-6,-2.0000001E3,,,,,-191.40000222E-6,136.0000074E-3,,,,,-191.40000222E-6,1.6799999,
,,,-191.30000146E-6,-2.2000001E3,,,,,-191.30000146E-6,144.0000087E-3,,,,,-191.30000146E-6,1.6799999,
,,,-191.20000070E-6,-1.8000001E3,,,,,-191.20000070E-6,140.0000006E-3,,,,,-191.20000070E-6,1.5999999,
,,,-191.09999994E-6,-1.8000001E3,,,,,-191.09999994E-6,140.0000006E-3,,,,,-191.09999994E-6,1.6799999,
,,,-190.99999918E-6,-1.8000001E3,,,,,-190.99999918E-6,136.0000074E-3,,,,,-190.99999918E-6,1.6799999,
,,,-190.89999842E-6,-2.0000001E3,,,,,-190.89999842E-6,140.0000006E-3,,,,,-190.89999842E-6,1.5999999,
,,,-190.79999765E-6,-1.6000001E3,,,,,-190.79999765E-6,140.0000006E-3,,,,,-190.79999765E-6,1.6799999,
,,,-190.69999689E-6,-2.0000001E3,,,,,-190.69999689E-6,136.0000074E-3,,,,,-190.69999689E-6,1.6799999,
,,,-190.59999613E-6,-1.8000001E3,,,,,-190.59999613E-6,140.0000006E-3,,,,,-190.59999613E-6,1.5999999,
,,,-190.49999537E-6,-1.8000001E3,,,,,-190.49999537E-6,144.0000087E-3,,,,,-190.49999537E-6,1.6799999,
,,,-190.39999461E-6,-1.8000001E3,,,,,-190.39999461E-6,140.0000006E-3,,,,,-190.39999461E-6,1.7600000,
,,,-190.29999385E-6,-2.0000001E3,,,,,-190.29999385E-6,136.0000074E-3,,,,,-190.29999385E-6,1.6799999,
,,,-190.20000764E-6,-1.8000001E3,,,,,-190.20000764E-6,140.0000006E-3,,,,,-190.20000764E-6,1.6799999,
,,,-190.10000688E-6,-1.4000001E3,,,,,-190.10000688E-6,140.0000006E-3,,,,,-190.10000688E-6,1.6799999,
,,,-190.00000611E-6,-1.4000001E3,,,,,-190.00000611E-6,144.0000087E-3,,,,,-190.00000611E-6,1.7600000,
,,,-189.90000535E-6,-1.8000001E3,,,,,-189.90000535E-6,136.0000074E-3,,,,,-189.90000535E-6,1.5999999,
,,,-189.80000459E-6,-1.6000001E3,,,,,-189.80000459E-6,140.0000006E-3,,,,,-189.80000459E-6,1.6799999,
,,,-189.70000383E-6,-1.8000001E3,,,,,-189.70000383E-6,140.0000006E-3,,,,,-189.70000383E-6,1.6799999,
,,,-189.60000307E-6,-1.2000001E3,,,,,-189.60000307E-6,136.0000074E-3,,,,,-189.60000307E-6,1.5999999,
,,,-189.50000231E-6,-1.4000001E3,,,,,-189.50000231E-6,140.0000006E-3,,,,,-189.50000231E-6,1.7600000,
,,,-189.40000155E-6,-1.6000001E3,,,,,-189.40000155E-6,131.9999993E-3,,,,,-189.40000155E-6,1.5200000,
,,,-189.30000078E-6,-1.4000001E3,,,,,-189.30000078E-6,136.0000074E-3,,,,,-189.30000078E-6,1.7600000,
,,,-189.20000002E-6,-1.2000001E3,,,,,-189.20000002E-6,140.0000006E-3,,,,,-189.20000002E-6,1.7600000,
,,,-189.09999926E-6,-1.4000001E3,,,,,-189.09999926E-6,144.0000087E-3,,,,,-189.09999926E-6,1.6799999,
,,,-188.99999850E-6,-1.2000001E3,,,,,-188.99999850E-6,140.0000006E-3,,,,,-188.99999850E-6,1.5999999,
,,,-188.89999774E-6,-1.2000001E3,,,,,-188.89999774E-6,148.0000019E-3,,,,,-188.89999774E-6,1.5999999,
,,,-188.79999698E-6,-1.2000001E3,,,,,-188.79999698E-6,140.0000006E-3,,,,,-188.79999698E-6,1.5999999,
,,,-188.69999622E-6,-1.4000001E3,,,,,-188.69999622E-6,136.0000074E-3,,,,,-188.69999622E-6,1.7600000,
,,,-188.59999545E-6,-800.000000000,,,,,-188.59999545E-6,140.0000006E-3,,,,,-188.59999545E-6,1.6799999,
,,,-188.49999469E-6,-1.2000001E3,,,,,-188.49999469E-6,144.0000087E-3,,,,,-188.49999469E-6,1.6799999,
,,,-188.39999393E-6,-800.000000000,,,,,-188.39999393E-6,136.0000074E-3,,,,,-188.39999393E-6,1.6799999,
,,,-188.30000772E-6,-1.2000001E3,,,,,-188.30000772E-6,140.0000006E-3,,,,,-188.30000772E-6,1.6799999,
,,,-188.20000696E-6,-1.0000000E3,,,,,-188.20000696E-6,144.0000087E-3,,,,,-188.20000696E-6,1.6799999,
,,,-188.10000620E-6,-1.2000001E3,,,,,-188.10000620E-6,140.0000006E-3,,,,,-188.10000620E-6,1.6799999,
,,,-188.00000544E-6,-1.0000000E3,,,,,-188.00000544E-6,140.0000006E-3,,,,,-188.00000544E-6,1.8399999,
,,,-187.90000468E-6,-1.2000001E3,,,,,-187.90000468E-6,144.0000087E-3,,,,,-187.90000468E-6,1.7600000,
,,,-187.80000391E-6,-1.0000000E3,,,,,-187.80000391E-6,140.0000006E-3,,,,,-187.80000391E-6,1.6799999,
,,,-187.70000315E-6,-800.000000000,,,,,-187.70000315E-6,148.0000019E-3,,,,,-187.70000315E-6,1.7600000,
,,,-187.60000239E-6,-1.0000000E3,,,,,-187.60000239E-6,144.0000087E-3,,,,,-187.60000239E-6,1.6799999,
,,,-187.50000163E-6,-1.0000000E3,,,,,-187.50000163E-6,131.9999993E-3,,,,,-187.50000163E-6,2.0799999,
,,,-187.40000087E-6,-800.000000000,,,,,-187.40000087E-6,128.0000061E-3,,,,,-187.40000087E-6,2.0000000,
,,,-187.30000011E-6,-1.0000000E3,,,,,-187.30000011E-6,136.0000074E-3,,,,,-187.30000011E-6,2.0799999,
,,,-187.19999935E-6,-600.000000000,,,,,-187.19999935E-6,131.9999993E-3,,,,,-187.19999935E-6,1.7600000,
,,,-187.09999858E-6,-600.000000000,,,,,-187.09999858E-6,131.9999993E-3,,,,,-187.09999858E-6,1.6799999,
,,,-186.99999782E-6,-800.000000000,,,,,-186.99999782E-6,136.0000074E-3,,,,,-186.99999782E-6,1.5999999,
,,,-186.89999706E-6,-600.000000000,,,,,-186.89999706E-6,152.00001001E-3,,,,,-186.89999706E-6,1.6799999,
,,,-186.79999630E-6,-400.00000000,,,,,-186.79999630E-6,144.0000087E-3,,,,,-186.79999630E-6,1.7600000,
,,,-186.69999554E-6,-600.000000000,,,,,-186.69999554E-6,144.0000087E-3,,,,,-186.69999554E-6,1.7600000,
,,,-186.59999478E-6,-600.000000000,,,,,-186.59999478E-6,144.0000087E-3,,,,,-186.59999478E-6,1.5999999,
,,,-186.49999402E-6,-400.00000000,,,,,-186.49999402E-6,140.0000006E-3,,,,,-186.49999402E-6,1.5999999,
,,,-186.39999325E-6,-400.00000000,,,,,-186.39999325E-6,140.0000006E-3,,,,,-186.39999325E-6,1.6799999,
,,,-186.30000704E-6,-400.00000000,,,,,-186.30000704E-6,148.0000019E-3,,,,,-186.30000704E-6,1.6799999,
,,,-186.20000628E-6,-400.00000000,,,,,-186.20000628E-6,136.0000074E-3,,,,,-186.20000628E-6,1.5999999,
,,,-186.10000552E-6,-600.000000000,,,,,-186.10000552E-6,144.0000087E-3,,,,,-186.10000552E-6,1.6799999,
,,,-186.00000476E-6,-400.00000000,,,,,-186.00000476E-6,144.0000087E-3,,,,,-186.00000476E-6,1.7600000,
,,,-185.90000400E-6,-400.00000000,,,,,-185.90000400E-6,140.0000006E-3,,,,,-185.90000400E-6,1.7600000,
,,,-185.80000324E-6,-400.00000000,,,,,-185.80000324E-6,144.0000087E-3,,,,,-185.80000324E-6,1.6799999,
,,,-185.70000248E-6,-400.00000000,,,,,-185.70000248E-6,144.0000087E-3,,,,,-185.70000248E-6,1.6799999,
,,,-185.60000171E-6,-400.00000000,,,,,-185.60000171E-6,144.0000087E-3,,,,,-185.60000171E-6,1.6799999,
,,,-185.50000095E-6,-400.00000000,,,,,-185.50000095E-6,148.0000019E-3,,,,,-185.50000095E-6,1.7600000,
,,,-185.40000019E-6,0.0,,,,,-185.40000019E-6,140.0000006E-3,,,,,-185.40000019E-6,1.6799999,
,,,-185.29999943E-6,-400.00000000,,,,,-185.29999943E-6,148.0000019E-3,,,,,-185.29999943E-6,1.6799999,
,,,-185.19999867E-6,-200.00000000,,,,,-185.19999867E-6,144.0000087E-3,,,,,-185.19999867E-6,1.5999999,
,,,-185.09999791E-6,-400.00000000,,,,,-185.09999791E-6,144.0000087E-3,,,,,-185.09999791E-6,1.6799999,
,,,-184.99999715E-6,0.0,,,,,-184.99999715E-6,144.0000087E-3,,,,,-184.99999715E-6,1.6799999,
,,,-184.89999638E-6,-200.00000000,,,,,-184.89999638E-6,144.0000087E-3,,,,,-184.89999638E-6,1.6799999,
,,,-184.79999562E-6,-200.00000000,,,,,-184.79999562E-6,148.0000019E-3,,,,,-184.79999562E-6,1.6799999,
,,,-184.69999486E-6,-200.00000000,,,,,-184.69999486E-6,148.0000019E-3,,,,,-184.69999486E-6,1.6799999,
,,,-184.59999410E-6,-200.00000000,,,,,-184.59999410E-6,148.0000019E-3,,,,,-184.59999410E-6,1.5999999,
,,,-184.49999334E-6,0.0,,,,,-184.49999334E-6,148.0000019E-3,,,,,-184.49999334E-6,1.7600000,
,,,-184.40000713E-6,0.0,,,,,-184.40000713E-6,144.0000087E-3,,,,,-184.40000713E-6,1.6799999,
,,,-184.30000637E-6,-200.00000000,,,,,-184.30000637E-6,148.0000019E-3,,,,,-184.30000637E-6,1.6799999,
,,,-184.20000561E-6,-200.00000000,,,,,-184.20000561E-6,148.0000019E-3,,,,,-184.20000561E-6,1.5999999,
,,,-184.10000484E-6,-200.00000000,,,,,-184.10000484E-6,148.0000019E-3,,,,,-184.10000484E-6,1.7600000,
,,,-184.00000408E-6,200.00000000,,,,,-184.00000408E-6,148.0000019E-3,,,,,-184.00000408E-6,1.7600000,
,,,-183.90000332E-6,0.0,,,,,-183.90000332E-6,131.9999993E-3,,,,,-183.90000332E-6,1.6799999,
,,,-183.80000256E-6,0.0,,,,,-183.80000256E-6,131.9999993E-3,,,,,-183.80000256E-6,1.6799999,
,,,-183.70000180E-6,200.00000000,,,,,-183.70000180E-6,144.0000087E-3,,,,,-183.70000180E-6,1.6799999,
,,,-183.60000104E-6,400.00000000,,,,,-183.60000104E-6,140.0000006E-3,,,,,-183.60000104E-6,1.7600000,
,,,-183.50000028E-6,200.00000000,,,,,-183.50000028E-6,152.00001001E-3,,,,,-183.50000028E-6,1.9200000,
,,,-183.39999951E-6,200.00000000,,,,,-183.39999951E-6,148.0000019E-3,,,,,-183.39999951E-6,1.7600000,
,,,-183.29999875E-6,200.00000000,,,,,-183.29999875E-6,156.00000322E-3,,,,,-183.29999875E-6,1.7600000,
,,,-183.19999799E-6,400.00000000,,,,,-183.19999799E-6,152.00001001E-3,,,,,-183.19999799E-6,1.7600000,
,,,-183.09999723E-6,400.00000000,,,,,-183.09999723E-6,148.0000019E-3,,,,,-183.09999723E-6,1.6799999,
,,,-182.99999647E-6,400.00000000,,,,,-182.99999647E-6,148.0000019E-3,,,,,-182.99999647E-6,1.7600000,
,,,-182.89999571E-6,400.00000000,,,,,-182.89999571E-6,148.0000019E-3,,,,,-182.89999571E-6,1.7600000,
,,,-182.79999495E-6,600.000000000,,,,,-182.79999495E-6,148.0000019E-3,,,,,-182.79999495E-6,1.5200000,
,,,-182.69999418E-6,400.00000000,,,,,-182.69999418E-6,148.0000019E-3,,,,,-182.69999418E-6,1.7600000,
,,,-182.59999342E-6,600.000000000,,,,,-182.59999342E-6,148.0000019E-3,,,,,-182.59999342E-6,1.7600000,
,,,-182.50000721E-6,400.00000000,,,,,-182.50000721E-6,148.0000019E-3,,,,,-182.50000721E-6,4.00000000,
,,,-182.40000645E-6,600.000000000,,,,,-182.40000645E-6,144.0000087E-3,,,,,-182.40000645E-6,1.7600000,
,,,-182.30000569E-6,600.000000000,,,,,-182.30000569E-6,144.0000087E-3,,,,,-182.30000569E-6,1.6799999,
,,,-182.20000493E-6,600.000000000,,,,,-182.20000493E-6,144.0000087E-3,,,,,-182.20000493E-6,2.79999995,
,,,-182.10000417E-6,800.000000000,,,,,-182.10000417E-6,148.0000019E-3,,,,,-182.10000417E-6,2.96000004,
,,,-182.00000341E-6,600.000000000,,,,,-182.00000341E-6,148.0000019E-3,,,,,-182.00000341E-6,1.5999999,
,,,-181.90000264E-6,800.000000000,,,,,-181.90000264E-6,148.0000019E-3,,,,,-181.90000264E-6,1.7600000,
,,,-181.80000188E-6,800.000000000,,,,,-181.80000188E-6,148.0000019E-3,,,,,-181.80000188E-6,1.6799999,
,,,-181.70000112E-6,800.000000000,,,,,-181.70000112E-6,148.0000019E-3,,,,,-181.70000112E-6,1.5999999,
,,,-181.60000036E-6,600.000000000,,,,,-181.60000036E-6,148.0000019E-3,,,,,-181.60000036E-6,1.6799999,
,,,-181.49999960E-6,800.000000000,,,,,-181.49999960E-6,148.0000019E-3,,,,,-181.49999960E-6,1.6799999,
,,,-181.39999884E-6,800.000000000,,,,,-181.39999884E-6,148.0000019E-3,,,,,-181.39999884E-6,1.6799999,
,,,-181.29999808E-6,1.0000000E3,,,,,-181.29999808E-6,152.00001001E-3,,,,,-181.29999808E-6,1.6799999,
,,,-181.19999731E-6,800.000000000,,,,,-181.19999731E-6,148.0000019E-3,,,,,-181.19999731E-6,1.6799999,
,,,-181.09999655E-6,1.0000000E3,,,,,-181.09999655E-6,144.0000087E-3,,,,,-181.09999655E-6,1.5999999,
,,,-180.99999579E-6,1.2000001E3,,,,,-180.99999579E-6,144.0000087E-3,,,,,-180.99999579E-6,1.6799999,
,,,-180.89999503E-6,800.000000000,,,,,-180.89999503E-6,144.0000087E-3,,,,,-180.89999503E-6,1.6799999,
,,,-180.79999427E-6,1.0000000E3,,,,,-180.79999427E-6,144.0000087E-3,,,,,-180.79999427E-6,1.6799999,
,,,-180.69999351E-6,1.2000001E3,,,,,-180.69999351E-6,140.0000006E-3,,,,,-180.69999351E-6,1.5999999,
,,,-180.60000730E-6,1.0000000E3,,,,,-180.60000730E-6,144.0000087E-3,,,,,-180.60000730E-6,2.2400000,
,,,-180.50000654E-6,1.2000001E3,,,,,-180.50000654E-6,144.0000087E-3,,,,,-180.50000654E-6,2.2400000,
,,,-180.40000577E-6,1.2000001E3,,,,,-180.40000577E-6,148.0000019E-3,,,,,-180.40000577E-6,1.6799999,
,,,-180.30000501E-6,1.2000001E3,,,,,-180.30000501E-6,144.0000087E-3,,,,,-180.30000501E-6,1.6799999,
,,,-180.20000425E-6,1.4000001E3,,,,,-180.20000425E-6,148.0000019E-3,,,,,-180.20000425E-6,1.6799999,
,,,-180.10000349E-6,1.2000001E3,,,,,-180.10000349E-6,152.00001001E-3,,,,,-180.10000349E-6,1.7600000,
,,,-180.00000273E-6,1.4000001E3,,,,,-180.00000273E-6,148.0000019E-3,,,,,-180.00000273E-6,1.7600000,
,,,-179.90000197E-6,1.0000000E3,,,,,-179.90000197E-6,148.0000019E-3,,,,,-179.90000197E-6,1.5999999,
,,,-179.80000121E-6,1.4000001E3,,,,,-179.80000121E-6,148.0000019E-3,,,,,-179.80000121E-6,1.5999999,
,,,-179.70000044E-6,1.6000001E3,,,,,-179.70000044E-6,136.0000074E-3,,,,,-179.70000044E-6,1.6799999,
,,,-179.59999968E-6,1.6000001E3,,,,,-179.59999968E-6,140.0000006E-3,,,,,-179.59999968E-6,1.6799999,
,,,-179.49999892E-6,1.6000001E3,,,,,-179.49999892E-6,136.0000074E-3,,,,,-179.49999892E-6,1.6799999,
,,,-179.39999816E-6,1.6000001E3,,,,,-179.39999816E-6,140.0000006E-3,,,,,-179.39999816E-6,1.5999999,
,,,-179.29999740E-6,1.6000001E3,,,,,-179.29999740E-6,148.0000019E-3,,,,,-179.29999740E-6,1.6799999,
,,,-179.19999664E-6,1.6000001E3,,,,,-179.19999664E-6,148.0000019E-3,,,,,-179.19999664E-6,1.5999999,
,,,-179.09999588E-6,1.4000001E3,,,,,-179.09999588E-6,152.00001001E-3,,,,,-179.09999588E-6,1.6799999,
,,,-178.99999511E-6,1.4000001E3,,,,,-178.99999511E-6,148.0000019E-3,,,,,-178.99999511E-6,1.6799999,
,,,-178.89999435E-6,1.6000001E3,,,,,-178.89999435E-6,148.0000019E-3,,,,,-178.89999435E-6,1.6799999,
,,,-178.79999359E-6,1.6000001E3,,,,,-178.79999359E-6,148.0000019E-3,,,,,-178.79999359E-6,1.5999999,
,,,-178.70000738E-6,1.4000001E3,,,,,-178.70000738E-6,144.0000087E-3,,,,,-178.70000738E-6,1.7600000,
,,,-178.60000662E-6,1.6000001E3,,,,,-178.60000662E-6,148.0000019E-3,,,,,-178.60000662E-6,2.72000003,
,,,-178.50000586E-6,1.6000001E3,,,,,-178.50000586E-6,148.0000019E-3,,,,,-178.50000586E-6,3.75999999,
,,,-178.40000510E-6,1.8000001E3,,,,,-178.40000510E-6,144.0000087E-3,,,,,-178.40000510E-6,1.6799999,
,,,-178.30000434E-6,1.6000001E3,,,,,-178.30000434E-6,144.0000087E-3,,,,,-178.30000434E-6,1.5999999,
,,,-178.20000357E-6,1.8000001E3,,,,,-178.20000357E-6,148.0000019E-3,,,,,-178.20000357E-6,1.6799999,
,,,-178.10000281E-6,1.8000001E3,,,,,-178.10000281E-6,144.0000087E-3,,,,,-178.10000281E-6,1.6799999,
,,,-178.00000205E-6,2.0000001E3,,,,,-178.00000205E-6,148.0000019E-3,,,,,-178.00000205E-6,1.6799999,
,,,-177.90000129E-6,1.8000001E3,,,,,-177.90000129E-6,176.00001395E-3,,,,,-177.90000129E-6,1.6799999,
,,,-177.80000053E-6,1.8000001E3,,,,,-177.80000053E-6,176.00001395E-3,,,,,-177.80000053E-6,1.6799999,
,,,-177.69999977E-6,1.8000001E3,,,,,-177.69999977E-6,160.00001132E-3,,,,,-177.69999977E-6,1.7600000,
,,,-177.59999901E-6,1.8000001E3,,,,,-177.59999901E-6,164.00000453E-3,,,,,-177.59999901E-6,1.6799999,
,,,-177.49999824E-6,1.8000001E3,,,,,-177.49999824E-6,140.0000006E-3,,,,,-177.49999824E-6,1.5999999,
,,,-177.39999748E-6,2.0000001E3,,,,,-177.39999748E-6,144.0000087E-3,,,,,-177.39999748E-6,1.5999999,
,,,-177.29999672E-6,1.8000001E3,,,,,-177.29999672E-6,148.0000019E-3,,,,,-177.29999672E-6,1.6799999,
,,,-177.19999596E-6,2.0000001E3,,,,,-177.19999596E-6,144.0000087E-3,,,,,-177.19999596E-6,1.5999999,
,,,-177.09999520E-6,2.2000001E3,,,,,-177.09999520E-6,152.00001001E-3,,,,,-177.09999520E-6,2.0000000,
,,,-176.99999444E-6,2.2000001E3,,,,,-176.99999444E-6,152.00001001E-3,,,,,-176.99999444E-6,1.6799999,
,,,-176.89999368E-6,2.2000001E3,,,,,-176.89999368E-6,152.00001001E-3,,,,,-176.89999368E-6,1.7600000,
,,,-176.80000747E-6,2.2000001E3,,,,,-176.80000747E-6,148.0000019E-3,,,,,-176.80000747E-6,1.7600000,
,,,-176.70000670E-6,2.0000001E3,,,,,-176.70000670E-6,148.0000019E-3,,,,,-176.70000670E-6,1.6799999,
,,,-176.60000594E-6,2.4000001E3,,,,,-176.60000594E-6,152.00001001E-3,,,,,-176.60000594E-6,1.9200000,
,,,-176.50000518E-6,2.4000001E3,,,,,-176.50000518E-6,148.0000019E-3,,,,,-176.50000518E-6,3.19999981,
,,,-176.40000442E-6,2.2000001E3,,,,,-176.40000442E-6,152.00001001E-3,,,,,-176.40000442E-6,1.7600000,
,,,-176.30000366E-6,2.6000001E3,,,,,-176.30000366E-6,148.0000019E-3,,,,,-176.30000366E-6,1.6799999,
,,,-176.20000290E-6,2.6000001E3,,,,,-176.20000290E-6,144.0000087E-3,,,,,-176.20000290E-6,1.5200000,
