2018105/Trafo gas 1.csv

Record Length,2500,Points,-50.03999919E-3,-600.000000000,,Record Length,2500,Points,-50.03999919E-3,4.00000019E-3,,Record Length,2500,Points,-50.03999919E-3,400.00000596E-3,
Sample Interval,39.99999899E-6,s,-50.00000075E-3,-600.000000000,,Sample Interval,39.99999899E-6,s,-50.00000075E-3,2.0000001E-3,,Sample Interval,39.99999899E-6,s,-50.00000075E-3,200.00000298E-3,
Trigger Point,1.2510001E3,Samples,-49.95999858E-3,-600.000000000,,Trigger Point,1.2510001E3,Samples,-49.95999858E-3,4.00000019E-3,,Trigger Point,1.2510001E3,Samples,-49.95999858E-3,400.00000596E-3,
,,,-49.92000014E-3,-600.000000000,,,,,-49.92000014E-3,2.0000001E-3,,,,,-49.92000014E-3,400.00000596E-3,
,,,-49.87999797E-3,-800.000000000,,,,,-49.87999797E-3,2.0000001E-3,,,,,-49.87999797E-3,200.00000298E-3,
,,,-49.83999953E-3,-800.000000000,,,,,-49.83999953E-3,2.0000001E-3,,,,,-49.83999953E-3,200.00000298E-3,
Source,CH1,,-49.79999736E-3,-800.000000000,,Source,CH2,,-49.79999736E-3,2.0000001E-3,,Source,CH3,,-49.79999736E-3,200.00000298E-3,
Vertical Units,Volts,,-49.75999892E-3,-800.000000000,,Vertical Units,Volts,,-49.75999892E-3,0.0,,Vertical Units,Volts,,-49.75999892E-3,200.00000298E-3,
Vertical Scale,5.00000024E3,,-49.72000048E-3,-800.000000000,,Vertical Scale,50.00000237E-3,,-49.72000048E-3,0.0,,Vertical Scale,5.00000007,,-49.72000048E-3,200.00000298E-3,
Vertical Offset,0,,-49.67999831E-3,-1.2000001E3,,Vertical Offset,0,,-49.67999831E-3,0.0,,Vertical Offset,0,,-49.67999831E-3,400.00000596E-3,
Horizontal Units,s,,-49.63999987E-3,-1.0000000E3,,Horizontal Units,s,,-49.63999987E-3,0.0,,Horizontal Units,s,,-49.63999987E-3,400.00000596E-3,
Horizontal Scale,9.999999747E-3,,-49.59999770E-3,-1.2000001E3,,Horizontal Scale,9.999999747E-3,,-49.59999770E-3,0.0,,Horizontal Scale,9.999999747E-3,,-49.59999770E-3,400.00000596E-3,
Pt Fmt,Y,,-49.55999926E-3,-1.2000001E3,,Pt Fmt,Y,,-49.55999926E-3,2.0000001E-3,,Pt Fmt,Y,,-49.55999926E-3,200.00000298E-3,
Yzero,280.00000000E-3,,-49.52000082E-3,-1.4000001E3,,Yzero,-2.2000000,,-49.52000082E-3,2.0000001E-3,,Yzero,-1.0400000,,-49.52000082E-3,400.00000596E-3,
Probe Atten,1.0000000E3,,-49.47999865E-3,-1.4000001E3,,Probe Atten,1.000000,,-49.47999865E-3,2.0000001E-3,,Probe Atten,10.0000000,,-49.47999865E-3,200.00000298E-3,
,,,-49.44000021E-3,-1.6000001E3,,,,,-49.44000021E-3,0.0,,,,,-49.44000021E-3,400.00000596E-3,
Note,TDS 2004B - 4:24:27 PM   10/5/2018,,-49.39999804E-3,-1.6000001E3,,Note,TDS 2004B - 4:24:27 PM   10/5/2018,,-49.39999804E-3,2.0000001E-3,,Note,TDS 2004B - 4:24:27 PM   10/5/2018,,-49.39999804E-3,200.00000298E-3,
,,,-49.35999960E-3,-1.6000001E3,,,,,-49.35999960E-3,0.0,,,,,-49.35999960E-3,400.00000596E-3,
,,,-49.31999743E-3,-1.8000001E3,,,,,-49.31999743E-3,2.0000001E-3,,,,,-49.31999743E-3,400.00000596E-3,
,,,-49.27999899E-3,-1.8000001E3,,,,,-49.27999899E-3,2.0000001E-3,,,,,-49.27999899E-3,400.00000596E-3,
,,,-49.24000055E-3,-2.0000001E3,,,,,-49.24000055E-3,0.0,,,,,-49.24000055E-3,200.00000298E-3,
,,,-49.19999838E-3,-2.0000001E3,,,,,-49.19999838E-3,2.0000001E-3,,,,,-49.19999838E-3,200.00000298E-3,
,,,-49.15999994E-3,-2.0000001E3,,,,,-49.15999994E-3,2.0000001E-3,,,,,-49.15999994E-3,400.00000596E-3,
,,,-49.11999777E-3,-2.0000001E3,,,,,-49.11999777E-3,2.0000001E-3,,,,,-49.11999777E-3,200.00000298E-3,
,,,-49.07999933E-3,-2.0000001E3,,,,,-49.07999933E-3,2.0000001E-3,,,,,-49.07999933E-3,200.00000298E-3,
,,,-49.04000089E-3,-2.2000001E3,,,,,-49.04000089E-3,2.0000001E-3,,,,,-49.04000089E-3,400.00000596E-3,
,,,-48.99999872E-3,-2.2000001E3,,,,,-48.99999872E-3,2.0000001E-3,,,,,-48.99999872E-3,200.00000298E-3,
,,,-48.96000028E-3,-2.2000001E3,,,,,-48.96000028E-3,2.0000001E-3,,,,,-48.96000028E-3,200.00000298E-3,
,,,-48.91999811E-3,-2.2000001E3,,,,,-48.91999811E-3,0.0,,,,,-48.91999811E-3,200.00000298E-3,
,,,-48.87999967E-3,-2.2000001E3,,,,,-48.87999967E-3,0.0,,,,,-48.87999967E-3,200.00000298E-3,
,,,-48.83999750E-3,-2.4000001E3,,,,,-48.83999750E-3,2.0000001E-3,,,,,-48.83999750E-3,400.00000596E-3,
,,,-48.79999906E-3,-2.4000001E3,,,,,-48.79999906E-3,2.0000001E-3,,,,,-48.79999906E-3,200.00000298E-3,
,,,-48.76000062E-3,-2.4000001E3,,,,,-48.76000062E-3,2.0000001E-3,,,,,-48.76000062E-3,200.00000298E-3,
,,,-48.71999845E-3,-2.6000001E3,,,,,-48.71999845E-3,0.0,,,,,-48.71999845E-3,200.00000298E-3,
,,,-48.68000001E-3,-2.6000001E3,,,,,-48.68000001E-3,0.0,,,,,-48.68000001E-3,200.00000298E-3,
,,,-48.63999784E-3,-2.6000001E3,,,,,-48.63999784E-3,0.0,,,,,-48.63999784E-3,200.00000298E-3,
,,,-48.59999940E-3,-2.80000013E3,,,,,-48.59999940E-3,2.0000001E-3,,,,,-48.59999940E-3,400.00000596E-3,
,,,-48.56000096E-3,-3.00000014E3,,,,,-48.56000096E-3,2.0000001E-3,,,,,-48.56000096E-3,200.00000298E-3,
,,,-48.51999879E-3,-2.80000013E3,,,,,-48.51999879E-3,0.0,,,,,-48.51999879E-3,200.00000298E-3,
,,,-48.48000035E-3,-3.00000014E3,,,,,-48.48000035E-3,2.0000001E-3,,,,,-48.48000035E-3,200.00000298E-3,
,,,-48.43999818E-3,-3.00000014E3,,,,,-48.43999818E-3,2.0000001E-3,,,,,-48.43999818E-3,200.00000298E-3,
,,,-48.39999974E-3,-3.00000014E3,,,,,-48.39999974E-3,0.0,,,,,-48.39999974E-3,200.00000298E-3,
,,,-48.35999757E-3,-3.20000015E3,,,,,-48.35999757E-3,2.0000001E-3,,,,,-48.35999757E-3,400.00000596E-3,
,,,-48.31999913E-3,-3.40000016E3,,,,,-48.31999913E-3,2.0000001E-3,,,,,-48.31999913E-3,200.00000298E-3,
,,,-48.28000069E-3,-3.40000016E3,,,,,-48.28000069E-3,2.0000001E-3,,,,,-48.28000069E-3,400.00000596E-3,
,,,-48.23999852E-3,-3.60000017E3,,,,,-48.23999852E-3,2.0000001E-3,,,,,-48.23999852E-3,400.00000596E-3,
,,,-48.20000008E-3,-3.60000017E3,,,,,-48.20000008E-3,0.0,,,,,-48.20000008E-3,400.00000596E-3,
,,,-48.15999791E-3,-3.80000018E3,,,,,-48.15999791E-3,0.0,,,,,-48.15999791E-3,200.00000298E-3,
,,,-48.11999947E-3,-3.80000018E3,,,,,-48.11999947E-3,2.0000001E-3,,,,,-48.11999947E-3,200.00000298E-3,
,,,-48.08000103E-3,-4.00000019E3,,,,,-48.08000103E-3,2.0000001E-3,,,,,-48.08000103E-3,400.00000596E-3,
,,,-48.03999886E-3,-4.00000019E3,,,,,-48.03999886E-3,2.0000001E-3,,,,,-48.03999886E-3,200.00000298E-3,
,,,-48.00000042E-3,-4.00000019E3,,,,,-48.00000042E-3,0.0,,,,,-48.00000042E-3,200.00000298E-3,
,,,-47.95999825E-3,-4.20000020E3,,,,,-47.95999825E-3,2.0000001E-3,,,,,-47.95999825E-3,200.00000298E-3,
,,,-47.91999981E-3,-4.20000020E3,,,,,-47.91999981E-3,0.0,,,,,-47.91999981E-3,200.00000298E-3,
,,,-47.87999764E-3,-4.20000020E3,,,,,-47.87999764E-3,2.0000001E-3,,,,,-47.87999764E-3,400.00000596E-3,
,,,-47.83999920E-3,-4.40000021E3,,,,,-47.83999920E-3,0.0,,,,,-47.83999920E-3,200.00000298E-3,
,,,-47.80000076E-3,-4.60000022E3,,,,,-47.80000076E-3,2.0000001E-3,,,,,-47.80000076E-3,400.00000596E-3,
,,,-47.75999859E-3,-4.40000021E3,,,,,-47.75999859E-3,0.0,,,,,-47.75999859E-3,200.00000298E-3,
,,,-47.72000015E-3,-4.60000022E3,,,,,-47.72000015E-3,2.0000001E-3,,,,,-47.72000015E-3,200.00000298E-3,
,,,-47.67999798E-3,-4.80000023E3,,,,,-47.67999798E-3,0.0,,,,,-47.67999798E-3,400.00000596E-3,
,,,-47.63999954E-3,-4.80000023E3,,,,,-47.63999954E-3,2.0000001E-3,,,,,-47.63999954E-3,400.00000596E-3,
,,,-47.60000110E-3,-5.00000024E3,,,,,-47.60000110E-3,0.0,,,,,-47.60000110E-3,200.00000298E-3,
,,,-47.55999893E-3,-5.00000024E3,,,,,-47.55999893E-3,2.0000001E-3,,,,,-47.55999893E-3,400.00000596E-3,
,,,-47.52000049E-3,-5.20000025E3,,,,,-47.52000049E-3,-2.0000001E-3,,,,,-47.52000049E-3,400.00000596E-3,
,,,-47.47999832E-3,-5.20000025E3,,,,,-47.47999832E-3,0.0,,,,,-47.47999832E-3,400.00000596E-3,
,,,-47.43999988E-3,-5.40000026E3,,,,,-47.43999988E-3,2.0000001E-3,,,,,-47.43999988E-3,400.00000596E-3,
,,,-47.39999771E-3,-5.40000026E3,,,,,-47.39999771E-3,2.0000001E-3,,,,,-47.39999771E-3,200.00000298E-3,
,,,-47.35999927E-3,-5.60000027E3,,,,,-47.35999927E-3,2.0000001E-3,,,,,-47.35999927E-3,200.00000298E-3,
,,,-47.32000083E-3,-5.80000028E3,,,,,-47.32000083E-3,0.0,,,,,-47.32000083E-3,400.00000596E-3,
,,,-47.27999866E-3,-5.80000028E3,,,,,-47.27999866E-3,2.0000001E-3,,,,,-47.27999866E-3,200.00000298E-3,
,,,-47.24000022E-3,-6.00000028E3,,,,,-47.24000022E-3,0.0,,,,,-47.24000022E-3,400.00000596E-3,
,,,-47.19999805E-3,-6.20000029E3,,,,,-47.19999805E-3,0.0,,,,,-47.19999805E-3,200.00000298E-3,
,,,-47.15999961E-3,-6.20000029E3,,,,,-47.15999961E-3,2.0000001E-3,,,,,-47.15999961E-3,200.00000298E-3,
,,,-47.11999744E-3,-6.40000030E3,,,,,-47.11999744E-3,0.0,,,,,-47.11999744E-3,200.00000298E-3,
,,,-47.07999900E-3,-6.40000030E3,,,,,-47.07999900E-3,2.0000001E-3,,,,,-47.07999900E-3,400.00000596E-3,
,,,-47.04000056E-3,-6.60000031E3,,,,,-47.04000056E-3,2.0000001E-3,,,,,-47.04000056E-3,200.00000298E-3,
,,,-46.99999839E-3,-6.80000032E3,,,,,-46.99999839E-3,2.0000001E-3,,,,,-46.99999839E-3,200.00000298E-3,
,,,-46.95999995E-3,-6.80000032E3,,,,,-46.95999995E-3,2.0000001E-3,,,,,-46.95999995E-3,200.00000298E-3,
,,,-46.91999778E-3,-6.80000032E3,,,,,-46.91999778E-3,0.0,,,,,-46.91999778E-3,400.00000596E-3,
,,,-46.87999934E-3,-7.00000033E3,,,,,-46.87999934E-3,2.0000001E-3,,,,,-46.87999934E-3,400.00000596E-3,
,,,-46.84000090E-3,-7.00000033E3,,,,,-46.84000090E-3,2.0000001E-3,,,,,-46.84000090E-3,400.00000596E-3,
,,,-46.79999873E-3,-7.00000033E3,,,,,-46.79999873E-3,2.0000001E-3,,,,,-46.79999873E-3,400.00000596E-3,
,,,-46.76000029E-3,-7.20000034E3,,,,,-46.76000029E-3,2.0000001E-3,,,,,-46.76000029E-3,200.00000298E-3,
,,,-46.71999812E-3,-7.20000034E3,,,,,-46.71999812E-3,2.0000001E-3,,,,,-46.71999812E-3,200.00000298E-3,
,,,-46.67999968E-3,-7.400000351E3,,,,,-46.67999968E-3,2.0000001E-3,,,,,-46.67999968E-3,400.00000596E-3,
,,,-46.63999751E-3,-7.400000351E3,,,,,-46.63999751E-3,2.0000001E-3,,,,,-46.63999751E-3,200.00000298E-3,
,,,-46.59999907E-3,-7.400000351E3,,,,,-46.59999907E-3,2.0000001E-3,,,,,-46.59999907E-3,200.00000298E-3,
,,,-46.56000063E-3,-7.400000351E3,,,,,-46.56000063E-3,2.0000001E-3,,,,,-46.56000063E-3,400.00000596E-3,
,,,-46.51999846E-3,-7.400000351E3,,,,,-46.51999846E-3,2.0000001E-3,,,,,-46.51999846E-3,400.00000596E-3,
,,,-46.48000002E-3,-7.400000351E3,,,,,-46.48000002E-3,0.0,,,,,-46.48000002E-3,200.00000298E-3,
,,,-46.43999785E-3,-7.400000351E3,,,,,-46.43999785E-3,2.0000001E-3,,,,,-46.43999785E-3,200.00000298E-3,
,,,-46.39999941E-3,-7.400000351E3,,,,,-46.39999941E-3,2.0000001E-3,,,,,-46.39999941E-3,200.00000298E-3,
,,,-46.36000097E-3,-7.400000351E3,,,,,-46.36000097E-3,2.0000001E-3,,,,,-46.36000097E-3,200.00000298E-3,
,,,-46.31999880E-3,-7.20000034E3,,,,,-46.31999880E-3,2.0000001E-3,,,,,-46.31999880E-3,200.00000298E-3,
,,,-46.28000036E-3,-7.20000034E3,,,,,-46.28000036E-3,4.00000019E-3,,,,,-46.28000036E-3,200.00000298E-3,
,,,-46.23999819E-3,-7.20000034E3,,,,,-46.23999819E-3,2.0000001E-3,,,,,-46.23999819E-3,400.00000596E-3,
,,,-46.19999975E-3,-7.20000034E3,,,,,-46.19999975E-3,2.0000001E-3,,,,,-46.19999975E-3,400.00000596E-3,
,,,-46.15999758E-3,-7.20000034E3,,,,,-46.15999758E-3,2.0000001E-3,,,,,-46.15999758E-3,200.00000298E-3,
,,,-46.11999914E-3,-7.00000033E3,,,,,-46.11999914E-3,2.0000001E-3,,,,,-46.11999914E-3,400.00000596E-3,
,,,-46.08000070E-3,-7.00000033E3,,,,,-46.08000070E-3,2.0000001E-3,,,,,-46.08000070E-3,400.00000596E-3,
,,,-46.03999853E-3,-7.00000033E3,,,,,-46.03999853E-3,2.0000001E-3,,,,,-46.03999853E-3,400.00000596E-3,
,,,-46.00000009E-3,-7.00000033E3,,,,,-46.00000009E-3,2.0000001E-3,,,,,-46.00000009E-3,400.00000596E-3,
,,,-45.95999792E-3,-7.00000033E3,,,,,-45.95999792E-3,2.0000001E-3,,,,,-45.95999792E-3,400.00000596E-3,
,,,-45.91999948E-3,-7.00000033E3,,,,,-45.91999948E-3,2.0000001E-3,,,,,-45.91999948E-3,200.00000298E-3,
,,,-45.88000104E-3,-7.00000033E3,,,,,-45.88000104E-3,2.0000001E-3,,,,,-45.88000104E-3,200.00000298E-3,
,,,-45.83999887E-3,-6.80000032E3,,,,,-45.83999887E-3,2.0000001E-3,,,,,-45.83999887E-3,200.00000298E-3,
,,,-45.80000043E-3,-7.00000033E3,,,,,-45.80000043E-3,2.0000001E-3,,,,,-45.80000043E-3,400.00000596E-3,
,,,-45.75999826E-3,-7.00000033E3,,,,,-45.75999826E-3,2.0000001E-3,,,,,-45.75999826E-3,200.00000298E-3,
,,,-45.71999982E-3,-7.00000033E3,,,,,-45.71999982E-3,2.0000001E-3,,,,,-45.71999982E-3,200.00000298E-3,
,,,-45.67999765E-3,-7.00000033E3,,,,,-45.67999765E-3,2.0000001E-3,,,,,-45.67999765E-3,400.00000596E-3,
,,,-45.63999921E-3,-7.00000033E3,,,,,-45.63999921E-3,0.0,,,,,-45.63999921E-3,400.00000596E-3,
,,,-45.60000077E-3,-7.20000034E3,,,,,-45.60000077E-3,2.0000001E-3,,,,,-45.60000077E-3,400.00000596E-3,
,,,-45.55999860E-3,-7.00000033E3,,,,,-45.55999860E-3,2.0000001E-3,,,,,-45.55999860E-3,200.00000298E-3,
,,,-45.52000016E-3,-7.20000034E3,,,,,-45.52000016E-3,2.0000001E-3,,,,,-45.52000016E-3,200.00000298E-3,
,,,-45.47999799E-3,-7.20000034E3,,,,,-45.47999799E-3,2.0000001E-3,,,,,-45.47999799E-3,400.00000596E-3,
,,,-45.43999955E-3,-7.20000034E3,,,,,-45.43999955E-3,2.0000001E-3,,,,,-45.43999955E-3,200.00000298E-3,
,,,-45.40000111E-3,-7.20000034E3,,,,,-45.40000111E-3,2.0000001E-3,,,,,-45.40000111E-3,200.00000298E-3,
,,,-45.35999894E-3,-7.20000034E3,,,,,-45.35999894E-3,2.0000001E-3,,,,,-45.35999894E-3,200.00000298E-3,
,,,-45.32000050E-3,-7.20000034E3,,,,,-45.32000050E-3,2.0000001E-3,,,,,-45.32000050E-3,200.00000298E-3,
,,,-45.27999833E-3,-7.20000034E3,,,,,-45.27999833E-3,2.0000001E-3,,,,,-45.27999833E-3,200.00000298E-3,
,,,-45.23999989E-3,-7.400000351E3,,,,,-45.23999989E-3,0.0,,,,,-45.23999989E-3,400.00000596E-3,
,,,-45.19999772E-3,-7.400000351E3,,,,,-45.19999772E-3,2.0000001E-3,,,,,-45.19999772E-3,200.00000298E-3,
,,,-45.15999928E-3,-7.400000351E3,,,,,-45.15999928E-3,2.0000001E-3,,,,,-45.15999928E-3,400.00000596E-3,
,,,-45.12000084E-3,-7.400000351E3,,,,,-45.12000084E-3,2.0000001E-3,,,,,-45.12000084E-3,200.00000298E-3,
,,,-45.07999867E-3,-7.400000351E3,,,,,-45.07999867E-3,2.0000001E-3,,,,,-45.07999867E-3,200.00000298E-3,
,,,-45.04000023E-3,-7.400000351E3,,,,,-45.04000023E-3,2.0000001E-3,,,,,-45.04000023E-3,200.00000298E-3,
,,,-44.99999806E-3,-7.600000361E3,,,,,-44.99999806E-3,2.0000001E-3,,,,,-44.99999806E-3,200.00000298E-3,
,,,-44.95999962E-3,-7.400000351E3,,,,,-44.95999962E-3,4.00000019E-3,,,,,-44.95999962E-3,400.00000596E-3,
,,,-44.91999745E-3,-7.400000351E3,,,,,-44.91999745E-3,2.0000001E-3,,,,,-44.91999745E-3,200.00000298E-3,
,,,-44.87999901E-3,-7.400000351E3,,,,,-44.87999901E-3,2.0000001E-3,,,,,-44.87999901E-3,200.00000298E-3,
,,,-44.84000057E-3,-7.400000351E3,,,,,-44.84000057E-3,2.0000001E-3,,,,,-44.84000057E-3,200.00000298E-3,
,,,-44.79999840E-3,-7.400000351E3,,,,,-44.79999840E-3,2.0000001E-3,,,,,-44.79999840E-3,400.00000596E-3,
,,,-44.75999996E-3,-7.400000351E3,,,,,-44.75999996E-3,2.0000001E-3,,,,,-44.75999996E-3,200.00000298E-3,
,,,-44.71999779E-3,-7.400000351E3,,,,,-44.71999779E-3,4.00000019E-3,,,,,-44.71999779E-3,400.00000596E-3,
,,,-44.67999935E-3,-7.400000351E3,,,,,-44.67999935E-3,4.00000019E-3,,,,,-44.67999935E-3,200.00000298E-3,
,,,-44.64000091E-3,-7.400000351E3,,,,,-44.64000091E-3,2.0000001E-3,,,,,-44.64000091E-3,400.00000596E-3,
,,,-44.59999874E-3,-7.400000351E3,,,,,-44.59999874E-3,4.00000019E-3,,,,,-44.59999874E-3,200.00000298E-3,
,,,-44.56000030E-3,-7.20000034E3,,,,,-44.56000030E-3,2.0000001E-3,,,,,-44.56000030E-3,200.00000298E-3,
,,,-44.51999813E-3,-7.20000034E3,,,,,-44.51999813E-3,4.00000019E-3,,,,,-44.51999813E-3,200.00000298E-3,
,,,-44.47999969E-3,-7.20000034E3,,,,,-44.47999969E-3,2.0000001E-3,,,,,-44.47999969E-3,200.00000298E-3,
,,,-44.43999752E-3,-7.20000034E3,,,,,-44.43999752E-3,4.00000019E-3,,,,,-44.43999752E-3,400.00000596E-3,
,,,-44.39999908E-3,-7.00000033E3,,,,,-44.39999908E-3,2.0000001E-3,,,,,-44.39999908E-3,400.00000596E-3,
,,,-44.36000064E-3,-7.00000033E3,,,,,-44.36000064E-3,2.0000001E-3,,,,,-44.36000064E-3,400.00000596E-3,
,,,-44.31999847E-3,-7.00000033E3,,,,,-44.31999847E-3,2.0000001E-3,,,,,-44.31999847E-3,200.00000298E-3,
,,,-44.28000003E-3,-7.00000033E3,,,,,-44.28000003E-3,2.0000001E-3,,,,,-44.28000003E-3,200.00000298E-3,
,,,-44.23999786E-3,-7.00000033E3,,,,,-44.23999786E-3,2.0000001E-3,,,,,-44.23999786E-3,200.00000298E-3,
,,,-44.19999942E-3,-7.00000033E3,,,,,-44.19999942E-3,2.0000001E-3,,,,,-44.19999942E-3,200.00000298E-3,
,,,-44.16000098E-3,-7.00000033E3,,,,,-44.16000098E-3,2.0000001E-3,,,,,-44.16000098E-3,200.00000298E-3,
,,,-44.11999881E-3,-7.00000033E3,,,,,-44.11999881E-3,2.0000001E-3,,,,,-44.11999881E-3,200.00000298E-3,
,,,-44.08000037E-3,-6.80000032E3,,,,,-44.08000037E-3,4.00000019E-3,,,,,-44.08000037E-3,200.00000298E-3,
,,,-44.03999820E-3,-6.80000032E3,,,,,-44.03999820E-3,4.00000019E-3,,,,,-44.03999820E-3,400.00000596E-3,
,,,-43.99999976E-3,-6.80000032E3,,,,,-43.99999976E-3,4.00000019E-3,,,,,-43.99999976E-3,400.00000596E-3,
,,,-43.95999759E-3,-6.60000031E3,,,,,-43.95999759E-3,2.0000001E-3,,,,,-43.95999759E-3,400.00000596E-3,
,,,-43.91999915E-3,-6.60000031E3,,,,,-43.91999915E-3,4.00000019E-3,,,,,-43.91999915E-3,400.00000596E-3,
,,,-43.88000071E-3,-6.40000030E3,,,,,-43.88000071E-3,4.00000019E-3,,,,,-43.88000071E-3,400.00000596E-3,
,,,-43.83999854E-3,-6.40000030E3,,,,,-43.83999854E-3,4.00000019E-3,,,,,-43.83999854E-3,200.00000298E-3,
,,,-43.80000010E-3,-6.20000029E3,,,,,-43.80000010E-3,4.00000019E-3,,,,,-43.80000010E-3,200.00000298E-3,
,,,-43.75999793E-3,-6.20000029E3,,,,,-43.75999793E-3,4.00000019E-3,,,,,-43.75999793E-3,200.00000298E-3,
,,,-43.71999949E-3,-6.00000028E3,,,,,-43.71999949E-3,4.00000019E-3,,,,,-43.71999949E-3,400.00000596E-3,
,,,-43.68000105E-3,-6.00000028E3,,,,,-43.68000105E-3,4.00000019E-3,,,,,-43.68000105E-3,400.00000596E-3,
,,,-43.63999888E-3,-5.80000028E3,,,,,-43.63999888E-3,4.00000019E-3,,,,,-43.63999888E-3,400.00000596E-3,
,,,-43.60000044E-3,-5.60000027E3,,,,,-43.60000044E-3,4.00000019E-3,,,,,-43.60000044E-3,200.00000298E-3,
,,,-43.55999827E-3,-5.60000027E3,,,,,-43.55999827E-3,4.00000019E-3,,,,,-43.55999827E-3,400.00000596E-3,
,,,-43.51999983E-3,-5.40000026E3,,,,,-43.51999983E-3,4.00000019E-3,,,,,-43.51999983E-3,400.00000596E-3,
,,,-43.47999766E-3,-5.00000024E3,,,,,-43.47999766E-3,4.00000019E-3,,,,,-43.47999766E-3,400.00000596E-3,
,,,-43.43999922E-3,-5.00000024E3,,,,,-43.43999922E-3,4.00000019E-3,,,,,-43.43999922E-3,400.00000596E-3,
,,,-43.40000078E-3,-4.80000023E3,,,,,-43.40000078E-3,4.00000019E-3,,,,,-43.40000078E-3,200.00000298E-3,
,,,-43.35999861E-3,-4.40000021E3,,,,,-43.35999861E-3,4.00000019E-3,,,,,-43.35999861E-3,400.00000596E-3,
,,,-43.32000017E-3,-4.20000020E3,,,,,-43.32000017E-3,2.0000001E-3,,,,,-43.32000017E-3,600.000023842E-3,
,,,-43.27999800E-3,-4.20000020E3,,,,,-43.27999800E-3,4.00000019E-3,,,,,-43.27999800E-3,200.00000298E-3,
,,,-43.23999956E-3,-4.00000019E3,,,,,-43.23999956E-3,4.00000019E-3,,,,,-43.23999956E-3,400.00000596E-3,
,,,-43.20000112E-3,-3.80000018E3,,,,,-43.20000112E-3,4.00000019E-3,,,,,-43.20000112E-3,400.00000596E-3,
,,,-43.15999895E-3,-3.60000017E3,,,,,-43.15999895E-3,4.00000019E-3,,,,,-43.15999895E-3,200.00000298E-3,
,,,-43.12000051E-3,-3.40000016E3,,,,,-43.12000051E-3,4.00000019E-3,,,,,-43.12000051E-3,200.00000298E-3,
,,,-43.07999834E-3,-3.20000015E3,,,,,-43.07999834E-3,2.0000001E-3,,,,,-43.07999834E-3,400.00000596E-3,
,,,-43.03999990E-3,-3.20000015E3,,,,,-43.03999990E-3,2.0000001E-3,,,,,-43.03999990E-3,400.00000596E-3,
,,,-42.99999774E-3,-3.20000015E3,,,,,-42.99999774E-3,2.0000001E-3,,,,,-42.99999774E-3,400.00000596E-3,
,,,-42.95999929E-3,-3.00000014E3,,,,,-42.95999929E-3,2.0000001E-3,,,,,-42.95999929E-3,200.00000298E-3,
,,,-42.92000085E-3,-3.00000014E3,,,,,-42.92000085E-3,2.0000001E-3,,,,,-42.92000085E-3,400.00000596E-3,
,,,-42.87999868E-3,-3.00000014E3,,,,,-42.87999868E-3,2.0000001E-3,,,,,-42.87999868E-3,200.00000298E-3,
,,,-42.84000024E-3,-3.00000014E3,,,,,-42.84000024E-3,2.0000001E-3,,,,,-42.84000024E-3,200.00000298E-3,
,,,-42.79999807E-3,-3.00000014E3,,,,,-42.79999807E-3,2.0000001E-3,,,,,-42.79999807E-3,400.00000596E-3,
,,,-42.75999963E-3,-3.00000014E3,,,,,-42.75999963E-3,0.0,,,,,-42.75999963E-3,400.00000596E-3,
,,,-42.72000119E-3,-3.00000014E3,,,,,-42.72000119E-3,2.0000001E-3,,,,,-42.72000119E-3,200.00000298E-3,
,,,-42.67999902E-3,-3.00000014E3,,,,,-42.67999902E-3,2.0000001E-3,,,,,-42.67999902E-3,400.00000596E-3,
,,,-42.64000058E-3,-3.00000014E3,,,,,-42.64000058E-3,2.0000001E-3,,,,,-42.64000058E-3,200.00000298E-3,
,,,-42.59999841E-3,-3.00000014E3,,,,,-42.59999841E-3,2.0000001E-3,,,,,-42.59999841E-3,400.00000596E-3,
,,,-42.55999997E-3,-3.20000015E3,,,,,-42.55999997E-3,2.0000001E-3,,,,,-42.55999997E-3,200.00000298E-3,
