programas de analisis electrico/potencia/version mejorada/prueba1.csv

Record Length,2500,Points,-49.99999874E-6,12.0000006E3,,Record Length,2500,Points,-49.99999874E-6,-28.00000086E-3,,Record Length,2500,Points,-49.99999874E-6,-19.9999996E-3,
Sample Interval,39.99999976E-9,s,-49.95999916E-6,11.8000006E3,,Sample Interval,39.99999976E-9,s,-49.95999916E-6,-32.00000152E-3,,Sample Interval,39.99999976E-9,s,-49.95999916E-6,-39.99999911E-3,
Trigger Point,1.2500000E3,Samples,-49.91999958E-6,12.0000006E3,,Trigger Point,1.2500000E3,Samples,-49.91999958E-6,-28.00000086E-3,,Trigger Point,1.2500000E3,Samples,-49.91999958E-6,-39.99999911E-3,
,,,-49.88000001E-6,12.0000006E3,,,,,-49.88000001E-6,-32.00000152E-3,,,,,-49.88000001E-6,-19.9999996E-3,
,,,-49.84000043E-6,12.0000006E3,,,,,-49.84000043E-6,-28.00000086E-3,,,,,-49.84000043E-6,-19.9999996E-3,
,,,-49.79999721E-6,11.8000006E3,,,,,-49.79999721E-6,-28.00000086E-3,,,,,-49.79999721E-6,-19.9999996E-3,
Source,CH1,,-49.75999764E-6,12.0000006E3,,Source,CH2,,-49.75999764E-6,-28.00000086E-3,,Source,CH3,,-49.75999764E-6,-39.99999911E-3,
Vertical Units,Volts,,-49.71999806E-6,12.0000006E3,,Vertical Units,Volts,,-49.71999806E-6,-20.0000014E-3,,Vertical Units,Volts,,-49.71999806E-6,-39.99999911E-3,
Vertical Scale,5.00000024E3,,-49.67999848E-6,12.2000006E3,,Vertical Scale,100.0000047E-3,,-49.67999848E-6,-28.00000086E-3,,Vertical Scale,499.999988824E-3,,-49.67999848E-6,-19.9999996E-3,
Vertical Offset,0,,-49.63999891E-6,11.8000006E3,,Vertical Offset,0,,-49.63999891E-6,-36.00000218E-3,,Vertical Offset,0,,-49.63999891E-6,-59.999998659E-3,
Horizontal Units,s,,-49.59999933E-6,11.8000006E3,,Horizontal Units,s,,-49.59999933E-6,-28.00000086E-3,,Horizontal Units,s,,-49.59999933E-6,-19.9999996E-3,
Horizontal Scale,9.999999939E-6,,-49.55999975E-6,11.8000006E3,,Horizontal Scale,9.999999939E-6,,-49.55999975E-6,-24.00000021E-3,,Horizontal Scale,9.999999939E-6,,-49.55999975E-6,-39.99999911E-3,
Pt Fmt,Y,,-49.52000018E-6,12.0000006E3,,Pt Fmt,Y,,-49.52000018E-6,-28.00000086E-3,,Pt Fmt,Y,,-49.52000018E-6,-39.99999911E-3,
Yzero,-1.7200000,,-49.47999696E-6,12.2000006E3,,Yzero,720.000000000E-3,,-49.47999696E-6,-28.00000086E-3,,Yzero,-1.9200000,,-49.47999696E-6,-39.99999911E-3,
Probe Atten,1.0000000E3,,-49.43999738E-6,12.0000006E3,,Probe Atten,1.000000,,-49.43999738E-6,-24.00000021E-3,,Probe Atten,1.000000,,-49.43999738E-6,0.0,
,,,-49.39999781E-6,11.6000006E3,,,,,-49.39999781E-6,-32.00000152E-3,,,,,-49.39999781E-6,-19.9999996E-3,
Note,TDS 2004B - 10:07:39 a. m.   14/8/2018,,-49.35999823E-6,12.2000006E3,,Note,TDS 2004B - 10:07:39 a. m.   14/8/2018,,-49.35999823E-6,-32.00000152E-3,,Note,TDS 2004B - 10:07:39 a. m.   14/8/2018,,-49.35999823E-6,-39.99999911E-3,
,,,-49.31999865E-6,11.6000006E3,,,,,-49.31999865E-6,-28.00000086E-3,,,,,-49.31999865E-6,-19.9999996E-3,
,,,-49.27999908E-6,11.6000006E3,,,,,-49.27999908E-6,-32.00000152E-3,,,,,-49.27999908E-6,-39.99999911E-3,
,,,-49.23999950E-6,11.8000006E3,,,,,-49.23999950E-6,-32.00000152E-3,,,,,-49.23999950E-6,-39.99999911E-3,
,,,-49.19999992E-6,11.6000006E3,,,,,-49.19999992E-6,-32.00000152E-3,,,,,-49.19999992E-6,-39.99999911E-3,
,,,-49.16000034E-6,11.6000006E3,,,,,-49.16000034E-6,-28.00000086E-3,,,,,-49.16000034E-6,-39.99999911E-3,
,,,-49.11999713E-6,11.8000006E3,,,,,-49.11999713E-6,-36.00000218E-3,,,,,-49.11999713E-6,0.0,
,,,-49.07999755E-6,11.6000006E3,,,,,-49.07999755E-6,-28.00000086E-3,,,,,-49.07999755E-6,0.0,
,,,-49.03999798E-6,11.4000005E3,,,,,-49.03999798E-6,-32.00000152E-3,,,,,-49.03999798E-6,-19.9999996E-3,
,,,-48.99999840E-6,11.4000005E3,,,,,-48.99999840E-6,-32.00000152E-3,,,,,-48.99999840E-6,-39.99999911E-3,
,,,-48.95999882E-6,11.6000006E3,,,,,-48.95999882E-6,-32.00000152E-3,,,,,-48.95999882E-6,-19.9999996E-3,
,,,-48.91999924E-6,11.6000006E3,,,,,-48.91999924E-6,-32.00000152E-3,,,,,-48.91999924E-6,-39.99999911E-3,
,,,-48.87999967E-6,11.4000005E3,,,,,-48.87999967E-6,-32.00000152E-3,,,,,-48.87999967E-6,0.0,
,,,-48.84000009E-6,11.8000006E3,,,,,-48.84000009E-6,-36.00000218E-3,,,,,-48.84000009E-6,-19.9999996E-3,
,,,-48.80000051E-6,11.4000005E3,,,,,-48.80000051E-6,-24.00000021E-3,,,,,-48.80000051E-6,0.0,
,,,-48.75999730E-6,11.2000005E3,,,,,-48.75999730E-6,-24.00000021E-3,,,,,-48.75999730E-6,-19.9999996E-3,
,,,-48.71999772E-6,11.2000005E3,,,,,-48.71999772E-6,-28.00000086E-3,,,,,-48.71999772E-6,0.0,
,,,-48.67999814E-6,11.6000006E3,,,,,-48.67999814E-6,-32.00000152E-3,,,,,-48.67999814E-6,-19.9999996E-3,
,,,-48.63999857E-6,11.6000006E3,,,,,-48.63999857E-6,-24.00000021E-3,,,,,-48.63999857E-6,-19.9999996E-3,
,,,-48.59999899E-6,11.4000005E3,,,,,-48.59999899E-6,-32.00000152E-3,,,,,-48.59999899E-6,-19.9999996E-3,
,,,-48.55999941E-6,11.4000005E3,,,,,-48.55999941E-6,-32.00000152E-3,,,,,-48.55999941E-6,-19.9999996E-3,
,,,-48.51999984E-6,11.4000005E3,,,,,-48.51999984E-6,-28.00000086E-3,,,,,-48.51999984E-6,-19.9999996E-3,
,,,-48.48000026E-6,11.2000005E3,,,,,-48.48000026E-6,-28.00000086E-3,,,,,-48.48000026E-6,-19.9999996E-3,
,,,-48.43999704E-6,11.2000005E3,,,,,-48.43999704E-6,-32.00000152E-3,,,,,-48.43999704E-6,-19.9999996E-3,
,,,-48.39999747E-6,11.4000005E3,,,,,-48.39999747E-6,-24.00000021E-3,,,,,-48.39999747E-6,-19.9999996E-3,
,,,-48.35999789E-6,11.2000005E3,,,,,-48.35999789E-6,-36.00000218E-3,,,,,-48.35999789E-6,-19.9999996E-3,
,,,-48.31999831E-6,11.2000005E3,,,,,-48.31999831E-6,-32.00000152E-3,,,,,-48.31999831E-6,-79.999998212E-3,
,,,-48.27999874E-6,11.2000005E3,,,,,-48.27999874E-6,-28.00000086E-3,,,,,-48.27999874E-6,-19.9999996E-3,
,,,-48.23999916E-6,11.2000005E3,,,,,-48.23999916E-6,-32.00000152E-3,,,,,-48.23999916E-6,-19.9999996E-3,
,,,-48.19999958E-6,11.2000005E3,,,,,-48.19999958E-6,-28.00000086E-3,,,,,-48.19999958E-6,-99.999994040E-3,
,,,-48.16000001E-6,11.2000005E3,,,,,-48.16000001E-6,-36.00000218E-3,,,,,-48.16000001E-6,-19.9999996E-3,
,,,-48.12000043E-6,11.2000005E3,,,,,-48.12000043E-6,-36.00000218E-3,,,,,-48.12000043E-6,-39.99999911E-3,
,,,-48.07999721E-6,11.2000005E3,,,,,-48.07999721E-6,-32.00000152E-3,,,,,-48.07999721E-6,-39.99999911E-3,
,,,-48.03999764E-6,11.2000005E3,,,,,-48.03999764E-6,-28.00000086E-3,,,,,-48.03999764E-6,-39.99999911E-3,
,,,-47.99999806E-6,11.0000005E3,,,,,-47.99999806E-6,-36.00000218E-3,,,,,-47.99999806E-6,-19.9999996E-3,
,,,-47.95999848E-6,11.0000005E3,,,,,-47.95999848E-6,-28.00000086E-3,,,,,-47.95999848E-6,0.0,
,,,-47.91999891E-6,11.2000005E3,,,,,-47.91999891E-6,-32.00000152E-3,,,,,-47.91999891E-6,0.0,
,,,-47.87999933E-6,11.2000005E3,,,,,-47.87999933E-6,-36.00000218E-3,,,,,-47.87999933E-6,-39.99999911E-3,
,,,-47.83999975E-6,11.2000005E3,,,,,-47.83999975E-6,-28.00000086E-3,,,,,-47.83999975E-6,-19.9999996E-3,
,,,-47.80000017E-6,11.0000005E3,,,,,-47.80000017E-6,-28.00000086E-3,,,,,-47.80000017E-6,19.9999996E-3,
,,,-47.75999696E-6,11.0000005E3,,,,,-47.75999696E-6,-32.00000152E-3,,,,,-47.75999696E-6,-19.9999996E-3,
,,,-47.71999738E-6,11.2000005E3,,,,,-47.71999738E-6,-24.00000021E-3,,,,,-47.71999738E-6,-39.99999911E-3,
,,,-47.67999781E-6,11.0000005E3,,,,,-47.67999781E-6,-28.00000086E-3,,,,,-47.67999781E-6,-19.9999996E-3,
,,,-47.63999823E-6,10.8000005E3,,,,,-47.63999823E-6,-28.00000086E-3,,,,,-47.63999823E-6,-39.99999911E-3,
,,,-47.59999865E-6,10.8000005E3,,,,,-47.59999865E-6,-28.00000086E-3,,,,,-47.59999865E-6,-59.999998659E-3,
,,,-47.55999908E-6,10.8000005E3,,,,,-47.55999908E-6,-24.00000021E-3,,,,,-47.55999908E-6,-19.9999996E-3,
,,,-47.51999950E-6,10.8000005E3,,,,,-47.51999950E-6,-36.00000218E-3,,,,,-47.51999950E-6,-19.9999996E-3,
,,,-47.47999992E-6,10.8000005E3,,,,,-47.47999992E-6,-24.00000021E-3,,,,,-47.47999992E-6,-39.99999911E-3,
,,,-47.44000034E-6,11.2000005E3,,,,,-47.44000034E-6,-28.00000086E-3,,,,,-47.44000034E-6,-19.9999996E-3,
,,,-47.39999713E-6,10.6000005E3,,,,,-47.39999713E-6,-28.00000086E-3,,,,,-47.39999713E-6,-39.99999911E-3,
,,,-47.35999755E-6,10.8000005E3,,,,,-47.35999755E-6,-28.00000086E-3,,,,,-47.35999755E-6,-59.999998659E-3,
,,,-47.31999798E-6,10.8000005E3,,,,,-47.31999798E-6,-32.00000152E-3,,,,,-47.31999798E-6,-19.9999996E-3,
,,,-47.27999840E-6,10.6000005E3,,,,,-47.27999840E-6,-32.00000152E-3,,,,,-47.27999840E-6,-39.99999911E-3,
,,,-47.23999882E-6,10.6000005E3,,,,,-47.23999882E-6,-28.00000086E-3,,,,,-47.23999882E-6,-39.99999911E-3,
,,,-47.19999924E-6,10.6000005E3,,,,,-47.19999924E-6,-32.00000152E-3,,,,,-47.19999924E-6,0.0,
,,,-47.15999967E-6,10.6000005E3,,,,,-47.15999967E-6,-28.00000086E-3,,,,,-47.15999967E-6,-19.9999996E-3,
,,,-47.12000009E-6,10.6000005E3,,,,,-47.12000009E-6,-28.00000086E-3,,,,,-47.12000009E-6,-19.9999996E-3,
,,,-47.08000051E-6,10.6000005E3,,,,,-47.08000051E-6,-28.00000086E-3,,,,,-47.08000051E-6,-39.99999911E-3,
,,,-47.03999730E-6,10.4000005E3,,,,,-47.03999730E-6,-32.00000152E-3,,,,,-47.03999730E-6,-19.9999996E-3,
,,,-46.99999772E-6,10.6000005E3,,,,,-46.99999772E-6,-28.00000086E-3,,,,,-46.99999772E-6,-19.9999996E-3,
,,,-46.95999814E-6,10.4000005E3,,,,,-46.95999814E-6,-32.00000152E-3,,,,,-46.95999814E-6,-19.9999996E-3,
,,,-46.91999857E-6,10.6000005E3,,,,,-46.91999857E-6,-24.00000021E-3,,,,,-46.91999857E-6,0.0,
,,,-46.87999899E-6,10.8000005E3,,,,,-46.87999899E-6,-28.00000086E-3,,,,,-46.87999899E-6,-39.99999911E-3,
,,,-46.83999941E-6,10.4000005E3,,,,,-46.83999941E-6,-28.00000086E-3,,,,,-46.83999941E-6,-39.99999911E-3,
,,,-46.79999984E-6,10.4000005E3,,,,,-46.79999984E-6,-32.00000152E-3,,,,,-46.79999984E-6,-39.99999911E-3,
,,,-46.76000026E-6,10.4000005E3,,,,,-46.76000026E-6,-32.00000152E-3,,,,,-46.76000026E-6,-19.9999996E-3,
,,,-46.71999704E-6,10.6000005E3,,,,,-46.71999704E-6,-32.00000152E-3,,,,,-46.71999704E-6,-19.9999996E-3,
,,,-46.67999747E-6,10.4000005E3,,,,,-46.67999747E-6,-24.00000021E-3,,,,,-46.67999747E-6,-59.999998659E-3,
,,,-46.63999789E-6,10.2000005E3,,,,,-46.63999789E-6,-28.00000086E-3,,,,,-46.63999789E-6,-59.999998659E-3,
,,,-46.59999831E-6,10.4000005E3,,,,,-46.59999831E-6,-24.00000021E-3,,,,,-46.59999831E-6,-39.99999911E-3,
,,,-46.55999874E-6,10.4000005E3,,,,,-46.55999874E-6,-28.00000086E-3,,,,,-46.55999874E-6,-19.9999996E-3,
,,,-46.51999916E-6,10.2000005E3,,,,,-46.51999916E-6,-28.00000086E-3,,,,,-46.51999916E-6,-19.9999996E-3,
,,,-46.47999958E-6,10.4000005E3,,,,,-46.47999958E-6,-32.00000152E-3,,,,,-46.47999958E-6,-19.9999996E-3,
,,,-46.44000001E-6,10.4000005E3,,,,,-46.44000001E-6,-28.00000086E-3,,,,,-46.44000001E-6,-39.99999911E-3,
,,,-46.40000043E-6,10.2000005E3,,,,,-46.40000043E-6,-24.00000021E-3,,,,,-46.40000043E-6,-39.99999911E-3,
,,,-46.35999721E-6,10.2000005E3,,,,,-46.35999721E-6,-28.00000086E-3,,,,,-46.35999721E-6,-39.99999911E-3,
,,,-46.31999764E-6,10.2000005E3,,,,,-46.31999764E-6,-24.00000021E-3,,,,,-46.31999764E-6,-19.9999996E-3,
,,,-46.27999806E-6,10.0000005E3,,,,,-46.27999806E-6,-32.00000152E-3,,,,,-46.27999806E-6,-19.9999996E-3,
,,,-46.23999848E-6,10.2000005E3,,,,,-46.23999848E-6,-28.00000086E-3,,,,,-46.23999848E-6,-19.9999996E-3,
,,,-46.19999891E-6,10.0000005E3,,,,,-46.19999891E-6,-32.00000152E-3,,,,,-46.19999891E-6,-39.99999911E-3,
,,,-46.15999933E-6,10.2000005E3,,,,,-46.15999933E-6,-20.0000014E-3,,,,,-46.15999933E-6,-59.999998659E-3,
,,,-46.11999975E-6,10.0000005E3,,,,,-46.11999975E-6,-20.0000014E-3,,,,,-46.11999975E-6,-59.999998659E-3,
,,,-46.08000017E-6,10.2000005E3,,,,,-46.08000017E-6,-28.00000086E-3,,,,,-46.08000017E-6,-19.9999996E-3,
,,,-46.03999696E-6,10.0000005E3,,,,,-46.03999696E-6,-32.00000152E-3,,,,,-46.03999696E-6,-19.9999996E-3,
,,,-45.99999738E-6,9.800000465E3,,,,,-45.99999738E-6,-32.00000152E-3,,,,,-45.99999738E-6,-39.99999911E-3,
,,,-45.95999781E-6,9.800000465E3,,,,,-45.95999781E-6,-28.00000086E-3,,,,,-45.95999781E-6,-39.99999911E-3,
,,,-45.91999823E-6,10.0000005E3,,,,,-45.91999823E-6,-36.00000218E-3,,,,,-45.91999823E-6,-59.999998659E-3,
,,,-45.87999865E-6,10.0000005E3,,,,,-45.87999865E-6,-20.0000014E-3,,,,,-45.87999865E-6,-59.999998659E-3,
,,,-45.83999907E-6,10.0000005E3,,,,,-45.83999907E-6,-28.00000086E-3,,,,,-45.83999907E-6,-19.9999996E-3,
,,,-45.79999950E-6,9.800000465E3,,,,,-45.79999950E-6,-32.00000152E-3,,,,,-45.79999950E-6,-39.99999911E-3,
,,,-45.75999992E-6,10.0000005E3,,,,,-45.75999992E-6,-28.00000086E-3,,,,,-45.75999992E-6,-39.99999911E-3,
,,,-45.72000034E-6,9.800000465E3,,,,,-45.72000034E-6,-32.00000152E-3,,,,,-45.72000034E-6,-39.99999911E-3,
,,,-45.67999713E-6,9.800000465E3,,,,,-45.67999713E-6,-32.00000152E-3,,,,,-45.67999713E-6,-59.999998659E-3,
,,,-45.63999755E-6,9.600000456E3,,,,,-45.63999755E-6,-24.00000021E-3,,,,,-45.63999755E-6,-39.99999911E-3,
,,,-45.59999797E-6,9.600000456E3,,,,,-45.59999797E-6,-28.00000086E-3,,,,,-45.59999797E-6,-39.99999911E-3,
,,,-45.55999840E-6,9.600000456E3,,,,,-45.55999840E-6,-32.00000152E-3,,,,,-45.55999840E-6,-39.99999911E-3,
,,,-45.51999882E-6,9.800000465E3,,,,,-45.51999882E-6,-28.00000086E-3,,,,,-45.51999882E-6,-59.999998659E-3,
,,,-45.47999924E-6,9.800000465E3,,,,,-45.47999924E-6,-24.00000021E-3,,,,,-45.47999924E-6,-39.99999911E-3,
,,,-45.43999967E-6,9.400000446E3,,,,,-45.43999967E-6,-28.00000086E-3,,,,,-45.43999967E-6,-19.9999996E-3,
,,,-45.40000009E-6,9.800000465E3,,,,,-45.40000009E-6,-28.00000086E-3,,,,,-45.40000009E-6,-59.999998659E-3,
,,,-45.36000051E-6,9.400000446E3,,,,,-45.36000051E-6,-28.00000086E-3,,,,,-45.36000051E-6,0.0,
,,,-45.31999730E-6,9.800000465E3,,,,,-45.31999730E-6,-24.00000021E-3,,,,,-45.31999730E-6,-19.9999996E-3,
,,,-45.27999772E-6,9.600000456E3,,,,,-45.27999772E-6,-24.00000021E-3,,,,,-45.27999772E-6,-19.9999996E-3,
,,,-45.23999814E-6,9.400000446E3,,,,,-45.23999814E-6,-28.00000086E-3,,,,,-45.23999814E-6,-39.99999911E-3,
,,,-45.19999857E-6,9.600000456E3,,,,,-45.19999857E-6,-28.00000086E-3,,,,,-45.19999857E-6,-99.999994040E-3,
,,,-45.15999899E-6,9.800000465E3,,,,,-45.15999899E-6,-24.00000021E-3,,,,,-45.15999899E-6,-19.9999996E-3,
,,,-45.11999941E-6,9.600000456E3,,,,,-45.11999941E-6,-24.00000021E-3,,,,,-45.11999941E-6,-19.9999996E-3,
,,,-45.07999984E-6,9.400000446E3,,,,,-45.07999984E-6,-28.00000086E-3,,,,,-45.07999984E-6,0.0,
,,,-45.04000026E-6,9.200000437E3,,,,,-45.04000026E-6,-24.00000021E-3,,,,,-45.04000026E-6,-39.99999911E-3,
,,,-44.99999704E-6,9.400000446E3,,,,,-44.99999704E-6,-32.00000152E-3,,,,,-44.99999704E-6,-39.99999911E-3,
,,,-44.95999747E-6,9.600000456E3,,,,,-44.95999747E-6,-28.00000086E-3,,,,,-44.95999747E-6,-19.9999996E-3,
,,,-44.91999789E-6,9.200000437E3,,,,,-44.91999789E-6,-24.00000021E-3,,,,,-44.91999789E-6,-39.99999911E-3,
,,,-44.87999831E-6,9.400000446E3,,,,,-44.87999831E-6,-36.00000218E-3,,,,,-44.87999831E-6,-19.9999996E-3,
,,,-44.83999874E-6,9.400000446E3,,,,,-44.83999874E-6,-20.0000014E-3,,,,,-44.83999874E-6,-39.99999911E-3,
,,,-44.79999916E-6,9.200000437E3,,,,,-44.79999916E-6,-24.00000021E-3,,,,,-44.79999916E-6,-19.9999996E-3,
,,,-44.75999958E-6,9.600000456E3,,,,,-44.75999958E-6,-28.00000086E-3,,,,,-44.75999958E-6,-39.99999911E-3,
,,,-44.72000001E-6,9.400000446E3,,,,,-44.72000001E-6,-24.00000021E-3,,,,,-44.72000001E-6,-19.9999996E-3,
,,,-44.68000043E-6,9.200000437E3,,,,,-44.68000043E-6,-24.00000021E-3,,,,,-44.68000043E-6,-39.99999911E-3,
,,,-44.63999721E-6,9.200000437E3,,,,,-44.63999721E-6,-28.00000086E-3,,,,,-44.63999721E-6,-39.99999911E-3,
,,,-44.59999764E-6,9.000000427E3,,,,,-44.59999764E-6,-24.00000021E-3,,,,,-44.59999764E-6,-19.9999996E-3,
,,,-44.55999806E-6,9.200000437E3,,,,,-44.55999806E-6,-24.00000021E-3,,,,,-44.55999806E-6,-19.9999996E-3,
,,,-44.51999848E-6,9.200000437E3,,,,,-44.51999848E-6,-24.00000021E-3,,,,,-44.51999848E-6,-19.9999996E-3,
,,,-44.47999891E-6,9.000000427E3,,,,,-44.47999891E-6,-24.00000021E-3,,,,,-44.47999891E-6,-59.999998659E-3,
,,,-44.43999933E-6,9.000000427E3,,,,,-44.43999933E-6,-24.00000021E-3,,,,,-44.43999933E-6,-19.9999996E-3,
,,,-44.39999975E-6,9.200000437E3,,,,,-44.39999975E-6,-32.00000152E-3,,,,,-44.39999975E-6,-19.9999996E-3,
,,,-44.36000017E-6,9.000000427E3,,,,,-44.36000017E-6,-24.00000021E-3,,,,,-44.36000017E-6,-39.99999911E-3,
,,,-44.31999696E-6,9.000000427E3,,,,,-44.31999696E-6,-28.00000086E-3,,,,,-44.31999696E-6,-39.99999911E-3,
,,,-44.27999738E-6,9.000000427E3,,,,,-44.27999738E-6,-24.00000021E-3,,,,,-44.27999738E-6,-19.9999996E-3,
,,,-44.23999781E-6,9.000000427E3,,,,,-44.23999781E-6,-20.0000014E-3,,,,,-44.23999781E-6,-99.999994040E-3,
,,,-44.19999823E-6,8.800000418E3,,,,,-44.19999823E-6,-28.00000086E-3,,,,,-44.19999823E-6,-59.999998659E-3,
,,,-44.15999865E-6,9.400000446E3,,,,,-44.15999865E-6,-32.00000152E-3,,,,,-44.15999865E-6,-39.99999911E-3,
,,,-44.11999907E-6,9.000000427E3,,,,,-44.11999907E-6,-24.00000021E-3,,,,,-44.11999907E-6,-19.9999996E-3,
,,,-44.07999950E-6,9.000000427E3,,,,,-44.07999950E-6,-28.00000086E-3,,,,,-44.07999950E-6,-39.99999911E-3,
,,,-44.03999992E-6,9.000000427E3,,,,,-44.03999992E-6,-28.00000086E-3,,,,,-44.03999992E-6,-19.9999996E-3,
,,,-44.00000034E-6,8.800000418E3,,,,,-44.00000034E-6,-28.00000086E-3,,,,,-44.00000034E-6,-39.99999911E-3,
,,,-43.95999713E-6,9.000000427E3,,,,,-43.95999713E-6,-24.00000021E-3,,,,,-43.95999713E-6,-59.999998659E-3,
,,,-43.91999755E-6,8.600000408E3,,,,,-43.91999755E-6,-24.00000021E-3,,,,,-43.91999755E-6,-19.9999996E-3,
,,,-43.87999797E-6,8.800000418E3,,,,,-43.87999797E-6,-32.00000152E-3,,,,,-43.87999797E-6,-19.9999996E-3,
,,,-43.83999840E-6,9.000000427E3,,,,,-43.83999840E-6,-32.00000152E-3,,,,,-43.83999840E-6,-39.99999911E-3,
,,,-43.79999882E-6,8.800000418E3,,,,,-43.79999882E-6,-20.0000014E-3,,,,,-43.79999882E-6,-39.99999911E-3,
,,,-43.75999924E-6,8.600000408E3,,,,,-43.75999924E-6,-32.00000152E-3,,,,,-43.75999924E-6,-19.9999996E-3,
,,,-43.71999967E-6,9.000000427E3,,,,,-43.71999967E-6,-28.00000086E-3,,,,,-43.71999967E-6,-19.9999996E-3,
,,,-43.68000009E-6,8.800000418E3,,,,,-43.68000009E-6,-24.00000021E-3,,,,,-43.68000009E-6,-39.99999911E-3,
,,,-43.64000051E-6,8.600000408E3,,,,,-43.64000051E-6,-28.00000086E-3,,,,,-43.64000051E-6,-59.999998659E-3,
,,,-43.59999730E-6,8.600000408E3,,,,,-43.59999730E-6,-32.00000152E-3,,,,,-43.59999730E-6,-19.9999996E-3,
,,,-43.55999772E-6,8.600000408E3,,,,,-43.55999772E-6,-28.00000086E-3,,,,,-43.55999772E-6,-19.9999996E-3,
,,,-43.51999814E-6,8.600000408E3,,,,,-43.51999814E-6,-32.00000152E-3,,,,,-43.51999814E-6,-59.999998659E-3,
,,,-43.47999857E-6,8.600000408E3,,,,,-43.47999857E-6,-20.0000014E-3,,,,,-43.47999857E-6,-19.9999996E-3,
,,,-43.43999899E-6,8.800000418E3,,,,,-43.43999899E-6,-24.00000021E-3,,,,,-43.43999899E-6,-19.9999996E-3,
,,,-43.39999941E-6,8.600000408E3,,,,,-43.39999941E-6,-32.00000152E-3,,,,,-43.39999941E-6,-19.9999996E-3,
,,,-43.35999984E-6,8.600000408E3,,,,,-43.35999984E-6,-24.00000021E-3,,,,,-43.35999984E-6,-19.9999996E-3,
,,,-43.32000026E-6,8.600000408E3,,,,,-43.32000026E-6,-28.00000086E-3,,,,,-43.32000026E-6,-19.9999996E-3,
,,,-43.27999704E-6,8.600000408E3,,,,,-43.27999704E-6,-36.00000218E-3,,,,,-43.27999704E-6,-59.999998659E-3,
,,,-43.23999747E-6,8.600000408E3,,,,,-43.23999747E-6,-24.00000021E-3,,,,,-43.23999747E-6,0.0,
,,,-43.19999789E-6,8.600000408E3,,,,,-43.19999789E-6,-28.00000086E-3,,,,,-43.19999789E-6,-19.9999996E-3,
,,,-43.15999831E-6,8.600000408E3,,,,,-43.15999831E-6,-32.00000152E-3,,,,,-43.15999831E-6,-39.99999911E-3,
,,,-43.11999874E-6,8.600000408E3,,,,,-43.11999874E-6,-24.00000021E-3,,,,,-43.11999874E-6,-39.99999911E-3,
,,,-43.07999916E-6,8.600000408E3,,,,,-43.07999916E-6,-28.00000086E-3,,,,,-43.07999916E-6,-39.99999911E-3,
,,,-43.03999958E-6,8.600000408E3,,,,,-43.03999958E-6,-28.00000086E-3,,,,,-43.03999958E-6,-39.99999911E-3,
,,,-43.00000001E-6,8.600000408E3,,,,,-43.00000001E-6,-20.0000014E-3,,,,,-43.00000001E-6,-19.9999996E-3,
,,,-42.96000043E-6,8.400000399E3,,,,,-42.96000043E-6,-24.00000021E-3,,,,,-42.96000043E-6,-19.9999996E-3,
,,,-42.91999721E-6,8.600000408E3,,,,,-42.91999721E-6,-20.0000014E-3,,,,,-42.91999721E-6,-19.9999996E-3,
,,,-42.87999764E-6,8.600000408E3,,,,,-42.87999764E-6,-28.00000086E-3,,,,,-42.87999764E-6,-19.9999996E-3,
,,,-42.83999806E-6,8.400000399E3,,,,,-42.83999806E-6,-28.00000086E-3,,,,,-42.83999806E-6,-59.999998659E-3,
,,,-42.79999848E-6,8.400000399E3,,,,,-42.79999848E-6,-28.00000086E-3,,,,,-42.79999848E-6,-39.99999911E-3,
,,,-42.75999891E-6,8.400000399E3,,,,,-42.75999891E-6,-24.00000021E-3,,,,,-42.75999891E-6,0.0,
,,,-42.71999933E-6,8.400000399E3,,,,,-42.71999933E-6,-24.00000021E-3,,,,,-42.71999933E-6,-19.9999996E-3,
